[2022-06-02T11:22:28.872+0530][gc,heap] Heap region size: 1M
[2022-06-02T11:22:28.881+0530][gc     ] Using G1
[2022-06-02T11:22:28.881+0530][gc,heap,coops] Heap address: 0x00000000c0000000, size: 1024 MB, Compressed Oops mode: 32-bit
[2022-06-02T11:22:28.881+0530][gc,cds       ] Mark closed archive regions in map: [0x00000000fff00000, 0x00000000fff6aff8]
[2022-06-02T11:22:28.881+0530][gc,cds       ] Mark open archive regions in map: [0x00000000ffe00000, 0x00000000ffe46ff8]
[2022-06-02T11:22:30.082+0530][gc,start     ] GC(0) Pause Young (Normal) (G1 Evacuation Pause)
[2022-06-02T11:22:30.084+0530][gc,task      ] GC(0) Using 8 workers of 8 for evacuation
[2022-06-02T11:22:30.095+0530][gc,phases    ] GC(0)   Pre Evacuate Collection Set: 0.0ms
[2022-06-02T11:22:30.095+0530][gc,phases    ] GC(0)   Evacuate Collection Set: 10.8ms
[2022-06-02T11:22:30.095+0530][gc,phases    ] GC(0)   Post Evacuate Collection Set: 0.5ms
[2022-06-02T11:22:30.095+0530][gc,phases    ] GC(0)   Other: 1.3ms
[2022-06-02T11:22:30.095+0530][gc,heap      ] GC(0) Eden regions: 51->0(44)
[2022-06-02T11:22:30.095+0530][gc,heap      ] GC(0) Survivor regions: 0->7(7)
[2022-06-02T11:22:30.095+0530][gc,heap      ] GC(0) Old regions: 2->2
[2022-06-02T11:22:30.095+0530][gc,heap      ] GC(0) Humongous regions: 0->0
[2022-06-02T11:22:30.095+0530][gc,metaspace ] GC(0) Metaspace: 14642K->14642K(1062912K)
[2022-06-02T11:22:30.095+0530][gc           ] GC(0) Pause Young (Normal) (G1 Evacuation Pause) 51M->7M(1024M) 12.736ms
[2022-06-02T11:22:30.095+0530][gc,cpu       ] GC(0) User=0.07s Sys=0.00s Real=0.01s
[2022-06-02T11:22:31.633+0530][gc,start     ] GC(1) Pause Young (Concurrent Start) (Metadata GC Threshold)
[2022-06-02T11:22:31.633+0530][gc,task      ] GC(1) Using 8 workers of 8 for evacuation
[2022-06-02T11:22:31.647+0530][gc,phases    ] GC(1)   Pre Evacuate Collection Set: 0.1ms
[2022-06-02T11:22:31.647+0530][gc,phases    ] GC(1)   Evacuate Collection Set: 13.0ms
[2022-06-02T11:22:31.647+0530][gc,phases    ] GC(1)   Post Evacuate Collection Set: 0.8ms
[2022-06-02T11:22:31.647+0530][gc,phases    ] GC(1)   Other: 0.5ms
[2022-06-02T11:22:31.647+0530][gc,heap      ] GC(1) Eden regions: 25->0(49)
[2022-06-02T11:22:31.647+0530][gc,heap      ] GC(1) Survivor regions: 7->2(7)
[2022-06-02T11:22:31.647+0530][gc,heap      ] GC(1) Old regions: 2->9
[2022-06-02T11:22:31.647+0530][gc,heap      ] GC(1) Humongous regions: 0->0
[2022-06-02T11:22:31.647+0530][gc,metaspace ] GC(1) Metaspace: 20580K->20580K(1067008K)
[2022-06-02T11:22:31.647+0530][gc           ] GC(1) Pause Young (Concurrent Start) (Metadata GC Threshold) 31M->8M(1024M) 14.491ms
[2022-06-02T11:22:31.647+0530][gc,cpu       ] GC(1) User=0.06s Sys=0.01s Real=0.02s
[2022-06-02T11:22:31.647+0530][gc           ] GC(2) Concurrent Cycle
[2022-06-02T11:22:31.647+0530][gc,marking   ] GC(2) Concurrent Clear Claimed Marks
[2022-06-02T11:22:31.647+0530][gc,marking   ] GC(2) Concurrent Clear Claimed Marks 0.196ms
[2022-06-02T11:22:31.647+0530][gc,marking   ] GC(2) Concurrent Scan Root Regions
[2022-06-02T11:22:31.649+0530][gc,marking   ] GC(2) Concurrent Scan Root Regions 1.576ms
[2022-06-02T11:22:31.649+0530][gc,marking   ] GC(2) Concurrent Mark (2.780s)
[2022-06-02T11:22:31.649+0530][gc,marking   ] GC(2) Concurrent Mark From Roots
[2022-06-02T11:22:31.649+0530][gc,task      ] GC(2) Using 2 workers of 2 for marking
[2022-06-02T11:22:31.658+0530][gc,marking   ] GC(2) Concurrent Mark From Roots 8.832ms
[2022-06-02T11:22:31.658+0530][gc,marking   ] GC(2) Concurrent Preclean
[2022-06-02T11:22:31.658+0530][gc,marking   ] GC(2) Concurrent Preclean 0.348ms
[2022-06-02T11:22:31.658+0530][gc,marking   ] GC(2) Concurrent Mark (2.780s, 2.789s) 9.248ms
[2022-06-02T11:22:31.659+0530][gc,start     ] GC(2) Pause Remark
[2022-06-02T11:22:31.666+0530][gc,stringtable] GC(2) Cleaned string and symbol table, strings: 5220 processed, 0 removed, symbols: 51139 processed, 45 removed
[2022-06-02T11:22:31.666+0530][gc            ] GC(2) Pause Remark 9M->9M(1024M) 7.353ms
[2022-06-02T11:22:31.666+0530][gc,cpu        ] GC(2) User=0.04s Sys=0.01s Real=0.01s
[2022-06-02T11:22:31.666+0530][gc,marking    ] GC(2) Concurrent Rebuild Remembered Sets
[2022-06-02T11:22:31.670+0530][gc,marking    ] GC(2) Concurrent Rebuild Remembered Sets 4.288ms
[2022-06-02T11:22:31.670+0530][gc,start      ] GC(2) Pause Cleanup
[2022-06-02T11:22:31.671+0530][gc            ] GC(2) Pause Cleanup 10M->10M(1024M) 0.235ms
[2022-06-02T11:22:31.671+0530][gc,cpu        ] GC(2) User=0.00s Sys=0.00s Real=0.00s
[2022-06-02T11:22:31.671+0530][gc,marking    ] GC(2) Concurrent Cleanup for Next Mark
[2022-06-02T11:22:31.675+0530][gc,marking    ] GC(2) Concurrent Cleanup for Next Mark 4.328ms
[2022-06-02T11:22:31.675+0530][gc            ] GC(2) Concurrent Cycle 28.009ms
[2022-06-02T11:22:32.487+0530][gc,start      ] GC(3) Pause Young (Normal) (G1 Evacuation Pause)
[2022-06-02T11:22:32.487+0530][gc,task       ] GC(3) Using 8 workers of 8 for evacuation
[2022-06-02T11:22:32.494+0530][gc,phases     ] GC(3)   Pre Evacuate Collection Set: 0.0ms
[2022-06-02T11:22:32.494+0530][gc,phases     ] GC(3)   Evacuate Collection Set: 5.6ms
[2022-06-02T11:22:32.494+0530][gc,phases     ] GC(3)   Post Evacuate Collection Set: 1.0ms
[2022-06-02T11:22:32.494+0530][gc,phases     ] GC(3)   Other: 0.3ms
[2022-06-02T11:22:32.494+0530][gc,heap       ] GC(3) Eden regions: 49->0(46)
[2022-06-02T11:22:32.494+0530][gc,heap       ] GC(3) Survivor regions: 2->5(7)
[2022-06-02T11:22:32.494+0530][gc,heap       ] GC(3) Old regions: 9->9
[2022-06-02T11:22:32.494+0530][gc,heap       ] GC(3) Humongous regions: 129->129
[2022-06-02T11:22:32.494+0530][gc,metaspace  ] GC(3) Metaspace: 29027K->29027K(1075200K)
[2022-06-02T11:22:32.494+0530][gc            ] GC(3) Pause Young (Normal) (G1 Evacuation Pause) 186M->140M(1024M) 7.068ms
[2022-06-02T11:22:32.494+0530][gc,cpu        ] GC(3) User=0.05s Sys=0.00s Real=0.00s
[2022-06-02T11:22:33.273+0530][gc,start      ] GC(4) Pause Young (Concurrent Start) (Metadata GC Threshold)
[2022-06-02T11:22:33.274+0530][gc,task       ] GC(4) Using 8 workers of 8 for evacuation
[2022-06-02T11:22:33.287+0530][gc,phases     ] GC(4)   Pre Evacuate Collection Set: 0.1ms
[2022-06-02T11:22:33.287+0530][gc,phases     ] GC(4)   Evacuate Collection Set: 12.8ms
[2022-06-02T11:22:33.287+0530][gc,phases     ] GC(4)   Post Evacuate Collection Set: 0.5ms
[2022-06-02T11:22:33.287+0530][gc,phases     ] GC(4)   Other: 0.3ms
[2022-06-02T11:22:33.287+0530][gc,heap       ] GC(4) Eden regions: 27->0(45)
[2022-06-02T11:22:33.287+0530][gc,heap       ] GC(4) Survivor regions: 5->6(7)
[2022-06-02T11:22:33.287+0530][gc,heap       ] GC(4) Old regions: 9->10
[2022-06-02T11:22:33.287+0530][gc,heap       ] GC(4) Humongous regions: 129->129
[2022-06-02T11:22:33.287+0530][gc,metaspace  ] GC(4) Metaspace: 34433K->34433K(1081344K)
[2022-06-02T11:22:33.287+0530][gc            ] GC(4) Pause Young (Concurrent Start) (Metadata GC Threshold) 167M->142M(1024M) 13.933ms
[2022-06-02T11:22:33.287+0530][gc,cpu        ] GC(4) User=0.05s Sys=0.00s Real=0.02s
[2022-06-02T11:22:33.287+0530][gc            ] GC(5) Concurrent Cycle
[2022-06-02T11:22:33.287+0530][gc,marking    ] GC(5) Concurrent Clear Claimed Marks
[2022-06-02T11:22:33.288+0530][gc,marking    ] GC(5) Concurrent Clear Claimed Marks 0.110ms
[2022-06-02T11:22:33.288+0530][gc,marking    ] GC(5) Concurrent Scan Root Regions
[2022-06-02T11:22:33.290+0530][gc,marking    ] GC(5) Concurrent Scan Root Regions 2.737ms
[2022-06-02T11:22:33.290+0530][gc,marking    ] GC(5) Concurrent Mark (4.421s)
[2022-06-02T11:22:33.290+0530][gc,marking    ] GC(5) Concurrent Mark From Roots
[2022-06-02T11:22:33.290+0530][gc,task       ] GC(5) Using 2 workers of 2 for marking
[2022-06-02T11:22:33.308+0530][gc,marking    ] GC(5) Concurrent Mark From Roots 17.108ms
[2022-06-02T11:22:33.308+0530][gc,marking    ] GC(5) Concurrent Preclean
[2022-06-02T11:22:33.308+0530][gc,marking    ] GC(5) Concurrent Preclean 0.269ms
[2022-06-02T11:22:33.308+0530][gc,marking    ] GC(5) Concurrent Mark (4.421s, 4.439s) 17.483ms
[2022-06-02T11:22:33.312+0530][gc,start      ] GC(5) Pause Remark
[2022-06-02T11:22:33.318+0530][gc,stringtable] GC(5) Cleaned string and symbol table, strings: 10833 processed, 10 removed, symbols: 83700 processed, 14 removed
[2022-06-02T11:22:33.318+0530][gc            ] GC(5) Pause Remark 144M->144M(1024M) 6.213ms
[2022-06-02T11:22:33.318+0530][gc,cpu        ] GC(5) User=0.02s Sys=0.00s Real=0.01s
[2022-06-02T11:22:33.318+0530][gc,marking    ] GC(5) Concurrent Rebuild Remembered Sets
[2022-06-02T11:22:33.324+0530][gc,marking    ] GC(5) Concurrent Rebuild Remembered Sets 5.266ms
[2022-06-02T11:22:33.324+0530][gc,start      ] GC(5) Pause Cleanup
[2022-06-02T11:22:33.324+0530][gc            ] GC(5) Pause Cleanup 145M->145M(1024M) 0.259ms
[2022-06-02T11:22:33.324+0530][gc,cpu        ] GC(5) User=0.00s Sys=0.00s Real=0.00s
[2022-06-02T11:22:33.324+0530][gc,marking    ] GC(5) Concurrent Cleanup for Next Mark
[2022-06-02T11:22:33.335+0530][gc,marking    ] GC(5) Concurrent Cleanup for Next Mark 10.443ms
[2022-06-02T11:22:33.335+0530][gc            ] GC(5) Concurrent Cycle 47.297ms
[2022-06-02T11:34:00.435+0530][gc,start      ] GC(6) Pause Young (Normal) (G1 Evacuation Pause)
[2022-06-02T11:34:00.435+0530][gc,task       ] GC(6) Using 8 workers of 8 for evacuation
[2022-06-02T11:34:00.445+0530][gc,phases     ] GC(6)   Pre Evacuate Collection Set: 0.0ms
[2022-06-02T11:34:00.445+0530][gc,phases     ] GC(6)   Evacuate Collection Set: 8.9ms
[2022-06-02T11:34:00.445+0530][gc,phases     ] GC(6)   Post Evacuate Collection Set: 0.7ms
[2022-06-02T11:34:00.445+0530][gc,phases     ] GC(6)   Other: 0.3ms
[2022-06-02T11:34:00.445+0530][gc,heap       ] GC(6) Eden regions: 45->0(46)
[2022-06-02T11:34:00.445+0530][gc,heap       ] GC(6) Survivor regions: 6->5(7)
[2022-06-02T11:34:00.445+0530][gc,heap       ] GC(6) Old regions: 10->13
[2022-06-02T11:34:00.445+0530][gc,heap       ] GC(6) Humongous regions: 129->129
[2022-06-02T11:34:00.445+0530][gc,metaspace  ] GC(6) Metaspace: 39926K->39926K(1085440K)
[2022-06-02T11:34:00.445+0530][gc            ] GC(6) Pause Young (Normal) (G1 Evacuation Pause) 187M->144M(1024M) 10.047ms
[2022-06-02T11:34:00.445+0530][gc,cpu        ] GC(6) User=0.05s Sys=0.00s Real=0.02s
[2022-06-02T11:35:11.949+0530][gc,start      ] GC(7) Pause Young (Normal) (G1 Evacuation Pause)
[2022-06-02T11:35:11.970+0530][gc,task       ] GC(7) Using 8 workers of 8 for evacuation
[2022-06-02T11:35:11.983+0530][gc,phases     ] GC(7)   Pre Evacuate Collection Set: 0.0ms
[2022-06-02T11:35:11.983+0530][gc,phases     ] GC(7)   Evacuate Collection Set: 11.6ms
[2022-06-02T11:35:11.983+0530][gc,phases     ] GC(7)   Post Evacuate Collection Set: 1.7ms
[2022-06-02T11:35:11.983+0530][gc,phases     ] GC(7)   Other: 20.5ms
[2022-06-02T11:35:11.983+0530][gc,heap       ] GC(7) Eden regions: 46->0(47)
[2022-06-02T11:35:11.984+0530][gc,heap       ] GC(7) Survivor regions: 5->4(7)
[2022-06-02T11:35:11.984+0530][gc,heap       ] GC(7) Old regions: 13->15
[2022-06-02T11:35:11.984+0530][gc,heap       ] GC(7) Humongous regions: 129->129
[2022-06-02T11:35:11.984+0530][gc,metaspace  ] GC(7) Metaspace: 42067K->42067K(1087488K)
[2022-06-02T11:35:11.984+0530][gc            ] GC(7) Pause Young (Normal) (G1 Evacuation Pause) 190M->145M(1024M) 34.154ms
[2022-06-02T11:35:11.984+0530][gc,cpu        ] GC(7) User=0.09s Sys=0.00s Real=0.03s
[2022-06-02T11:36:43.511+0530][gc,start      ] GC(8) Pause Young (Normal) (G1 Evacuation Pause)
[2022-06-02T11:36:43.511+0530][gc,task       ] GC(8) Using 8 workers of 8 for evacuation
[2022-06-02T11:36:43.525+0530][gc,phases     ] GC(8)   Pre Evacuate Collection Set: 0.1ms
[2022-06-02T11:36:43.525+0530][gc,phases     ] GC(8)   Evacuate Collection Set: 12.6ms
[2022-06-02T11:36:43.525+0530][gc,phases     ] GC(8)   Post Evacuate Collection Set: 1.0ms
[2022-06-02T11:36:43.525+0530][gc,phases     ] GC(8)   Other: 0.6ms
[2022-06-02T11:36:43.525+0530][gc,heap       ] GC(8) Eden regions: 47->0(47)
[2022-06-02T11:36:43.525+0530][gc,heap       ] GC(8) Survivor regions: 4->4(7)
[2022-06-02T11:36:43.525+0530][gc,heap       ] GC(8) Old regions: 15->15
[2022-06-02T11:36:43.525+0530][gc,heap       ] GC(8) Humongous regions: 129->129
[2022-06-02T11:36:43.526+0530][gc,metaspace  ] GC(8) Metaspace: 42187K->42187K(1087488K)
[2022-06-02T11:36:43.526+0530][gc            ] GC(8) Pause Young (Normal) (G1 Evacuation Pause) 192M->145M(1024M) 14.669ms
[2022-06-02T11:36:43.526+0530][gc,cpu        ] GC(8) User=0.07s Sys=0.01s Real=0.02s
[2022-06-02T11:38:14.970+0530][gc,start      ] GC(9) Pause Young (Normal) (G1 Evacuation Pause)
[2022-06-02T11:38:14.970+0530][gc,task       ] GC(9) Using 8 workers of 8 for evacuation
[2022-06-02T11:38:14.975+0530][gc,phases     ] GC(9)   Pre Evacuate Collection Set: 0.0ms
[2022-06-02T11:38:14.975+0530][gc,phases     ] GC(9)   Evacuate Collection Set: 4.6ms
[2022-06-02T11:38:14.975+0530][gc,phases     ] GC(9)   Post Evacuate Collection Set: 0.7ms
[2022-06-02T11:38:14.975+0530][gc,phases     ] GC(9)   Other: 0.2ms
[2022-06-02T11:38:14.975+0530][gc,heap       ] GC(9) Eden regions: 47->0(47)
[2022-06-02T11:38:14.975+0530][gc,heap       ] GC(9) Survivor regions: 4->4(7)
[2022-06-02T11:38:14.975+0530][gc,heap       ] GC(9) Old regions: 15->15
[2022-06-02T11:38:14.975+0530][gc,heap       ] GC(9) Humongous regions: 129->129
[2022-06-02T11:38:14.975+0530][gc,metaspace  ] GC(9) Metaspace: 42278K->42278K(1087488K)
[2022-06-02T11:38:14.975+0530][gc            ] GC(9) Pause Young (Normal) (G1 Evacuation Pause) 192M->145M(1024M) 5.593ms
[2022-06-02T11:38:14.975+0530][gc,cpu        ] GC(9) User=0.03s Sys=0.00s Real=0.00s
[2022-06-02T11:39:48.157+0530][gc,start      ] GC(10) Pause Young (Normal) (G1 Evacuation Pause)
[2022-06-02T11:39:48.157+0530][gc,task       ] GC(10) Using 8 workers of 8 for evacuation
[2022-06-02T11:39:48.162+0530][gc,phases     ] GC(10)   Pre Evacuate Collection Set: 0.0ms
[2022-06-02T11:39:48.162+0530][gc,phases     ] GC(10)   Evacuate Collection Set: 3.1ms
[2022-06-02T11:39:48.162+0530][gc,phases     ] GC(10)   Post Evacuate Collection Set: 1.3ms
[2022-06-02T11:39:48.162+0530][gc,phases     ] GC(10)   Other: 0.2ms
[2022-06-02T11:39:48.162+0530][gc,heap       ] GC(10) Eden regions: 47->0(58)
[2022-06-02T11:39:48.162+0530][gc,heap       ] GC(10) Survivor regions: 4->4(7)
[2022-06-02T11:39:48.162+0530][gc,heap       ] GC(10) Old regions: 15->15
[2022-06-02T11:39:48.162+0530][gc,heap       ] GC(10) Humongous regions: 129->129
[2022-06-02T11:39:48.162+0530][gc,metaspace  ] GC(10) Metaspace: 42296K->42296K(1087488K)
[2022-06-02T11:39:48.162+0530][gc            ] GC(10) Pause Young (Normal) (G1 Evacuation Pause) 192M->145M(1024M) 4.659ms
[2022-06-02T11:39:48.162+0530][gc,cpu        ] GC(10) User=0.03s Sys=0.00s Real=0.00s
[2022-06-02T11:41:44.128+0530][gc,start      ] GC(11) Pause Young (Normal) (G1 Evacuation Pause)
[2022-06-02T11:41:44.128+0530][gc,task       ] GC(11) Using 8 workers of 8 for evacuation
[2022-06-02T11:41:44.140+0530][gc,phases     ] GC(11)   Pre Evacuate Collection Set: 0.0ms
[2022-06-02T11:41:44.140+0530][gc,phases     ] GC(11)   Evacuate Collection Set: 10.5ms
[2022-06-02T11:41:44.140+0530][gc,phases     ] GC(11)   Post Evacuate Collection Set: 1.2ms
[2022-06-02T11:41:44.140+0530][gc,phases     ] GC(11)   Other: 0.4ms
[2022-06-02T11:41:44.140+0530][gc,heap       ] GC(11) Eden regions: 58->0(61)
[2022-06-02T11:41:44.140+0530][gc,heap       ] GC(11) Survivor regions: 4->4(8)
[2022-06-02T11:41:44.140+0530][gc,heap       ] GC(11) Old regions: 15->15
[2022-06-02T11:41:44.140+0530][gc,heap       ] GC(11) Humongous regions: 129->129
[2022-06-02T11:41:44.140+0530][gc,metaspace  ] GC(11) Metaspace: 42306K->42306K(1087488K)
[2022-06-02T11:41:44.140+0530][gc            ] GC(11) Pause Young (Normal) (G1 Evacuation Pause) 203M->145M(1024M) 12.350ms
[2022-06-02T11:41:44.140+0530][gc,cpu        ] GC(11) User=0.06s Sys=0.01s Real=0.01s
[2022-06-02T11:43:45.656+0530][gc,start      ] GC(12) Pause Young (Normal) (G1 Evacuation Pause)
[2022-06-02T11:43:45.656+0530][gc,task       ] GC(12) Using 8 workers of 8 for evacuation
[2022-06-02T11:43:45.667+0530][gc,phases     ] GC(12)   Pre Evacuate Collection Set: 0.0ms
[2022-06-02T11:43:45.667+0530][gc,phases     ] GC(12)   Evacuate Collection Set: 9.2ms
[2022-06-02T11:43:45.667+0530][gc,phases     ] GC(12)   Post Evacuate Collection Set: 1.8ms
[2022-06-02T11:43:45.668+0530][gc,phases     ] GC(12)   Other: 0.6ms
[2022-06-02T11:43:45.668+0530][gc,heap       ] GC(12) Eden regions: 61->0(67)
[2022-06-02T11:43:45.668+0530][gc,heap       ] GC(12) Survivor regions: 4->4(9)
[2022-06-02T11:43:45.668+0530][gc,heap       ] GC(12) Old regions: 15->15
[2022-06-02T11:43:45.668+0530][gc,heap       ] GC(12) Humongous regions: 129->129
[2022-06-02T11:43:45.668+0530][gc,metaspace  ] GC(12) Metaspace: 42404K->42404K(1087488K)
[2022-06-02T11:43:45.668+0530][gc            ] GC(12) Pause Young (Normal) (G1 Evacuation Pause) 206M->145M(1024M) 12.026ms
[2022-06-02T11:43:45.668+0530][gc,cpu        ] GC(12) User=0.07s Sys=0.01s Real=0.02s
[2022-06-02T11:46:01.176+0530][gc,start      ] GC(13) Pause Young (Normal) (G1 Evacuation Pause)
[2022-06-02T11:46:01.176+0530][gc,task       ] GC(13) Using 8 workers of 8 for evacuation
[2022-06-02T11:46:01.189+0530][gc,phases     ] GC(13)   Pre Evacuate Collection Set: 0.1ms
[2022-06-02T11:46:01.189+0530][gc,phases     ] GC(13)   Evacuate Collection Set: 11.0ms
[2022-06-02T11:46:01.189+0530][gc,phases     ] GC(13)   Post Evacuate Collection Set: 1.7ms
[2022-06-02T11:46:01.189+0530][gc,phases     ] GC(13)   Other: 0.6ms
[2022-06-02T11:46:01.189+0530][gc,heap       ] GC(13) Eden regions: 67->0(72)
[2022-06-02T11:46:01.189+0530][gc,heap       ] GC(13) Survivor regions: 4->4(9)
[2022-06-02T11:46:01.189+0530][gc,heap       ] GC(13) Old regions: 15->15
[2022-06-02T11:46:01.189+0530][gc,heap       ] GC(13) Humongous regions: 129->129
[2022-06-02T11:46:01.190+0530][gc,metaspace  ] GC(13) Metaspace: 42415K->42415K(1087488K)
[2022-06-02T11:46:01.190+0530][gc            ] GC(13) Pause Young (Normal) (G1 Evacuation Pause) 212M->145M(1024M) 13.490ms
[2022-06-02T11:46:01.190+0530][gc,cpu        ] GC(13) User=0.06s Sys=0.02s Real=0.01s
[2022-06-02T12:29:46.832+0530][gc,start      ] GC(14) Pause Young (Normal) (G1 Evacuation Pause)
[2022-06-02T12:29:46.832+0530][gc,task       ] GC(14) Using 8 workers of 8 for evacuation
[2022-06-02T12:29:46.836+0530][gc,phases     ] GC(14)   Pre Evacuate Collection Set: 0.0ms
[2022-06-02T12:29:46.836+0530][gc,phases     ] GC(14)   Evacuate Collection Set: 2.8ms
[2022-06-02T12:29:46.836+0530][gc,phases     ] GC(14)   Post Evacuate Collection Set: 0.8ms
[2022-06-02T12:29:46.836+0530][gc,phases     ] GC(14)   Other: 0.2ms
[2022-06-02T12:29:46.836+0530][gc,heap       ] GC(14) Eden regions: 72->0(88)
[2022-06-02T12:29:46.836+0530][gc,heap       ] GC(14) Survivor regions: 4->4(10)
[2022-06-02T12:29:46.836+0530][gc,heap       ] GC(14) Old regions: 15->15
[2022-06-02T12:29:46.836+0530][gc,heap       ] GC(14) Humongous regions: 129->129
[2022-06-02T12:29:46.836+0530][gc,metaspace  ] GC(14) Metaspace: 42788K->42788K(1087488K)
[2022-06-02T12:29:46.836+0530][gc            ] GC(14) Pause Young (Normal) (G1 Evacuation Pause) 217M->145M(1024M) 3.876ms
[2022-06-02T12:29:46.836+0530][gc,cpu        ] GC(14) User=0.02s Sys=0.01s Real=0.01s
[2022-06-02T13:39:48.510+0530][gc,start      ] GC(15) Pause Young (Normal) (G1 Evacuation Pause)
[2022-06-02T13:39:48.606+0530][gc,task       ] GC(15) Using 8 workers of 8 for evacuation
[2022-06-02T13:39:48.616+0530][gc,phases     ] GC(15)   Pre Evacuate Collection Set: 0.0ms
[2022-06-02T13:39:48.616+0530][gc,phases     ] GC(15)   Evacuate Collection Set: 7.7ms
[2022-06-02T13:39:48.617+0530][gc,phases     ] GC(15)   Post Evacuate Collection Set: 2.0ms
[2022-06-02T13:39:48.617+0530][gc,phases     ] GC(15)   Other: 96.4ms
[2022-06-02T13:39:48.617+0530][gc,heap       ] GC(15) Eden regions: 88->0(97)
[2022-06-02T13:39:48.617+0530][gc,heap       ] GC(15) Survivor regions: 4->4(12)
[2022-06-02T13:39:48.617+0530][gc,heap       ] GC(15) Old regions: 15->15
[2022-06-02T13:39:48.617+0530][gc,heap       ] GC(15) Humongous regions: 129->129
[2022-06-02T13:39:48.617+0530][gc,metaspace  ] GC(15) Metaspace: 42871K->42871K(1087488K)
[2022-06-02T13:39:48.617+0530][gc            ] GC(15) Pause Young (Normal) (G1 Evacuation Pause) 233M->145M(1024M) 106.364ms
[2022-06-02T13:39:48.617+0530][gc,cpu        ] GC(15) User=0.07s Sys=0.00s Real=0.11s
[2022-06-02T15:59:26.872+0530][gc,start      ] GC(16) Pause Young (Normal) (G1 Evacuation Pause)
[2022-06-02T15:59:26.910+0530][gc,task       ] GC(16) Using 8 workers of 8 for evacuation
[2022-06-02T15:59:26.918+0530][gc,phases     ] GC(16)   Pre Evacuate Collection Set: 0.1ms
[2022-06-02T15:59:26.918+0530][gc,phases     ] GC(16)   Evacuate Collection Set: 6.9ms
[2022-06-02T15:59:26.918+0530][gc,phases     ] GC(16)   Post Evacuate Collection Set: 0.6ms
[2022-06-02T15:59:26.918+0530][gc,phases     ] GC(16)   Other: 38.2ms
[2022-06-02T15:59:26.918+0530][gc,heap       ] GC(16) Eden regions: 97->0(106)
[2022-06-02T15:59:26.918+0530][gc,heap       ] GC(16) Survivor regions: 4->4(13)
[2022-06-02T15:59:26.918+0530][gc,heap       ] GC(16) Old regions: 15->15
[2022-06-02T15:59:26.918+0530][gc,heap       ] GC(16) Humongous regions: 129->129
[2022-06-02T15:59:26.918+0530][gc,metaspace  ] GC(16) Metaspace: 42881K->42881K(1087488K)
[2022-06-02T15:59:26.918+0530][gc            ] GC(16) Pause Young (Normal) (G1 Evacuation Pause) 242M->145M(1024M) 46.122ms
[2022-06-02T15:59:26.918+0530][gc,cpu        ] GC(16) User=0.05s Sys=0.00s Real=0.05s
[2022-06-02T17:24:59.912+0530][gc,start      ] GC(17) Pause Young (Normal) (G1 Evacuation Pause)
[2022-06-02T17:24:59.912+0530][gc,task       ] GC(17) Using 8 workers of 8 for evacuation
[2022-06-02T17:24:59.920+0530][gc,phases     ] GC(17)   Pre Evacuate Collection Set: 0.0ms
[2022-06-02T17:24:59.920+0530][gc,phases     ] GC(17)   Evacuate Collection Set: 6.9ms
[2022-06-02T17:24:59.920+0530][gc,phases     ] GC(17)   Post Evacuate Collection Set: 0.7ms
[2022-06-02T17:24:59.920+0530][gc,phases     ] GC(17)   Other: 0.4ms
[2022-06-02T17:24:59.920+0530][gc,heap       ] GC(17) Eden regions: 106->0(118)
[2022-06-02T17:24:59.920+0530][gc,heap       ] GC(17) Survivor regions: 4->4(14)
[2022-06-02T17:24:59.920+0530][gc,heap       ] GC(17) Old regions: 15->15
[2022-06-02T17:24:59.920+0530][gc,heap       ] GC(17) Humongous regions: 129->129
[2022-06-02T17:24:59.920+0530][gc,metaspace  ] GC(17) Metaspace: 42929K->42929K(1087488K)
[2022-06-02T17:24:59.920+0530][gc            ] GC(17) Pause Young (Normal) (G1 Evacuation Pause) 251M->145M(1024M) 8.162ms
[2022-06-02T17:24:59.920+0530][gc,cpu        ] GC(17) User=0.06s Sys=0.00s Real=0.01s
[2022-06-02T18:22:05.911+0530][gc,start      ] GC(18) Pause Young (Normal) (G1 Evacuation Pause)
[2022-06-02T18:22:05.912+0530][gc,task       ] GC(18) Using 8 workers of 8 for evacuation
[2022-06-02T18:22:05.930+0530][gc,phases     ] GC(18)   Pre Evacuate Collection Set: 0.0ms
[2022-06-02T18:22:05.931+0530][gc,phases     ] GC(18)   Evacuate Collection Set: 13.6ms
[2022-06-02T18:22:05.931+0530][gc,phases     ] GC(18)   Post Evacuate Collection Set: 4.7ms
[2022-06-02T18:22:05.931+0530][gc,phases     ] GC(18)   Other: 0.6ms
[2022-06-02T18:22:05.931+0530][gc,heap       ] GC(18) Eden regions: 118->0(139)
[2022-06-02T18:22:05.931+0530][gc,heap       ] GC(18) Survivor regions: 4->6(16)
[2022-06-02T18:22:05.931+0530][gc,heap       ] GC(18) Old regions: 15->15
[2022-06-02T18:22:05.931+0530][gc,heap       ] GC(18) Humongous regions: 129->129
[2022-06-02T18:22:05.931+0530][gc,metaspace  ] GC(18) Metaspace: 44230K->44230K(1089536K)
[2022-06-02T18:22:05.931+0530][gc            ] GC(18) Pause Young (Normal) (G1 Evacuation Pause) 263M->147M(1024M) 19.466ms
[2022-06-02T18:22:05.931+0530][gc,cpu        ] GC(18) User=0.12s Sys=0.00s Real=0.02s
[2022-06-02T19:10:53.785+0530][gc,start      ] GC(19) Pause Young (Normal) (G1 Evacuation Pause)
[2022-06-02T19:10:53.830+0530][gc,task       ] GC(19) Using 8 workers of 8 for evacuation
[2022-06-02T19:10:53.842+0530][gc,phases     ] GC(19)   Pre Evacuate Collection Set: 0.1ms
[2022-06-02T19:10:53.842+0530][gc,phases     ] GC(19)   Evacuate Collection Set: 10.4ms
[2022-06-02T19:10:53.842+0530][gc,phases     ] GC(19)   Post Evacuate Collection Set: 1.2ms
[2022-06-02T19:10:53.842+0530][gc,phases     ] GC(19)   Other: 45.0ms
[2022-06-02T19:10:53.842+0530][gc,heap       ] GC(19) Eden regions: 139->0(608)
[2022-06-02T19:10:53.842+0530][gc,heap       ] GC(19) Survivor regions: 6->6(19)
[2022-06-02T19:10:53.842+0530][gc,heap       ] GC(19) Old regions: 15->15
[2022-06-02T19:10:53.842+0530][gc,heap       ] GC(19) Humongous regions: 129->129
[2022-06-02T19:10:53.842+0530][gc,metaspace  ] GC(19) Metaspace: 44253K->44253K(1089536K)
[2022-06-02T19:10:53.842+0530][gc            ] GC(19) Pause Young (Normal) (G1 Evacuation Pause) 286M->147M(1024M) 56.837ms
[2022-06-02T19:10:53.842+0530][gc,cpu        ] GC(19) User=0.08s Sys=0.01s Real=0.06s
[2022-06-02T19:52:02.288+0530][gc,heap,exit  ] Heap
[2022-06-02T19:52:02.334+0530][gc,heap,exit  ]  garbage-first heap   total 1048576K, used 280111K [0x00000000c0000000, 0x0000000100000000)
[2022-06-02T19:52:02.334+0530][gc,heap,exit  ]   region size 1024K, 133 young (136192K), 6 survivors (6144K)
[2022-06-02T19:52:02.334+0530][gc,heap,exit  ]  Metaspace       used 45136K, capacity 48014K, committed 48204K, reserved 1089536K
[2022-06-02T19:52:02.334+0530][gc,heap,exit  ]   class space    used 5846K, capacity 7234K, committed 7296K, reserved 1048576K
