[2022-05-31T17:34:19.076+0530][gc,heap] Heap region size: 1M
[2022-05-31T17:34:19.085+0530][gc     ] Using G1
[2022-05-31T17:34:19.085+0530][gc,heap,coops] Heap address: 0x00000000c0000000, size: 1024 MB, Compressed Oops mode: 32-bit
[2022-05-31T17:34:19.085+0530][gc,cds       ] Mark closed archive regions in map: [0x00000000fff00000, 0x00000000fff6aff8]
[2022-05-31T17:34:19.085+0530][gc,cds       ] Mark open archive regions in map: [0x00000000ffe00000, 0x00000000ffe46ff8]
[2022-05-31T17:34:20.427+0530][gc,start     ] GC(0) Pause Young (Normal) (G1 Evacuation Pause)
[2022-05-31T17:34:20.429+0530][gc,task      ] GC(0) Using 8 workers of 8 for evacuation
[2022-05-31T17:34:20.442+0530][gc,phases    ] GC(0)   Pre Evacuate Collection Set: 0.1ms
[2022-05-31T17:34:20.442+0530][gc,phases    ] GC(0)   Evacuate Collection Set: 11.1ms
[2022-05-31T17:34:20.442+0530][gc,phases    ] GC(0)   Post Evacuate Collection Set: 1.2ms
[2022-05-31T17:34:20.442+0530][gc,phases    ] GC(0)   Other: 2.5ms
[2022-05-31T17:34:20.442+0530][gc,heap      ] GC(0) Eden regions: 51->0(44)
[2022-05-31T17:34:20.442+0530][gc,heap      ] GC(0) Survivor regions: 0->7(7)
[2022-05-31T17:34:20.442+0530][gc,heap      ] GC(0) Old regions: 2->2
[2022-05-31T17:34:20.442+0530][gc,heap      ] GC(0) Humongous regions: 0->0
[2022-05-31T17:34:20.442+0530][gc,metaspace ] GC(0) Metaspace: 14902K->14902K(1062912K)
[2022-05-31T17:34:20.442+0530][gc           ] GC(0) Pause Young (Normal) (G1 Evacuation Pause) 51M->7M(1024M) 15.008ms
[2022-05-31T17:34:20.442+0530][gc,cpu       ] GC(0) User=0.06s Sys=0.00s Real=0.01s
[2022-05-31T17:34:21.898+0530][gc,start     ] GC(1) Pause Young (Concurrent Start) (Metadata GC Threshold)
[2022-05-31T17:34:21.898+0530][gc,task      ] GC(1) Using 8 workers of 8 for evacuation
[2022-05-31T17:34:21.911+0530][gc,phases    ] GC(1)   Pre Evacuate Collection Set: 0.1ms
[2022-05-31T17:34:21.911+0530][gc,phases    ] GC(1)   Evacuate Collection Set: 12.3ms
[2022-05-31T17:34:21.911+0530][gc,phases    ] GC(1)   Post Evacuate Collection Set: 0.5ms
[2022-05-31T17:34:21.911+0530][gc,phases    ] GC(1)   Other: 0.3ms
[2022-05-31T17:34:21.911+0530][gc,heap      ] GC(1) Eden regions: 24->0(49)
[2022-05-31T17:34:21.911+0530][gc,heap      ] GC(1) Survivor regions: 7->2(7)
[2022-05-31T17:34:21.911+0530][gc,heap      ] GC(1) Old regions: 2->9
[2022-05-31T17:34:21.911+0530][gc,heap      ] GC(1) Humongous regions: 0->0
[2022-05-31T17:34:21.911+0530][gc,metaspace ] GC(1) Metaspace: 20583K->20583K(1067008K)
[2022-05-31T17:34:21.911+0530][gc           ] GC(1) Pause Young (Concurrent Start) (Metadata GC Threshold) 31M->8M(1024M) 13.181ms
[2022-05-31T17:34:21.911+0530][gc,cpu       ] GC(1) User=0.06s Sys=0.00s Real=0.01s
[2022-05-31T17:34:21.911+0530][gc           ] GC(2) Concurrent Cycle
[2022-05-31T17:34:21.911+0530][gc,marking   ] GC(2) Concurrent Clear Claimed Marks
[2022-05-31T17:34:21.911+0530][gc,marking   ] GC(2) Concurrent Clear Claimed Marks 0.026ms
[2022-05-31T17:34:21.911+0530][gc,marking   ] GC(2) Concurrent Scan Root Regions
[2022-05-31T17:34:21.915+0530][gc,marking   ] GC(2) Concurrent Scan Root Regions 4.180ms
[2022-05-31T17:34:21.915+0530][gc,marking   ] GC(2) Concurrent Mark (2.842s)
[2022-05-31T17:34:21.915+0530][gc,marking   ] GC(2) Concurrent Mark From Roots
[2022-05-31T17:34:21.915+0530][gc,task      ] GC(2) Using 2 workers of 2 for marking
[2022-05-31T17:34:21.925+0530][gc,marking   ] GC(2) Concurrent Mark From Roots 9.449ms
[2022-05-31T17:34:21.925+0530][gc,marking   ] GC(2) Concurrent Preclean
[2022-05-31T17:34:21.925+0530][gc,marking   ] GC(2) Concurrent Preclean 0.558ms
[2022-05-31T17:34:21.926+0530][gc,marking   ] GC(2) Concurrent Mark (2.842s, 2.852s) 10.086ms
[2022-05-31T17:34:21.926+0530][gc,start     ] GC(2) Pause Remark
[2022-05-31T17:34:21.929+0530][gc,stringtable] GC(2) Cleaned string and symbol table, strings: 5221 processed, 0 removed, symbols: 51172 processed, 46 removed
[2022-05-31T17:34:21.929+0530][gc            ] GC(2) Pause Remark 9M->9M(1024M) 3.053ms
[2022-05-31T17:34:21.929+0530][gc,cpu        ] GC(2) User=0.01s Sys=0.00s Real=0.00s
[2022-05-31T17:34:21.929+0530][gc,marking    ] GC(2) Concurrent Rebuild Remembered Sets
[2022-05-31T17:34:21.933+0530][gc,marking    ] GC(2) Concurrent Rebuild Remembered Sets 3.664ms
[2022-05-31T17:34:21.933+0530][gc,start      ] GC(2) Pause Cleanup
[2022-05-31T17:34:21.933+0530][gc            ] GC(2) Pause Cleanup 10M->10M(1024M) 0.240ms
[2022-05-31T17:34:21.933+0530][gc,cpu        ] GC(2) User=0.00s Sys=0.00s Real=0.00s
[2022-05-31T17:34:21.933+0530][gc,marking    ] GC(2) Concurrent Cleanup for Next Mark
[2022-05-31T17:34:21.938+0530][gc,marking    ] GC(2) Concurrent Cleanup for Next Mark 5.072ms
[2022-05-31T17:34:21.938+0530][gc            ] GC(2) Concurrent Cycle 26.884ms
[2022-05-31T17:34:22.884+0530][gc,start      ] GC(3) Pause Young (Normal) (G1 Evacuation Pause)
[2022-05-31T17:34:22.884+0530][gc,task       ] GC(3) Using 8 workers of 8 for evacuation
[2022-05-31T17:34:22.887+0530][gc,phases     ] GC(3)   Pre Evacuate Collection Set: 0.0ms
[2022-05-31T17:34:22.887+0530][gc,phases     ] GC(3)   Evacuate Collection Set: 3.3ms
[2022-05-31T17:34:22.888+0530][gc,phases     ] GC(3)   Post Evacuate Collection Set: 0.4ms
[2022-05-31T17:34:22.888+0530][gc,phases     ] GC(3)   Other: 0.2ms
[2022-05-31T17:34:22.888+0530][gc,heap       ] GC(3) Eden regions: 49->0(46)
[2022-05-31T17:34:22.888+0530][gc,heap       ] GC(3) Survivor regions: 2->5(7)
[2022-05-31T17:34:22.888+0530][gc,heap       ] GC(3) Old regions: 9->9
[2022-05-31T17:34:22.888+0530][gc,heap       ] GC(3) Humongous regions: 129->129
[2022-05-31T17:34:22.888+0530][gc,metaspace  ] GC(3) Metaspace: 29026K->29026K(1075200K)
[2022-05-31T17:34:22.888+0530][gc            ] GC(3) Pause Young (Normal) (G1 Evacuation Pause) 186M->140M(1024M) 3.964ms
[2022-05-31T17:34:22.888+0530][gc,cpu        ] GC(3) User=0.02s Sys=0.01s Real=0.01s
[2022-05-31T17:34:23.608+0530][gc,start      ] GC(4) Pause Young (Concurrent Start) (Metadata GC Threshold)
[2022-05-31T17:34:23.609+0530][gc,task       ] GC(4) Using 8 workers of 8 for evacuation
[2022-05-31T17:34:23.623+0530][gc,phases     ] GC(4)   Pre Evacuate Collection Set: 0.2ms
[2022-05-31T17:34:23.623+0530][gc,phases     ] GC(4)   Evacuate Collection Set: 11.8ms
[2022-05-31T17:34:23.623+0530][gc,phases     ] GC(4)   Post Evacuate Collection Set: 1.8ms
[2022-05-31T17:34:23.623+0530][gc,phases     ] GC(4)   Other: 0.5ms
[2022-05-31T17:34:23.623+0530][gc,heap       ] GC(4) Eden regions: 27->0(45)
[2022-05-31T17:34:23.623+0530][gc,heap       ] GC(4) Survivor regions: 5->6(7)
[2022-05-31T17:34:23.623+0530][gc,heap       ] GC(4) Old regions: 9->10
[2022-05-31T17:34:23.623+0530][gc,heap       ] GC(4) Humongous regions: 129->129
[2022-05-31T17:34:23.623+0530][gc,metaspace  ] GC(4) Metaspace: 34388K->34388K(1081344K)
[2022-05-31T17:34:23.623+0530][gc            ] GC(4) Pause Young (Concurrent Start) (Metadata GC Threshold) 166M->142M(1024M) 14.506ms
[2022-05-31T17:34:23.623+0530][gc,cpu        ] GC(4) User=0.07s Sys=0.01s Real=0.01s
[2022-05-31T17:34:23.623+0530][gc            ] GC(5) Concurrent Cycle
[2022-05-31T17:34:23.623+0530][gc,marking    ] GC(5) Concurrent Clear Claimed Marks
[2022-05-31T17:34:23.623+0530][gc,marking    ] GC(5) Concurrent Clear Claimed Marks 0.296ms
[2022-05-31T17:34:23.623+0530][gc,marking    ] GC(5) Concurrent Scan Root Regions
[2022-05-31T17:34:23.627+0530][gc,marking    ] GC(5) Concurrent Scan Root Regions 3.499ms
[2022-05-31T17:34:23.627+0530][gc,marking    ] GC(5) Concurrent Mark (4.554s)
[2022-05-31T17:34:23.627+0530][gc,marking    ] GC(5) Concurrent Mark From Roots
[2022-05-31T17:34:23.627+0530][gc,task       ] GC(5) Using 2 workers of 2 for marking
[2022-05-31T17:34:23.660+0530][gc,marking    ] GC(5) Concurrent Mark From Roots 33.393ms
[2022-05-31T17:34:23.661+0530][gc,marking    ] GC(5) Concurrent Preclean
[2022-05-31T17:34:23.661+0530][gc,marking    ] GC(5) Concurrent Preclean 0.215ms
[2022-05-31T17:34:23.661+0530][gc,marking    ] GC(5) Concurrent Mark (4.554s, 4.588s) 33.737ms
[2022-05-31T17:34:23.661+0530][gc,start      ] GC(5) Pause Remark
[2022-05-31T17:34:23.669+0530][gc,stringtable] GC(5) Cleaned string and symbol table, strings: 10877 processed, 9 removed, symbols: 83852 processed, 14 removed
[2022-05-31T17:34:23.670+0530][gc            ] GC(5) Pause Remark 144M->144M(1024M) 8.739ms
[2022-05-31T17:34:23.670+0530][gc,cpu        ] GC(5) User=0.04s Sys=0.00s Real=0.01s
[2022-05-31T17:34:23.670+0530][gc,marking    ] GC(5) Concurrent Rebuild Remembered Sets
[2022-05-31T17:34:23.676+0530][gc,marking    ] GC(5) Concurrent Rebuild Remembered Sets 5.637ms
[2022-05-31T17:34:23.676+0530][gc,start      ] GC(5) Pause Cleanup
[2022-05-31T17:34:23.676+0530][gc            ] GC(5) Pause Cleanup 144M->144M(1024M) 0.336ms
[2022-05-31T17:34:23.676+0530][gc,cpu        ] GC(5) User=0.00s Sys=0.00s Real=0.00s
[2022-05-31T17:34:23.676+0530][gc,marking    ] GC(5) Concurrent Cleanup for Next Mark
[2022-05-31T17:34:23.687+0530][gc,marking    ] GC(5) Concurrent Cleanup for Next Mark 10.486ms
[2022-05-31T17:34:23.687+0530][gc            ] GC(5) Concurrent Cycle 63.745ms
[2022-05-31T17:38:36.557+0530][gc,start      ] GC(6) Pause Young (Normal) (G1 Evacuation Pause)
[2022-05-31T17:38:36.557+0530][gc,task       ] GC(6) Using 8 workers of 8 for evacuation
[2022-05-31T17:38:36.575+0530][gc,phases     ] GC(6)   Pre Evacuate Collection Set: 0.0ms
[2022-05-31T17:38:36.575+0530][gc,phases     ] GC(6)   Evacuate Collection Set: 16.0ms
[2022-05-31T17:38:36.575+0530][gc,phases     ] GC(6)   Post Evacuate Collection Set: 2.0ms
[2022-05-31T17:38:36.575+0530][gc,phases     ] GC(6)   Other: 0.5ms
[2022-05-31T17:38:36.576+0530][gc,heap       ] GC(6) Eden regions: 45->0(46)
[2022-05-31T17:38:36.576+0530][gc,heap       ] GC(6) Survivor regions: 6->5(7)
[2022-05-31T17:38:36.576+0530][gc,heap       ] GC(6) Old regions: 10->13
[2022-05-31T17:38:36.576+0530][gc,heap       ] GC(6) Humongous regions: 129->129
[2022-05-31T17:38:36.576+0530][gc,metaspace  ] GC(6) Metaspace: 40260K->40260K(1085440K)
[2022-05-31T17:38:36.576+0530][gc            ] GC(6) Pause Young (Normal) (G1 Evacuation Pause) 187M->144M(1024M) 18.769ms
[2022-05-31T17:38:36.576+0530][gc,cpu        ] GC(6) User=0.13s Sys=0.01s Real=0.02s
[2022-05-31T17:47:52.490+0530][gc,start      ] GC(7) Pause Young (Normal) (G1 Evacuation Pause)
[2022-05-31T17:47:52.490+0530][gc,task       ] GC(7) Using 8 workers of 8 for evacuation
[2022-05-31T17:47:52.501+0530][gc,phases     ] GC(7)   Pre Evacuate Collection Set: 0.1ms
[2022-05-31T17:47:52.501+0530][gc,phases     ] GC(7)   Evacuate Collection Set: 8.9ms
[2022-05-31T17:47:52.501+0530][gc,phases     ] GC(7)   Post Evacuate Collection Set: 0.8ms
[2022-05-31T17:47:52.501+0530][gc,phases     ] GC(7)   Other: 0.6ms
[2022-05-31T17:47:52.501+0530][gc,heap       ] GC(7) Eden regions: 46->0(46)
[2022-05-31T17:47:52.501+0530][gc,heap       ] GC(7) Survivor regions: 5->5(7)
[2022-05-31T17:47:52.501+0530][gc,heap       ] GC(7) Old regions: 13->15
[2022-05-31T17:47:52.501+0530][gc,heap       ] GC(7) Humongous regions: 129->129
[2022-05-31T17:47:52.501+0530][gc,metaspace  ] GC(7) Metaspace: 43788K->43788K(1089536K)
[2022-05-31T17:47:52.501+0530][gc            ] GC(7) Pause Young (Normal) (G1 Evacuation Pause) 190M->147M(1024M) 10.352ms
[2022-05-31T17:47:52.501+0530][gc,cpu        ] GC(7) User=0.07s Sys=0.00s Real=0.01s
[2022-05-31T22:01:57.397+0530][gc,start      ] GC(8) Pause Young (Normal) (G1 Evacuation Pause)
[2022-05-31T22:01:57.411+0530][gc,task       ] GC(8) Using 8 workers of 8 for evacuation
[2022-05-31T22:01:57.420+0530][gc,phases     ] GC(8)   Pre Evacuate Collection Set: 0.1ms
[2022-05-31T22:01:57.420+0530][gc,phases     ] GC(8)   Evacuate Collection Set: 8.1ms
[2022-05-31T22:01:57.420+0530][gc,phases     ] GC(8)   Post Evacuate Collection Set: 0.6ms
[2022-05-31T22:01:57.420+0530][gc,phases     ] GC(8)   Other: 14.9ms
[2022-05-31T22:01:57.420+0530][gc,heap       ] GC(8) Eden regions: 46->0(48)
[2022-05-31T22:01:57.420+0530][gc,heap       ] GC(8) Survivor regions: 5->3(7)
[2022-05-31T22:01:57.420+0530][gc,heap       ] GC(8) Old regions: 15->17
[2022-05-31T22:01:57.420+0530][gc,heap       ] GC(8) Humongous regions: 129->129
[2022-05-31T22:01:57.420+0530][gc,metaspace  ] GC(8) Metaspace: 43988K->43988K(1089536K)
[2022-05-31T22:01:57.420+0530][gc            ] GC(8) Pause Young (Normal) (G1 Evacuation Pause) 192M->147M(1024M) 23.700ms
[2022-05-31T22:01:57.421+0530][gc,cpu        ] GC(8) User=0.07s Sys=0.00s Real=0.03s
[2022-05-31T22:39:13.813+0530][gc,start      ] GC(9) Pause Young (Normal) (G1 Evacuation Pause)
[2022-05-31T22:39:13.813+0530][gc,task       ] GC(9) Using 8 workers of 8 for evacuation
[2022-05-31T22:39:13.820+0530][gc,phases     ] GC(9)   Pre Evacuate Collection Set: 0.1ms
[2022-05-31T22:39:13.820+0530][gc,phases     ] GC(9)   Evacuate Collection Set: 5.7ms
[2022-05-31T22:39:13.820+0530][gc,phases     ] GC(9)   Post Evacuate Collection Set: 0.6ms
[2022-05-31T22:39:13.820+0530][gc,phases     ] GC(9)   Other: 0.4ms
[2022-05-31T22:39:13.820+0530][gc,heap       ] GC(9) Eden regions: 48->0(48)
[2022-05-31T22:39:13.820+0530][gc,heap       ] GC(9) Survivor regions: 3->3(7)
[2022-05-31T22:39:13.820+0530][gc,heap       ] GC(9) Old regions: 17->17
[2022-05-31T22:39:13.820+0530][gc,heap       ] GC(9) Humongous regions: 129->129
[2022-05-31T22:39:13.820+0530][gc,metaspace  ] GC(9) Metaspace: 44183K->44183K(1089536K)
[2022-05-31T22:39:13.820+0530][gc            ] GC(9) Pause Young (Normal) (G1 Evacuation Pause) 195M->147M(1024M) 6.916ms
[2022-05-31T22:39:13.820+0530][gc,cpu        ] GC(9) User=0.04s Sys=0.00s Real=0.01s
[2022-05-31T23:16:43.980+0530][gc,start      ] GC(10) Pause Young (Normal) (G1 Evacuation Pause)
[2022-05-31T23:16:43.980+0530][gc,task       ] GC(10) Using 8 workers of 8 for evacuation
[2022-05-31T23:16:43.986+0530][gc,phases     ] GC(10)   Pre Evacuate Collection Set: 0.1ms
[2022-05-31T23:16:43.986+0530][gc,phases     ] GC(10)   Evacuate Collection Set: 4.6ms
[2022-05-31T23:16:43.986+0530][gc,phases     ] GC(10)   Post Evacuate Collection Set: 0.7ms
[2022-05-31T23:16:43.986+0530][gc,phases     ] GC(10)   Other: 0.5ms
[2022-05-31T23:16:43.986+0530][gc,heap       ] GC(10) Eden regions: 48->0(51)
[2022-05-31T23:16:43.986+0530][gc,heap       ] GC(10) Survivor regions: 3->3(7)
[2022-05-31T23:16:43.986+0530][gc,heap       ] GC(10) Old regions: 17->17
[2022-05-31T23:16:43.986+0530][gc,heap       ] GC(10) Humongous regions: 129->129
[2022-05-31T23:16:43.986+0530][gc,metaspace  ] GC(10) Metaspace: 44233K->44233K(1089536K)
[2022-05-31T23:16:43.986+0530][gc            ] GC(10) Pause Young (Normal) (G1 Evacuation Pause) 195M->147M(1024M) 5.962ms
[2022-05-31T23:16:43.986+0530][gc,cpu        ] GC(10) User=0.04s Sys=0.00s Real=0.00s
[2022-06-01T00:27:59.620+0530][gc,start      ] GC(11) Pause Young (Normal) (G1 Evacuation Pause)
[2022-06-01T00:27:59.620+0530][gc,task       ] GC(11) Using 8 workers of 8 for evacuation
[2022-06-01T00:27:59.628+0530][gc,phases     ] GC(11)   Pre Evacuate Collection Set: 0.1ms
[2022-06-01T00:27:59.628+0530][gc,phases     ] GC(11)   Evacuate Collection Set: 6.4ms
[2022-06-01T00:27:59.628+0530][gc,phases     ] GC(11)   Post Evacuate Collection Set: 0.6ms
[2022-06-01T00:27:59.628+0530][gc,phases     ] GC(11)   Other: 0.5ms
[2022-06-01T00:27:59.628+0530][gc,heap       ] GC(11) Eden regions: 51->0(54)
[2022-06-01T00:27:59.628+0530][gc,heap       ] GC(11) Survivor regions: 3->3(7)
[2022-06-01T00:27:59.628+0530][gc,heap       ] GC(11) Old regions: 17->17
[2022-06-01T00:27:59.628+0530][gc,heap       ] GC(11) Humongous regions: 129->129
[2022-06-01T00:27:59.628+0530][gc,metaspace  ] GC(11) Metaspace: 44256K->44256K(1089536K)
[2022-06-01T00:27:59.628+0530][gc            ] GC(11) Pause Young (Normal) (G1 Evacuation Pause) 198M->147M(1024M) 7.648ms
[2022-06-01T00:27:59.628+0530][gc,cpu        ] GC(11) User=0.05s Sys=0.00s Real=0.01s
[2022-06-01T01:09:45.089+0530][gc,start      ] GC(12) Pause Young (Normal) (G1 Evacuation Pause)
[2022-06-01T01:09:45.089+0530][gc,task       ] GC(12) Using 8 workers of 8 for evacuation
[2022-06-01T01:09:45.106+0530][gc,phases     ] GC(12)   Pre Evacuate Collection Set: 0.1ms
[2022-06-01T01:09:45.106+0530][gc,phases     ] GC(12)   Evacuate Collection Set: 11.5ms
[2022-06-01T01:09:45.106+0530][gc,phases     ] GC(12)   Post Evacuate Collection Set: 5.0ms
[2022-06-01T01:09:45.106+0530][gc,phases     ] GC(12)   Other: 0.6ms
[2022-06-01T01:09:45.106+0530][gc,heap       ] GC(12) Eden regions: 54->0(55)
[2022-06-01T01:09:45.106+0530][gc,heap       ] GC(12) Survivor regions: 3->3(8)
[2022-06-01T01:09:45.106+0530][gc,heap       ] GC(12) Old regions: 17->17
[2022-06-01T01:09:45.106+0530][gc,heap       ] GC(12) Humongous regions: 129->129
[2022-06-01T01:09:45.106+0530][gc,metaspace  ] GC(12) Metaspace: 44257K->44257K(1089536K)
[2022-06-01T01:09:45.106+0530][gc            ] GC(12) Pause Young (Normal) (G1 Evacuation Pause) 201M->147M(1024M) 17.655ms
[2022-06-01T01:09:45.106+0530][gc,cpu        ] GC(12) User=0.10s Sys=0.00s Real=0.01s
[2022-06-01T01:29:13.263+0530][gc,heap,exit  ] Heap
[2022-06-01T01:29:13.263+0530][gc,heap,exit  ]  garbage-first heap   total 1048576K, used 186880K [0x00000000c0000000, 0x0000000100000000)
[2022-06-01T01:29:13.263+0530][gc,heap,exit  ]   region size 1024K, 39 young (39936K), 3 survivors (3072K)
[2022-06-01T01:29:13.263+0530][gc,heap,exit  ]  Metaspace       used 45093K, capacity 48005K, committed 48076K, reserved 1089536K
[2022-06-01T01:29:13.263+0530][gc,heap,exit  ]   class space    used 5928K, capacity 7368K, committed 7424K, reserved 1048576K
