[2022-06-06T11:04:20.806+0530][gc,heap] Heap region size: 1M
[2022-06-06T11:04:20.815+0530][gc     ] Using G1
[2022-06-06T11:04:20.815+0530][gc,heap,coops] Heap address: 0x00000000c0000000, size: 1024 MB, Compressed Oops mode: 32-bit
[2022-06-06T11:04:20.815+0530][gc,cds       ] Mark closed archive regions in map: [0x00000000fff00000, 0x00000000fff6aff8]
[2022-06-06T11:04:20.815+0530][gc,cds       ] Mark open archive regions in map: [0x00000000ffe00000, 0x00000000ffe46ff8]
[2022-06-06T11:04:24.834+0530][gc,start     ] GC(0) Pause Young (Normal) (G1 Evacuation Pause)
[2022-06-06T11:04:24.836+0530][gc,task      ] GC(0) Using 8 workers of 8 for evacuation
[2022-06-06T11:04:24.855+0530][gc,phases    ] GC(0)   Pre Evacuate Collection Set: 0.0ms
[2022-06-06T11:04:24.855+0530][gc,phases    ] GC(0)   Evacuate Collection Set: 18.1ms
[2022-06-06T11:04:24.855+0530][gc,phases    ] GC(0)   Post Evacuate Collection Set: 0.7ms
[2022-06-06T11:04:24.855+0530][gc,phases    ] GC(0)   Other: 2.3ms
[2022-06-06T11:04:24.855+0530][gc,heap      ] GC(0) Eden regions: 51->0(44)
[2022-06-06T11:04:24.855+0530][gc,heap      ] GC(0) Survivor regions: 0->7(7)
[2022-06-06T11:04:24.855+0530][gc,heap      ] GC(0) Old regions: 2->2
[2022-06-06T11:04:24.855+0530][gc,heap      ] GC(0) Humongous regions: 0->0
[2022-06-06T11:04:24.855+0530][gc,metaspace ] GC(0) Metaspace: 14687K->14687K(1062912K)
[2022-06-06T11:04:24.855+0530][gc           ] GC(0) Pause Young (Normal) (G1 Evacuation Pause) 51M->7M(1024M) 21.264ms
[2022-06-06T11:04:24.855+0530][gc,cpu       ] GC(0) User=0.07s Sys=0.01s Real=0.03s
[2022-06-06T11:04:29.469+0530][gc,start     ] GC(1) Pause Young (Concurrent Start) (Metadata GC Threshold)
[2022-06-06T11:04:29.469+0530][gc,task      ] GC(1) Using 8 workers of 8 for evacuation
[2022-06-06T11:04:29.479+0530][gc,phases    ] GC(1)   Pre Evacuate Collection Set: 0.1ms
[2022-06-06T11:04:29.479+0530][gc,phases    ] GC(1)   Evacuate Collection Set: 9.2ms
[2022-06-06T11:04:29.479+0530][gc,phases    ] GC(1)   Post Evacuate Collection Set: 0.4ms
[2022-06-06T11:04:29.479+0530][gc,phases    ] GC(1)   Other: 0.6ms
[2022-06-06T11:04:29.479+0530][gc,heap      ] GC(1) Eden regions: 25->0(49)
[2022-06-06T11:04:29.479+0530][gc,heap      ] GC(1) Survivor regions: 7->2(7)
[2022-06-06T11:04:29.479+0530][gc,heap      ] GC(1) Old regions: 2->9
[2022-06-06T11:04:29.479+0530][gc,heap      ] GC(1) Humongous regions: 0->0
[2022-06-06T11:04:29.479+0530][gc,metaspace ] GC(1) Metaspace: 20585K->20585K(1067008K)
[2022-06-06T11:04:29.479+0530][gc           ] GC(1) Pause Young (Concurrent Start) (Metadata GC Threshold) 31M->8M(1024M) 10.429ms
[2022-06-06T11:04:29.479+0530][gc,cpu       ] GC(1) User=0.04s Sys=0.01s Real=0.01s
[2022-06-06T11:04:29.479+0530][gc           ] GC(2) Concurrent Cycle
[2022-06-06T11:04:29.479+0530][gc,marking   ] GC(2) Concurrent Clear Claimed Marks
[2022-06-06T11:04:29.479+0530][gc,marking   ] GC(2) Concurrent Clear Claimed Marks 0.031ms
[2022-06-06T11:04:29.479+0530][gc,marking   ] GC(2) Concurrent Scan Root Regions
[2022-06-06T11:04:29.481+0530][gc,marking   ] GC(2) Concurrent Scan Root Regions 2.007ms
[2022-06-06T11:04:29.481+0530][gc,marking   ] GC(2) Concurrent Mark (8.678s)
[2022-06-06T11:04:29.481+0530][gc,marking   ] GC(2) Concurrent Mark From Roots
[2022-06-06T11:04:29.481+0530][gc,task      ] GC(2) Using 2 workers of 2 for marking
[2022-06-06T11:04:29.491+0530][gc,marking   ] GC(2) Concurrent Mark From Roots 9.356ms
[2022-06-06T11:04:29.491+0530][gc,marking   ] GC(2) Concurrent Preclean
[2022-06-06T11:04:29.491+0530][gc,marking   ] GC(2) Concurrent Preclean 0.587ms
[2022-06-06T11:04:29.491+0530][gc,marking   ] GC(2) Concurrent Mark (8.678s, 8.688s) 10.031ms
[2022-06-06T11:04:29.492+0530][gc,start     ] GC(2) Pause Remark
[2022-06-06T11:04:29.494+0530][gc,stringtable] GC(2) Cleaned string and symbol table, strings: 5204 processed, 0 removed, symbols: 51042 processed, 45 removed
[2022-06-06T11:04:29.494+0530][gc            ] GC(2) Pause Remark 9M->9M(1024M) 2.641ms
[2022-06-06T11:04:29.494+0530][gc,cpu        ] GC(2) User=0.01s Sys=0.00s Real=0.01s
[2022-06-06T11:04:29.494+0530][gc,marking    ] GC(2) Concurrent Rebuild Remembered Sets
[2022-06-06T11:04:29.498+0530][gc,marking    ] GC(2) Concurrent Rebuild Remembered Sets 3.375ms
[2022-06-06T11:04:29.498+0530][gc,start      ] GC(2) Pause Cleanup
[2022-06-06T11:04:29.498+0530][gc            ] GC(2) Pause Cleanup 9M->9M(1024M) 0.270ms
[2022-06-06T11:04:29.498+0530][gc,cpu        ] GC(2) User=0.00s Sys=0.00s Real=0.00s
[2022-06-06T11:04:29.498+0530][gc,marking    ] GC(2) Concurrent Cleanup for Next Mark
[2022-06-06T11:04:29.505+0530][gc,marking    ] GC(2) Concurrent Cleanup for Next Mark 6.856ms
[2022-06-06T11:04:29.505+0530][gc            ] GC(2) Concurrent Cycle 25.789ms
[2022-06-06T11:04:31.338+0530][gc,start      ] GC(3) Pause Young (Normal) (G1 Evacuation Pause)
[2022-06-06T11:04:31.338+0530][gc,task       ] GC(3) Using 8 workers of 8 for evacuation
[2022-06-06T11:04:31.344+0530][gc,phases     ] GC(3)   Pre Evacuate Collection Set: 0.0ms
[2022-06-06T11:04:31.344+0530][gc,phases     ] GC(3)   Evacuate Collection Set: 5.8ms
[2022-06-06T11:04:31.344+0530][gc,phases     ] GC(3)   Post Evacuate Collection Set: 0.5ms
[2022-06-06T11:04:31.344+0530][gc,phases     ] GC(3)   Other: 0.3ms
[2022-06-06T11:04:31.344+0530][gc,heap       ] GC(3) Eden regions: 49->0(46)
[2022-06-06T11:04:31.344+0530][gc,heap       ] GC(3) Survivor regions: 2->5(7)
[2022-06-06T11:04:31.344+0530][gc,heap       ] GC(3) Old regions: 9->9
[2022-06-06T11:04:31.344+0530][gc,heap       ] GC(3) Humongous regions: 129->129
[2022-06-06T11:04:31.344+0530][gc,metaspace  ] GC(3) Metaspace: 29025K->29025K(1075200K)
[2022-06-06T11:04:31.344+0530][gc            ] GC(3) Pause Young (Normal) (G1 Evacuation Pause) 186M->140M(1024M) 6.748ms
[2022-06-06T11:04:31.344+0530][gc,cpu        ] GC(3) User=0.05s Sys=0.00s Real=0.01s
[2022-06-06T11:04:32.305+0530][gc,start      ] GC(4) Pause Young (Concurrent Start) (Metadata GC Threshold)
[2022-06-06T11:04:32.305+0530][gc,task       ] GC(4) Using 8 workers of 8 for evacuation
[2022-06-06T11:04:32.315+0530][gc,phases     ] GC(4)   Pre Evacuate Collection Set: 0.1ms
[2022-06-06T11:04:32.315+0530][gc,phases     ] GC(4)   Evacuate Collection Set: 8.1ms
[2022-06-06T11:04:32.315+0530][gc,phases     ] GC(4)   Post Evacuate Collection Set: 1.1ms
[2022-06-06T11:04:32.315+0530][gc,phases     ] GC(4)   Other: 0.4ms
[2022-06-06T11:04:32.315+0530][gc,heap       ] GC(4) Eden regions: 28->0(45)
[2022-06-06T11:04:32.315+0530][gc,heap       ] GC(4) Survivor regions: 5->6(7)
[2022-06-06T11:04:32.315+0530][gc,heap       ] GC(4) Old regions: 9->10
[2022-06-06T11:04:32.315+0530][gc,heap       ] GC(4) Humongous regions: 129->129
[2022-06-06T11:04:32.315+0530][gc,metaspace  ] GC(4) Metaspace: 34526K->34526K(1081344K)
[2022-06-06T11:04:32.315+0530][gc            ] GC(4) Pause Young (Concurrent Start) (Metadata GC Threshold) 167M->142M(1024M) 10.066ms
[2022-06-06T11:04:32.315+0530][gc,cpu        ] GC(4) User=0.05s Sys=0.00s Real=0.01s
[2022-06-06T11:04:32.315+0530][gc            ] GC(5) Concurrent Cycle
[2022-06-06T11:04:32.316+0530][gc,marking    ] GC(5) Concurrent Clear Claimed Marks
[2022-06-06T11:04:32.316+0530][gc,marking    ] GC(5) Concurrent Clear Claimed Marks 0.459ms
[2022-06-06T11:04:32.316+0530][gc,marking    ] GC(5) Concurrent Scan Root Regions
[2022-06-06T11:04:32.321+0530][gc,marking    ] GC(5) Concurrent Scan Root Regions 5.376ms
[2022-06-06T11:04:32.321+0530][gc,marking    ] GC(5) Concurrent Mark (11.518s)
[2022-06-06T11:04:32.321+0530][gc,marking    ] GC(5) Concurrent Mark From Roots
[2022-06-06T11:04:32.321+0530][gc,task       ] GC(5) Using 2 workers of 2 for marking
[2022-06-06T11:04:32.346+0530][gc,marking    ] GC(5) Concurrent Mark From Roots 24.820ms
[2022-06-06T11:04:32.346+0530][gc,marking    ] GC(5) Concurrent Preclean
[2022-06-06T11:04:32.347+0530][gc,marking    ] GC(5) Concurrent Preclean 0.440ms
[2022-06-06T11:04:32.347+0530][gc,marking    ] GC(5) Concurrent Mark (11.518s, 11.544s) 25.524ms
[2022-06-06T11:04:32.348+0530][gc,start      ] GC(5) Pause Remark
[2022-06-06T11:04:32.354+0530][gc,stringtable] GC(5) Cleaned string and symbol table, strings: 10895 processed, 10 removed, symbols: 83926 processed, 14 removed
[2022-06-06T11:04:32.355+0530][gc            ] GC(5) Pause Remark 144M->144M(1024M) 6.897ms
[2022-06-06T11:04:32.355+0530][gc,cpu        ] GC(5) User=0.04s Sys=0.00s Real=0.01s
[2022-06-06T11:04:32.355+0530][gc,marking    ] GC(5) Concurrent Rebuild Remembered Sets
[2022-06-06T11:04:32.362+0530][gc,marking    ] GC(5) Concurrent Rebuild Remembered Sets 6.455ms
[2022-06-06T11:04:32.362+0530][gc,start      ] GC(5) Pause Cleanup
[2022-06-06T11:04:32.362+0530][gc            ] GC(5) Pause Cleanup 145M->145M(1024M) 0.253ms
[2022-06-06T11:04:32.362+0530][gc,cpu        ] GC(5) User=0.01s Sys=0.00s Real=0.01s
[2022-06-06T11:04:32.362+0530][gc,marking    ] GC(5) Concurrent Cleanup for Next Mark
[2022-06-06T11:04:32.372+0530][gc,marking    ] GC(5) Concurrent Cleanup for Next Mark 9.279ms
[2022-06-06T11:04:32.372+0530][gc            ] GC(5) Concurrent Cycle 56.449ms
[2022-06-06T11:15:00.601+0530][gc,start      ] GC(6) Pause Young (Concurrent Start) (G1 Evacuation Pause)
[2022-06-06T11:15:00.601+0530][gc,task       ] GC(6) Using 8 workers of 8 for evacuation
[2022-06-06T11:15:00.616+0530][gc,phases     ] GC(6)   Pre Evacuate Collection Set: 0.4ms
[2022-06-06T11:15:00.616+0530][gc,phases     ] GC(6)   Evacuate Collection Set: 13.0ms
[2022-06-06T11:15:00.616+0530][gc,phases     ] GC(6)   Post Evacuate Collection Set: 0.7ms
[2022-06-06T11:15:00.616+0530][gc,phases     ] GC(6)   Other: 0.6ms
[2022-06-06T11:15:00.616+0530][gc,heap       ] GC(6) Eden regions: 45->0(46)
[2022-06-06T11:15:00.616+0530][gc,heap       ] GC(6) Survivor regions: 6->5(7)
[2022-06-06T11:15:00.616+0530][gc,heap       ] GC(6) Old regions: 10->13
[2022-06-06T11:15:00.616+0530][gc,heap       ] GC(6) Humongous regions: 129->129
[2022-06-06T11:15:00.616+0530][gc,metaspace  ] GC(6) Metaspace: 41387K->41387K(1087488K)
[2022-06-06T11:15:00.616+0530][gc            ] GC(6) Pause Young (Concurrent Start) (G1 Evacuation Pause) 187M->145M(1024M) 14.784ms
[2022-06-06T11:15:00.616+0530][gc,cpu        ] GC(6) User=0.06s Sys=0.01s Real=0.01s
[2022-06-06T11:15:00.616+0530][gc            ] GC(7) Concurrent Cycle
[2022-06-06T11:15:00.616+0530][gc,marking    ] GC(7) Concurrent Clear Claimed Marks
[2022-06-06T11:15:00.616+0530][gc,marking    ] GC(7) Concurrent Clear Claimed Marks 0.187ms
[2022-06-06T11:15:00.616+0530][gc,marking    ] GC(7) Concurrent Scan Root Regions
[2022-06-06T11:15:00.618+0530][gc,marking    ] GC(7) Concurrent Scan Root Regions 2.317ms
[2022-06-06T11:15:00.618+0530][gc,marking    ] GC(7) Concurrent Mark (639.061s)
[2022-06-06T11:15:00.618+0530][gc,marking    ] GC(7) Concurrent Mark From Roots
[2022-06-06T11:15:00.618+0530][gc,task       ] GC(7) Using 2 workers of 2 for marking
[2022-06-06T11:15:00.629+0530][gc,marking    ] GC(7) Concurrent Mark From Roots 10.022ms
[2022-06-06T11:15:00.629+0530][gc,marking    ] GC(7) Concurrent Preclean
[2022-06-06T11:15:00.629+0530][gc,marking    ] GC(7) Concurrent Preclean 0.163ms
[2022-06-06T11:15:00.629+0530][gc,marking    ] GC(7) Concurrent Mark (639.061s, 639.071s) 10.242ms
[2022-06-06T11:15:00.629+0530][gc,start      ] GC(7) Pause Remark
[2022-06-06T11:15:00.633+0530][gc,stringtable] GC(7) Cleaned string and symbol table, strings: 11796 processed, 4 removed, symbols: 90647 processed, 7 removed
[2022-06-06T11:15:00.633+0530][gc            ] GC(7) Pause Remark 145M->145M(1024M) 3.990ms
[2022-06-06T11:15:00.633+0530][gc,cpu        ] GC(7) User=0.03s Sys=0.00s Real=0.00s
[2022-06-06T11:15:00.633+0530][gc,marking    ] GC(7) Concurrent Rebuild Remembered Sets
[2022-06-06T11:15:00.639+0530][gc,marking    ] GC(7) Concurrent Rebuild Remembered Sets 5.738ms
[2022-06-06T11:15:00.639+0530][gc,start      ] GC(7) Pause Cleanup
[2022-06-06T11:15:00.639+0530][gc            ] GC(7) Pause Cleanup 145M->145M(1024M) 0.142ms
[2022-06-06T11:15:00.639+0530][gc,cpu        ] GC(7) User=0.00s Sys=0.00s Real=0.00s
[2022-06-06T11:15:00.639+0530][gc,marking    ] GC(7) Concurrent Cleanup for Next Mark
[2022-06-06T11:15:00.640+0530][gc,marking    ] GC(7) Concurrent Cleanup for Next Mark 0.785ms
[2022-06-06T11:15:00.640+0530][gc            ] GC(7) Concurrent Cycle 23.984ms
[2022-06-06T11:32:38.888+0530][gc,start      ] GC(8) Pause Young (Normal) (G1 Evacuation Pause)
[2022-06-06T11:32:38.888+0530][gc,task       ] GC(8) Using 8 workers of 8 for evacuation
[2022-06-06T11:32:38.896+0530][gc,phases     ] GC(8)   Pre Evacuate Collection Set: 0.1ms
[2022-06-06T11:32:38.896+0530][gc,phases     ] GC(8)   Evacuate Collection Set: 6.4ms
[2022-06-06T11:32:38.896+0530][gc,phases     ] GC(8)   Post Evacuate Collection Set: 0.7ms
[2022-06-06T11:32:38.896+0530][gc,phases     ] GC(8)   Other: 0.6ms
[2022-06-06T11:32:38.896+0530][gc,heap       ] GC(8) Eden regions: 46->0(48)
[2022-06-06T11:32:38.896+0530][gc,heap       ] GC(8) Survivor regions: 5->3(7)
[2022-06-06T11:32:38.896+0530][gc,heap       ] GC(8) Old regions: 13->15
[2022-06-06T11:32:38.896+0530][gc,heap       ] GC(8) Humongous regions: 129->129
[2022-06-06T11:32:38.896+0530][gc,metaspace  ] GC(8) Metaspace: 41613K->41613K(1087488K)
[2022-06-06T11:32:38.896+0530][gc            ] GC(8) Pause Young (Normal) (G1 Evacuation Pause) 191M->145M(1024M) 7.756ms
[2022-06-06T11:32:38.896+0530][gc,cpu        ] GC(8) User=0.05s Sys=0.00s Real=0.01s
[2022-06-06T11:52:09.618+0530][gc,start      ] GC(9) Pause Young (Normal) (G1 Evacuation Pause)
[2022-06-06T11:52:09.618+0530][gc,task       ] GC(9) Using 8 workers of 8 for evacuation
[2022-06-06T11:52:09.626+0530][gc,phases     ] GC(9)   Pre Evacuate Collection Set: 0.1ms
[2022-06-06T11:52:09.626+0530][gc,phases     ] GC(9)   Evacuate Collection Set: 6.9ms
[2022-06-06T11:52:09.626+0530][gc,phases     ] GC(9)   Post Evacuate Collection Set: 0.8ms
[2022-06-06T11:52:09.626+0530][gc,phases     ] GC(9)   Other: 0.5ms
[2022-06-06T11:52:09.626+0530][gc,heap       ] GC(9) Eden regions: 48->0(48)
[2022-06-06T11:52:09.626+0530][gc,heap       ] GC(9) Survivor regions: 3->3(7)
[2022-06-06T11:52:09.626+0530][gc,heap       ] GC(9) Old regions: 15->15
[2022-06-06T11:52:09.626+0530][gc,heap       ] GC(9) Humongous regions: 129->129
[2022-06-06T11:52:09.626+0530][gc,metaspace  ] GC(9) Metaspace: 41719K->41719K(1087488K)
[2022-06-06T11:52:09.626+0530][gc            ] GC(9) Pause Young (Normal) (G1 Evacuation Pause) 193M->145M(1024M) 8.302ms
[2022-06-06T11:52:09.626+0530][gc,cpu        ] GC(9) User=0.06s Sys=0.00s Real=0.00s
[2022-06-06T12:24:14.618+0530][gc,start      ] GC(10) Pause Young (Normal) (G1 Evacuation Pause)
[2022-06-06T12:24:14.706+0530][gc,task       ] GC(10) Using 8 workers of 8 for evacuation
[2022-06-06T12:24:14.721+0530][gc,phases     ] GC(10)   Pre Evacuate Collection Set: 0.0ms
[2022-06-06T12:24:14.721+0530][gc,phases     ] GC(10)   Evacuate Collection Set: 10.3ms
[2022-06-06T12:24:14.721+0530][gc,phases     ] GC(10)   Post Evacuate Collection Set: 4.1ms
[2022-06-06T12:24:14.721+0530][gc,phases     ] GC(10)   Other: 89.0ms
[2022-06-06T12:24:14.722+0530][gc,heap       ] GC(10) Eden regions: 48->0(47)
[2022-06-06T12:24:14.722+0530][gc,heap       ] GC(10) Survivor regions: 3->4(7)
[2022-06-06T12:24:14.722+0530][gc,heap       ] GC(10) Old regions: 15->15
[2022-06-06T12:24:14.722+0530][gc,heap       ] GC(10) Humongous regions: 129->129
[2022-06-06T12:24:14.722+0530][gc,metaspace  ] GC(10) Metaspace: 41886K->41886K(1087488K)
[2022-06-06T12:24:14.722+0530][gc            ] GC(10) Pause Young (Normal) (G1 Evacuation Pause) 193M->146M(1024M) 103.708ms
[2022-06-06T12:24:14.722+0530][gc,cpu        ] GC(10) User=0.10s Sys=0.00s Real=0.10s
[2022-06-06T12:47:04.891+0530][gc,start      ] GC(11) Pause Young (Normal) (G1 Evacuation Pause)
[2022-06-06T12:47:04.891+0530][gc,task       ] GC(11) Using 8 workers of 8 for evacuation
[2022-06-06T12:47:04.904+0530][gc,phases     ] GC(11)   Pre Evacuate Collection Set: 0.1ms
[2022-06-06T12:47:04.904+0530][gc,phases     ] GC(11)   Evacuate Collection Set: 10.9ms
[2022-06-06T12:47:04.904+0530][gc,phases     ] GC(11)   Post Evacuate Collection Set: 1.1ms
[2022-06-06T12:47:04.904+0530][gc,phases     ] GC(11)   Other: 1.2ms
[2022-06-06T12:47:04.904+0530][gc,heap       ] GC(11) Eden regions: 47->0(52)
[2022-06-06T12:47:04.905+0530][gc,heap       ] GC(11) Survivor regions: 4->2(7)
[2022-06-06T12:47:04.905+0530][gc,heap       ] GC(11) Old regions: 15->17
[2022-06-06T12:47:04.905+0530][gc,heap       ] GC(11) Humongous regions: 129->129
[2022-06-06T12:47:04.905+0530][gc,metaspace  ] GC(11) Metaspace: 41947K->41947K(1087488K)
[2022-06-06T12:47:04.905+0530][gc            ] GC(11) Pause Young (Normal) (G1 Evacuation Pause) 193M->145M(1024M) 13.627ms
[2022-06-06T12:47:04.905+0530][gc,cpu        ] GC(11) User=0.08s Sys=0.00s Real=0.01s
[2022-06-06T13:58:02.187+0530][gc,start      ] GC(12) Pause Young (Normal) (G1 Evacuation Pause)
[2022-06-06T13:58:02.187+0530][gc,task       ] GC(12) Using 8 workers of 8 for evacuation
[2022-06-06T13:58:02.193+0530][gc,phases     ] GC(12)   Pre Evacuate Collection Set: 0.1ms
[2022-06-06T13:58:02.193+0530][gc,phases     ] GC(12)   Evacuate Collection Set: 4.4ms
[2022-06-06T13:58:02.193+0530][gc,phases     ] GC(12)   Post Evacuate Collection Set: 1.1ms
[2022-06-06T13:58:02.193+0530][gc,phases     ] GC(12)   Other: 0.5ms
[2022-06-06T13:58:02.193+0530][gc,heap       ] GC(12) Eden regions: 52->0(431)
[2022-06-06T13:58:02.193+0530][gc,heap       ] GC(12) Survivor regions: 2->2(7)
[2022-06-06T13:58:02.193+0530][gc,heap       ] GC(12) Old regions: 17->17
[2022-06-06T13:58:02.193+0530][gc,heap       ] GC(12) Humongous regions: 129->129
[2022-06-06T13:58:02.193+0530][gc,metaspace  ] GC(12) Metaspace: 41985K->41985K(1087488K)
[2022-06-06T13:58:02.193+0530][gc            ] GC(12) Pause Young (Normal) (G1 Evacuation Pause) 197M->145M(1024M) 6.324ms
[2022-06-06T13:58:02.193+0530][gc,cpu        ] GC(12) User=0.04s Sys=0.00s Real=0.00s
[2022-06-06T14:55:52.116+0530][gc,heap,exit  ] Heap
[2022-06-06T14:55:52.116+0530][gc,heap,exit  ]  garbage-first heap   total 1048576K, used 204318K [0x00000000c0000000, 0x0000000100000000)
[2022-06-06T14:55:52.116+0530][gc,heap,exit  ]   region size 1024K, 58 young (59392K), 2 survivors (2048K)
[2022-06-06T14:55:52.116+0530][gc,heap,exit  ]  Metaspace       used 42839K, capacity 45356K, committed 45440K, reserved 1087488K
[2022-06-06T14:55:52.116+0530][gc,heap,exit  ]   class space    used 5495K, capacity 6736K, committed 6784K, reserved 1048576K
