[2022-05-30T17:11:02.666+0530][gc,heap] Heap region size: 1M
[2022-05-30T17:11:02.700+0530][gc     ] Using G1
[2022-05-30T17:11:02.700+0530][gc,heap,coops] Heap address: 0x00000000c0000000, size: 1024 MB, Compressed Oops mode: 32-bit
[2022-05-30T17:11:10.827+0530][gc,start     ] GC(0) Pause Young (Concurrent Start) (Metadata GC Threshold)
[2022-05-30T17:11:10.828+0530][gc,task      ] GC(0) Using 4 workers of 4 for evacuation
[2022-05-30T17:11:10.863+0530][gc,mmu       ] GC(0) MMU target violated: 21.0ms (20.0ms/21.0ms)
[2022-05-30T17:11:10.864+0530][gc,phases    ] GC(0)   Pre Evacuate Collection Set: 0.3ms
[2022-05-30T17:11:10.864+0530][gc,phases    ] GC(0)   Evacuate Collection Set: 32.5ms
[2022-05-30T17:11:10.864+0530][gc,phases    ] GC(0)   Post Evacuate Collection Set: 1.7ms
[2022-05-30T17:11:10.864+0530][gc,phases    ] GC(0)   Other: 1.9ms
[2022-05-30T17:11:10.864+0530][gc,heap      ] GC(0) Eden regions: 42->0(44)
[2022-05-30T17:11:10.864+0530][gc,heap      ] GC(0) Survivor regions: 0->7(7)
[2022-05-30T17:11:10.864+0530][gc,heap      ] GC(0) Old regions: 0->0
[2022-05-30T17:11:10.864+0530][gc,heap      ] GC(0) Humongous regions: 0->0
[2022-05-30T17:11:10.864+0530][gc,metaspace ] GC(0) Metaspace: 20734K->20734K(1069056K)
[2022-05-30T17:11:10.864+0530][gc           ] GC(0) Pause Young (Concurrent Start) (Metadata GC Threshold) 42M->6M(1024M) 36.653ms
[2022-05-30T17:11:10.864+0530][gc,cpu       ] GC(0) User=0.03s Sys=0.02s Real=0.04s
[2022-05-30T17:11:10.864+0530][gc           ] GC(1) Concurrent Cycle
[2022-05-30T17:11:10.864+0530][gc,marking   ] GC(1) Concurrent Clear Claimed Marks
[2022-05-30T17:11:10.865+0530][gc,marking   ] GC(1) Concurrent Clear Claimed Marks 0.098ms
[2022-05-30T17:11:10.865+0530][gc,marking   ] GC(1) Concurrent Scan Root Regions
[2022-05-30T17:11:10.872+0530][gc,marking   ] GC(1) Concurrent Scan Root Regions 7.443ms
[2022-05-30T17:11:10.872+0530][gc,marking   ] GC(1) Concurrent Mark (8.221s)
[2022-05-30T17:11:10.872+0530][gc,marking   ] GC(1) Concurrent Mark From Roots
[2022-05-30T17:11:10.872+0530][gc,task      ] GC(1) Using 1 workers of 1 for marking
[2022-05-30T17:11:10.874+0530][gc,marking   ] GC(1) Concurrent Mark From Roots 1.954ms
[2022-05-30T17:11:10.874+0530][gc,marking   ] GC(1) Concurrent Preclean
[2022-05-30T17:11:10.874+0530][gc,marking   ] GC(1) Concurrent Preclean 0.131ms
[2022-05-30T17:11:10.875+0530][gc,marking   ] GC(1) Concurrent Mark (8.221s, 8.224s) 2.335ms
[2022-05-30T17:11:10.875+0530][gc,start     ] GC(1) Pause Remark
[2022-05-30T17:11:10.885+0530][gc,stringtable] GC(1) Cleaned string and symbol table, strings: 7260 processed, 0 removed, symbols: 63994 processed, 32 removed
[2022-05-30T17:11:10.886+0530][gc            ] GC(1) Pause Remark 7M->7M(1024M) 10.803ms
[2022-05-30T17:11:10.886+0530][gc,cpu        ] GC(1) User=0.03s Sys=0.00s Real=0.01s
[2022-05-30T17:11:10.886+0530][gc,marking    ] GC(1) Concurrent Rebuild Remembered Sets
[2022-05-30T17:11:10.887+0530][gc,marking    ] GC(1) Concurrent Rebuild Remembered Sets 0.499ms
[2022-05-30T17:11:10.887+0530][gc,start      ] GC(1) Pause Cleanup
[2022-05-30T17:11:10.888+0530][gc            ] GC(1) Pause Cleanup 7M->7M(1024M) 1.032ms
[2022-05-30T17:11:10.888+0530][gc,cpu        ] GC(1) User=0.00s Sys=0.00s Real=0.00s
[2022-05-30T17:11:10.888+0530][gc,marking    ] GC(1) Concurrent Cleanup for Next Mark
[2022-05-30T17:11:10.918+0530][gc,marking    ] GC(1) Concurrent Cleanup for Next Mark 29.716ms
[2022-05-30T17:11:10.918+0530][gc            ] GC(1) Concurrent Cycle 54.214ms
[2022-05-30T17:11:17.038+0530][gc,start      ] GC(2) Pause Young (Normal) (G1 Evacuation Pause)
[2022-05-30T17:11:17.038+0530][gc,task       ] GC(2) Using 4 workers of 4 for evacuation
[2022-05-30T17:11:17.087+0530][gc,mmu        ] GC(2) MMU target violated: 21.0ms (20.0ms/21.0ms)
[2022-05-30T17:11:17.087+0530][gc,phases     ] GC(2)   Pre Evacuate Collection Set: 0.2ms
[2022-05-30T17:11:17.087+0530][gc,phases     ] GC(2)   Evacuate Collection Set: 46.8ms
[2022-05-30T17:11:17.087+0530][gc,phases     ] GC(2)   Post Evacuate Collection Set: 1.4ms
[2022-05-30T17:11:17.087+0530][gc,phases     ] GC(2)   Other: 0.8ms
[2022-05-30T17:11:17.087+0530][gc,heap       ] GC(2) Eden regions: 44->0(49)
[2022-05-30T17:11:17.087+0530][gc,heap       ] GC(2) Survivor regions: 7->2(7)
[2022-05-30T17:11:17.087+0530][gc,heap       ] GC(2) Old regions: 0->7
[2022-05-30T17:11:17.087+0530][gc,heap       ] GC(2) Humongous regions: 0->0
[2022-05-30T17:11:17.088+0530][gc,metaspace  ] GC(2) Metaspace: 30672K->30672K(1077248K)
[2022-05-30T17:11:17.088+0530][gc            ] GC(2) Pause Young (Normal) (G1 Evacuation Pause) 50M->8M(1024M) 49.907ms
[2022-05-30T17:11:17.088+0530][gc,cpu        ] GC(2) User=0.13s Sys=0.01s Real=0.05s
[2022-05-30T17:11:25.660+0530][gc,start      ] GC(3) Pause Young (Concurrent Start) (Metadata GC Threshold)
[2022-05-30T17:11:25.660+0530][gc,task       ] GC(3) Using 4 workers of 4 for evacuation
[2022-05-30T17:11:25.676+0530][gc,phases     ] GC(3)   Pre Evacuate Collection Set: 0.3ms
[2022-05-30T17:11:25.676+0530][gc,phases     ] GC(3)   Evacuate Collection Set: 13.8ms
[2022-05-30T17:11:25.676+0530][gc,phases     ] GC(3)   Post Evacuate Collection Set: 1.0ms
[2022-05-30T17:11:25.677+0530][gc,phases     ] GC(3)   Other: 1.7ms
[2022-05-30T17:11:25.677+0530][gc,heap       ] GC(3) Eden regions: 30->0(48)
[2022-05-30T17:11:25.677+0530][gc,heap       ] GC(3) Survivor regions: 2->3(7)
[2022-05-30T17:11:25.677+0530][gc,heap       ] GC(3) Old regions: 7->7
[2022-05-30T17:11:25.677+0530][gc,heap       ] GC(3) Humongous regions: 129->129
[2022-05-30T17:11:25.677+0530][gc,metaspace  ] GC(3) Metaspace: 34923K->34923K(1081344K)
[2022-05-30T17:11:25.677+0530][gc            ] GC(3) Pause Young (Concurrent Start) (Metadata GC Threshold) 167M->138M(1024M) 17.088ms
[2022-05-30T17:11:25.677+0530][gc,cpu        ] GC(3) User=0.03s Sys=0.00s Real=0.01s
[2022-05-30T17:11:25.677+0530][gc            ] GC(4) Concurrent Cycle
[2022-05-30T17:11:25.678+0530][gc,marking    ] GC(4) Concurrent Clear Claimed Marks
[2022-05-30T17:11:25.678+0530][gc,marking    ] GC(4) Concurrent Clear Claimed Marks 0.254ms
[2022-05-30T17:11:25.678+0530][gc,marking    ] GC(4) Concurrent Scan Root Regions
[2022-05-30T17:11:25.683+0530][gc,marking    ] GC(4) Concurrent Scan Root Regions 5.084ms
[2022-05-30T17:11:25.683+0530][gc,marking    ] GC(4) Concurrent Mark (23.032s)
[2022-05-30T17:11:25.683+0530][gc,marking    ] GC(4) Concurrent Mark From Roots
[2022-05-30T17:11:25.683+0530][gc,task       ] GC(4) Using 1 workers of 1 for marking
[2022-05-30T17:11:25.704+0530][gc,marking    ] GC(4) Concurrent Mark From Roots 20.991ms
[2022-05-30T17:11:25.705+0530][gc,marking    ] GC(4) Concurrent Preclean
[2022-05-30T17:11:25.705+0530][gc,marking    ] GC(4) Concurrent Preclean 0.250ms
[2022-05-30T17:11:25.705+0530][gc,marking    ] GC(4) Concurrent Mark (23.032s, 23.054s) 21.502ms
[2022-05-30T17:11:25.706+0530][gc,start      ] GC(4) Pause Remark
[2022-05-30T17:11:25.723+0530][gc,stringtable] GC(4) Cleaned string and symbol table, strings: 10800 processed, 8 removed, symbols: 95732 processed, 23 removed
[2022-05-30T17:11:25.724+0530][gc            ] GC(4) Pause Remark 139M->139M(1024M) 18.382ms
[2022-05-30T17:11:25.724+0530][gc,cpu        ] GC(4) User=0.04s Sys=0.00s Real=0.02s
[2022-05-30T17:11:25.725+0530][gc,marking    ] GC(4) Concurrent Rebuild Remembered Sets
[2022-05-30T17:11:25.734+0530][gc,marking    ] GC(4) Concurrent Rebuild Remembered Sets 9.838ms
[2022-05-30T17:11:25.735+0530][gc,start      ] GC(4) Pause Cleanup
[2022-05-30T17:11:25.735+0530][gc            ] GC(4) Pause Cleanup 140M->140M(1024M) 0.671ms
[2022-05-30T17:11:25.736+0530][gc,cpu        ] GC(4) User=0.00s Sys=0.00s Real=0.00s
[2022-05-30T17:11:25.736+0530][gc,marking    ] GC(4) Concurrent Cleanup for Next Mark
[2022-05-30T17:11:25.755+0530][gc,marking    ] GC(4) Concurrent Cleanup for Next Mark 19.708ms
[2022-05-30T17:11:25.756+0530][gc            ] GC(4) Concurrent Cycle 78.529ms
[2022-05-30T17:11:29.081+0530][gc,start      ] GC(5) Pause Young (Normal) (G1 Evacuation Pause)
[2022-05-30T17:11:29.082+0530][gc,task       ] GC(5) Using 4 workers of 4 for evacuation
[2022-05-30T17:11:29.119+0530][gc,mmu        ] GC(5) MMU target violated: 21.0ms (20.0ms/21.0ms)
[2022-05-30T17:11:29.119+0530][gc,phases     ] GC(5)   Pre Evacuate Collection Set: 0.1ms
[2022-05-30T17:11:29.119+0530][gc,phases     ] GC(5)   Evacuate Collection Set: 35.5ms
[2022-05-30T17:11:29.119+0530][gc,phases     ] GC(5)   Post Evacuate Collection Set: 1.7ms
[2022-05-30T17:11:29.120+0530][gc,phases     ] GC(5)   Other: 0.7ms
[2022-05-30T17:11:29.120+0530][gc,heap       ] GC(5) Eden regions: 48->0(44)
[2022-05-30T17:11:29.120+0530][gc,heap       ] GC(5) Survivor regions: 3->7(7)
[2022-05-30T17:11:29.120+0530][gc,heap       ] GC(5) Old regions: 7->7
[2022-05-30T17:11:29.120+0530][gc,heap       ] GC(5) Humongous regions: 129->129
[2022-05-30T17:11:29.120+0530][gc,metaspace  ] GC(5) Metaspace: 43273K->43273K(1089536K)
[2022-05-30T17:11:29.120+0530][gc            ] GC(5) Pause Young (Normal) (G1 Evacuation Pause) 186M->142M(1024M) 38.377ms
[2022-05-30T17:11:29.120+0530][gc,cpu        ] GC(5) User=0.11s Sys=0.01s Real=0.04s
[2022-05-30T17:14:32.137+0530][gc,start      ] GC(6) Pause Young (Normal) (G1 Evacuation Pause)
[2022-05-30T17:14:32.138+0530][gc,task       ] GC(6) Using 4 workers of 4 for evacuation
[2022-05-30T17:14:32.167+0530][gc,mmu        ] GC(6) MMU target violated: 21.0ms (20.0ms/21.0ms)
[2022-05-30T17:14:32.168+0530][gc,phases     ] GC(6)   Pre Evacuate Collection Set: 0.2ms
[2022-05-30T17:14:32.168+0530][gc,phases     ] GC(6)   Evacuate Collection Set: 26.9ms
[2022-05-30T17:14:32.168+0530][gc,phases     ] GC(6)   Post Evacuate Collection Set: 2.0ms
[2022-05-30T17:14:32.168+0530][gc,phases     ] GC(6)   Other: 1.3ms
[2022-05-30T17:14:32.168+0530][gc,heap       ] GC(6) Eden regions: 44->0(48)
[2022-05-30T17:14:32.168+0530][gc,heap       ] GC(6) Survivor regions: 7->3(7)
[2022-05-30T17:14:32.168+0530][gc,heap       ] GC(6) Old regions: 7->13
[2022-05-30T17:14:32.168+0530][gc,heap       ] GC(6) Humongous regions: 153->129
[2022-05-30T17:14:32.168+0530][gc,metaspace  ] GC(6) Metaspace: 50268K->50268K(1095680K)
[2022-05-30T17:14:32.168+0530][gc            ] GC(6) Pause Young (Normal) (G1 Evacuation Pause) 210M->144M(1024M) 30.523ms
[2022-05-30T17:14:32.168+0530][gc,cpu        ] GC(6) User=0.07s Sys=0.02s Real=0.03s
[2022-05-30T17:28:28.714+0530][gc,start      ] GC(7) Pause Young (Normal) (G1 Evacuation Pause)
[2022-05-30T17:28:28.746+0530][gc,task       ] GC(7) Using 4 workers of 4 for evacuation
[2022-05-30T17:28:28.763+0530][gc,phases     ] GC(7)   Pre Evacuate Collection Set: 0.1ms
[2022-05-30T17:28:28.763+0530][gc,phases     ] GC(7)   Evacuate Collection Set: 15.2ms
[2022-05-30T17:28:28.763+0530][gc,phases     ] GC(7)   Post Evacuate Collection Set: 1.4ms
[2022-05-30T17:28:28.763+0530][gc,phases     ] GC(7)   Other: 32.3ms
[2022-05-30T17:28:28.763+0530][gc,heap       ] GC(7) Eden regions: 48->0(46)
[2022-05-30T17:28:28.763+0530][gc,heap       ] GC(7) Survivor regions: 3->5(7)
[2022-05-30T17:28:28.763+0530][gc,heap       ] GC(7) Old regions: 13->13
[2022-05-30T17:28:28.763+0530][gc,heap       ] GC(7) Humongous regions: 129->129
[2022-05-30T17:28:28.763+0530][gc,metaspace  ] GC(7) Metaspace: 51084K->51084K(1095680K)
[2022-05-30T17:28:28.764+0530][gc            ] GC(7) Pause Young (Normal) (G1 Evacuation Pause) 192M->146M(1024M) 49.372ms
[2022-05-30T17:28:28.764+0530][gc,cpu        ] GC(7) User=0.05s Sys=0.01s Real=0.05s
[2022-05-30T17:42:55.353+0530][gc,start      ] GC(8) Pause Young (Normal) (G1 Evacuation Pause)
[2022-05-30T17:42:55.396+0530][gc,task       ] GC(8) Using 4 workers of 4 for evacuation
[2022-05-30T17:42:55.413+0530][gc,phases     ] GC(8)   Pre Evacuate Collection Set: 0.1ms
[2022-05-30T17:42:55.413+0530][gc,phases     ] GC(8)   Evacuate Collection Set: 15.2ms
[2022-05-30T17:42:55.413+0530][gc,phases     ] GC(8)   Post Evacuate Collection Set: 1.5ms
[2022-05-30T17:42:55.413+0530][gc,phases     ] GC(8)   Other: 42.9ms
[2022-05-30T17:42:55.413+0530][gc,heap       ] GC(8) Eden regions: 46->0(48)
[2022-05-30T17:42:55.414+0530][gc,heap       ] GC(8) Survivor regions: 5->3(7)
[2022-05-30T17:42:55.414+0530][gc,heap       ] GC(8) Old regions: 13->16
[2022-05-30T17:42:55.414+0530][gc,heap       ] GC(8) Humongous regions: 129->129
[2022-05-30T17:42:55.414+0530][gc,metaspace  ] GC(8) Metaspace: 51226K->51226K(1095680K)
[2022-05-30T17:42:55.414+0530][gc            ] GC(8) Pause Young (Normal) (G1 Evacuation Pause) 192M->146M(1024M) 60.915ms
[2022-05-30T17:42:55.414+0530][gc,cpu        ] GC(8) User=0.05s Sys=0.00s Real=0.06s
