[2022-05-31T11:05:43.451+0530][gc,heap] Heap region size: 1M
[2022-05-31T11:05:43.479+0530][gc     ] Using G1
[2022-05-31T11:05:43.479+0530][gc,heap,coops] Heap address: 0x00000000c0000000, size: 1024 MB, Compressed Oops mode: 32-bit
[2022-05-31T11:05:47.258+0530][gc,start     ] GC(0) Pause Young (Concurrent Start) (Metadata GC Threshold)
[2022-05-31T11:05:47.259+0530][gc,task      ] GC(0) Using 4 workers of 4 for evacuation
[2022-05-31T11:05:47.293+0530][gc,mmu       ] GC(0) MMU target violated: 21.0ms (20.0ms/21.0ms)
[2022-05-31T11:05:47.293+0530][gc,phases    ] GC(0)   Pre Evacuate Collection Set: 0.1ms
[2022-05-31T11:05:47.293+0530][gc,phases    ] GC(0)   Evacuate Collection Set: 30.9ms
[2022-05-31T11:05:47.293+0530][gc,phases    ] GC(0)   Post Evacuate Collection Set: 1.5ms
[2022-05-31T11:05:47.293+0530][gc,phases    ] GC(0)   Other: 2.3ms
[2022-05-31T11:05:47.293+0530][gc,heap      ] GC(0) Eden regions: 44->0(44)
[2022-05-31T11:05:47.293+0530][gc,heap      ] GC(0) Survivor regions: 0->7(7)
[2022-05-31T11:05:47.293+0530][gc,heap      ] GC(0) Old regions: 0->0
[2022-05-31T11:05:47.293+0530][gc,heap      ] GC(0) Humongous regions: 0->0
[2022-05-31T11:05:47.293+0530][gc,metaspace ] GC(0) Metaspace: 20840K->20840K(1069056K)
[2022-05-31T11:05:47.293+0530][gc           ] GC(0) Pause Young (Concurrent Start) (Metadata GC Threshold) 43M->6M(1024M) 35.328ms
[2022-05-31T11:05:47.293+0530][gc,cpu       ] GC(0) User=0.03s Sys=0.03s Real=0.04s
[2022-05-31T11:05:47.294+0530][gc           ] GC(1) Concurrent Cycle
[2022-05-31T11:05:47.295+0530][gc,marking   ] GC(1) Concurrent Clear Claimed Marks
[2022-05-31T11:05:47.295+0530][gc,marking   ] GC(1) Concurrent Clear Claimed Marks 0.081ms
[2022-05-31T11:05:47.295+0530][gc,marking   ] GC(1) Concurrent Scan Root Regions
[2022-05-31T11:05:47.302+0530][gc,marking   ] GC(1) Concurrent Scan Root Regions 7.252ms
[2022-05-31T11:05:47.302+0530][gc,marking   ] GC(1) Concurrent Mark (3.872s)
[2022-05-31T11:05:47.302+0530][gc,marking   ] GC(1) Concurrent Mark From Roots
[2022-05-31T11:05:47.302+0530][gc,task      ] GC(1) Using 1 workers of 1 for marking
[2022-05-31T11:05:47.304+0530][gc,marking   ] GC(1) Concurrent Mark From Roots 1.368ms
[2022-05-31T11:05:47.304+0530][gc,marking   ] GC(1) Concurrent Preclean
[2022-05-31T11:05:47.304+0530][gc,marking   ] GC(1) Concurrent Preclean 0.166ms
[2022-05-31T11:05:47.304+0530][gc,marking   ] GC(1) Concurrent Mark (3.872s, 3.874s) 1.921ms
[2022-05-31T11:05:47.304+0530][gc,start     ] GC(1) Pause Remark
[2022-05-31T11:05:47.313+0530][gc,stringtable] GC(1) Cleaned string and symbol table, strings: 7279 processed, 0 removed, symbols: 64116 processed, 31 removed
[2022-05-31T11:05:47.313+0530][gc            ] GC(1) Pause Remark 7M->7M(1024M) 9.046ms
[2022-05-31T11:05:47.314+0530][gc,cpu        ] GC(1) User=0.02s Sys=0.00s Real=0.01s
[2022-05-31T11:05:47.314+0530][gc,marking    ] GC(1) Concurrent Rebuild Remembered Sets
[2022-05-31T11:05:47.314+0530][gc,marking    ] GC(1) Concurrent Rebuild Remembered Sets 0.359ms
[2022-05-31T11:05:47.316+0530][gc,start      ] GC(1) Pause Cleanup
[2022-05-31T11:05:47.317+0530][gc            ] GC(1) Pause Cleanup 7M->7M(1024M) 1.590ms
[2022-05-31T11:05:47.317+0530][gc,cpu        ] GC(1) User=0.00s Sys=0.00s Real=0.00s
[2022-05-31T11:05:47.318+0530][gc,marking    ] GC(1) Concurrent Cleanup for Next Mark
[2022-05-31T11:05:47.340+0530][gc,marking    ] GC(1) Concurrent Cleanup for Next Mark 22.633ms
[2022-05-31T11:05:47.341+0530][gc            ] GC(1) Concurrent Cycle 46.150ms
[2022-05-31T11:05:51.918+0530][gc,start      ] GC(2) Pause Young (Normal) (G1 Evacuation Pause)
[2022-05-31T11:05:51.918+0530][gc,task       ] GC(2) Using 4 workers of 4 for evacuation
[2022-05-31T11:05:51.992+0530][gc,mmu        ] GC(2) MMU target violated: 21.0ms (20.0ms/21.0ms)
[2022-05-31T11:05:51.992+0530][gc,phases     ] GC(2)   Pre Evacuate Collection Set: 0.1ms
[2022-05-31T11:05:51.992+0530][gc,phases     ] GC(2)   Evacuate Collection Set: 70.4ms
[2022-05-31T11:05:51.992+0530][gc,phases     ] GC(2)   Post Evacuate Collection Set: 2.3ms
[2022-05-31T11:05:51.992+0530][gc,phases     ] GC(2)   Other: 0.8ms
[2022-05-31T11:05:51.992+0530][gc,heap       ] GC(2) Eden regions: 44->0(49)
[2022-05-31T11:05:51.992+0530][gc,heap       ] GC(2) Survivor regions: 7->2(7)
[2022-05-31T11:05:51.992+0530][gc,heap       ] GC(2) Old regions: 0->7
[2022-05-31T11:05:51.992+0530][gc,heap       ] GC(2) Humongous regions: 0->0
[2022-05-31T11:05:51.992+0530][gc,metaspace  ] GC(2) Metaspace: 30751K->30751K(1077248K)
[2022-05-31T11:05:51.992+0530][gc            ] GC(2) Pause Young (Normal) (G1 Evacuation Pause) 50M->8M(1024M) 73.979ms
[2022-05-31T11:05:51.992+0530][gc,cpu        ] GC(2) User=0.11s Sys=0.03s Real=0.08s
[2022-05-31T11:05:59.622+0530][gc,start      ] GC(3) Pause Young (Concurrent Start) (Metadata GC Threshold)
[2022-05-31T11:05:59.622+0530][gc,task       ] GC(3) Using 4 workers of 4 for evacuation
[2022-05-31T11:05:59.629+0530][gc,phases     ] GC(3)   Pre Evacuate Collection Set: 0.2ms
[2022-05-31T11:05:59.629+0530][gc,phases     ] GC(3)   Evacuate Collection Set: 5.5ms
[2022-05-31T11:05:59.629+0530][gc,phases     ] GC(3)   Post Evacuate Collection Set: 0.9ms
[2022-05-31T11:05:59.629+0530][gc,phases     ] GC(3)   Other: 0.6ms
[2022-05-31T11:05:59.629+0530][gc,heap       ] GC(3) Eden regions: 28->0(47)
[2022-05-31T11:05:59.629+0530][gc,heap       ] GC(3) Survivor regions: 2->4(7)
[2022-05-31T11:05:59.629+0530][gc,heap       ] GC(3) Old regions: 7->7
[2022-05-31T11:05:59.629+0530][gc,heap       ] GC(3) Humongous regions: 129->129
[2022-05-31T11:05:59.629+0530][gc,metaspace  ] GC(3) Metaspace: 34817K->34817K(1081344K)
[2022-05-31T11:05:59.629+0530][gc            ] GC(3) Pause Young (Concurrent Start) (Metadata GC Threshold) 164M->138M(1024M) 7.555ms
[2022-05-31T11:05:59.629+0530][gc,cpu        ] GC(3) User=0.02s Sys=0.00s Real=0.01s
[2022-05-31T11:05:59.629+0530][gc            ] GC(4) Concurrent Cycle
[2022-05-31T11:05:59.630+0530][gc,marking    ] GC(4) Concurrent Clear Claimed Marks
[2022-05-31T11:05:59.630+0530][gc,marking    ] GC(4) Concurrent Clear Claimed Marks 0.174ms
[2022-05-31T11:05:59.630+0530][gc,marking    ] GC(4) Concurrent Scan Root Regions
[2022-05-31T11:05:59.635+0530][gc,marking    ] GC(4) Concurrent Scan Root Regions 5.276ms
[2022-05-31T11:05:59.635+0530][gc,marking    ] GC(4) Concurrent Mark (16.205s)
[2022-05-31T11:05:59.635+0530][gc,marking    ] GC(4) Concurrent Mark From Roots
[2022-05-31T11:05:59.635+0530][gc,task       ] GC(4) Using 1 workers of 1 for marking
[2022-05-31T11:05:59.663+0530][gc,marking    ] GC(4) Concurrent Mark From Roots 27.779ms
[2022-05-31T11:05:59.663+0530][gc,marking    ] GC(4) Concurrent Preclean
[2022-05-31T11:05:59.664+0530][gc,marking    ] GC(4) Concurrent Preclean 0.449ms
[2022-05-31T11:05:59.664+0530][gc,marking    ] GC(4) Concurrent Mark (16.205s, 16.233s) 28.431ms
[2022-05-31T11:05:59.664+0530][gc,start      ] GC(4) Pause Remark
[2022-05-31T11:05:59.675+0530][gc,stringtable] GC(4) Cleaned string and symbol table, strings: 10779 processed, 9 removed, symbols: 95645 processed, 23 removed
[2022-05-31T11:05:59.676+0530][gc            ] GC(4) Pause Remark 140M->140M(1024M) 11.303ms
[2022-05-31T11:05:59.676+0530][gc,cpu        ] GC(4) User=0.03s Sys=0.00s Real=0.01s
[2022-05-31T11:05:59.676+0530][gc,marking    ] GC(4) Concurrent Rebuild Remembered Sets
[2022-05-31T11:05:59.686+0530][gc,marking    ] GC(4) Concurrent Rebuild Remembered Sets 10.523ms
[2022-05-31T11:05:59.687+0530][gc,start      ] GC(4) Pause Cleanup
[2022-05-31T11:05:59.687+0530][gc            ] GC(4) Pause Cleanup 140M->140M(1024M) 0.579ms
[2022-05-31T11:05:59.687+0530][gc,cpu        ] GC(4) User=0.00s Sys=0.00s Real=0.00s
[2022-05-31T11:05:59.688+0530][gc,marking    ] GC(4) Concurrent Cleanup for Next Mark
[2022-05-31T11:05:59.703+0530][gc,marking    ] GC(4) Concurrent Cleanup for Next Mark 15.245ms
[2022-05-31T11:05:59.703+0530][gc            ] GC(4) Concurrent Cycle 73.686ms
[2022-05-31T11:06:01.994+0530][gc,start      ] GC(5) Pause Young (Normal) (G1 Evacuation Pause)
[2022-05-31T11:06:01.994+0530][gc,task       ] GC(5) Using 4 workers of 4 for evacuation
[2022-05-31T11:06:02.029+0530][gc,mmu        ] GC(5) MMU target violated: 21.0ms (20.0ms/21.0ms)
[2022-05-31T11:06:02.029+0530][gc,phases     ] GC(5)   Pre Evacuate Collection Set: 0.2ms
[2022-05-31T11:06:02.029+0530][gc,phases     ] GC(5)   Evacuate Collection Set: 31.5ms
[2022-05-31T11:06:02.030+0530][gc,phases     ] GC(5)   Post Evacuate Collection Set: 2.3ms
[2022-05-31T11:06:02.030+0530][gc,phases     ] GC(5)   Other: 1.5ms
[2022-05-31T11:06:02.030+0530][gc,heap       ] GC(5) Eden regions: 47->0(44)
[2022-05-31T11:06:02.030+0530][gc,heap       ] GC(5) Survivor regions: 4->7(7)
[2022-05-31T11:06:02.030+0530][gc,heap       ] GC(5) Old regions: 7->7
[2022-05-31T11:06:02.030+0530][gc,heap       ] GC(5) Humongous regions: 129->129
[2022-05-31T11:06:02.030+0530][gc,metaspace  ] GC(5) Metaspace: 43047K->43047K(1089536K)
[2022-05-31T11:06:02.030+0530][gc            ] GC(5) Pause Young (Normal) (G1 Evacuation Pause) 185M->142M(1024M) 35.730ms
[2022-05-31T11:06:02.030+0530][gc,cpu        ] GC(5) User=0.07s Sys=0.01s Real=0.04s
[2022-05-31T11:15:14.408+0530][gc,start      ] GC(6) Pause Young (Normal) (G1 Evacuation Pause)
[2022-05-31T11:15:14.409+0530][gc,task       ] GC(6) Using 4 workers of 4 for evacuation
[2022-05-31T11:15:14.441+0530][gc,mmu        ] GC(6) MMU target violated: 21.0ms (20.0ms/21.0ms)
[2022-05-31T11:15:14.441+0530][gc,phases     ] GC(6)   Pre Evacuate Collection Set: 0.2ms
[2022-05-31T11:15:14.441+0530][gc,phases     ] GC(6)   Evacuate Collection Set: 29.9ms
[2022-05-31T11:15:14.442+0530][gc,phases     ] GC(6)   Post Evacuate Collection Set: 1.7ms
[2022-05-31T11:15:14.442+0530][gc,phases     ] GC(6)   Other: 1.4ms
[2022-05-31T11:15:14.442+0530][gc,heap       ] GC(6) Eden regions: 44->0(49)
[2022-05-31T11:15:14.442+0530][gc,heap       ] GC(6) Survivor regions: 7->2(7)
[2022-05-31T11:15:14.442+0530][gc,heap       ] GC(6) Old regions: 7->13
[2022-05-31T11:15:14.442+0530][gc,heap       ] GC(6) Humongous regions: 183->129
[2022-05-31T11:15:14.442+0530][gc,metaspace  ] GC(6) Metaspace: 48553K->48553K(1093632K)
[2022-05-31T11:15:14.442+0530][gc            ] GC(6) Pause Young (Normal) (G1 Evacuation Pause) 240M->143M(1024M) 33.665ms
[2022-05-31T11:15:14.442+0530][gc,cpu        ] GC(6) User=0.06s Sys=0.05s Real=0.04s
[2022-05-31T11:52:28.883+0530][gc,start      ] GC(7) Pause Young (Normal) (G1 Evacuation Pause)
[2022-05-31T11:52:28.910+0530][gc,task       ] GC(7) Using 4 workers of 4 for evacuation
[2022-05-31T11:52:28.938+0530][gc,mmu        ] GC(7) MMU target violated: 21.0ms (20.0ms/21.0ms)
[2022-05-31T11:52:28.938+0530][gc,phases     ] GC(7)   Pre Evacuate Collection Set: 0.1ms
[2022-05-31T11:52:28.938+0530][gc,phases     ] GC(7)   Evacuate Collection Set: 23.9ms
[2022-05-31T11:52:28.938+0530][gc,phases     ] GC(7)   Post Evacuate Collection Set: 2.7ms
[2022-05-31T11:52:28.939+0530][gc,phases     ] GC(7)   Other: 28.2ms
[2022-05-31T11:52:28.939+0530][gc,heap       ] GC(7) Eden regions: 49->0(49)
[2022-05-31T11:52:28.939+0530][gc,heap       ] GC(7) Survivor regions: 2->2(7)
[2022-05-31T11:52:28.939+0530][gc,heap       ] GC(7) Old regions: 13->13
[2022-05-31T11:52:28.939+0530][gc,heap       ] GC(7) Humongous regions: 129->129
[2022-05-31T11:52:28.939+0530][gc,metaspace  ] GC(7) Metaspace: 48975K->48975K(1093632K)
[2022-05-31T11:52:28.940+0530][gc            ] GC(7) Pause Young (Normal) (G1 Evacuation Pause) 192M->143M(1024M) 56.536ms
[2022-05-31T11:52:28.940+0530][gc,cpu        ] GC(7) User=0.09s Sys=0.00s Real=0.06s
[2022-05-31T12:21:09.771+0530][gc,heap,exit  ] Heap
[2022-05-31T12:21:09.771+0530][gc,heap,exit  ]  garbage-first heap   total 1048576K, used 192296K [0x00000000c0000000, 0x0000000100000000)
[2022-05-31T12:21:09.771+0530][gc,heap,exit  ]   region size 1024K, 48 young (49152K), 2 survivors (2048K)
[2022-05-31T12:21:09.771+0530][gc,heap,exit  ]  Metaspace       used 49918K, capacity 52290K, committed 52528K, reserved 1095680K
[2022-05-31T12:21:09.772+0530][gc,heap,exit  ]   class space    used 6087K, capacity 7279K, committed 7296K, reserved 1048576K
