[2022-05-30T12:06:05.808+0530][gc,heap] Heap region size: 1M
[2022-05-30T12:06:05.835+0530][gc     ] Using G1
[2022-05-30T12:06:05.835+0530][gc,heap,coops] Heap address: 0x00000000c0000000, size: 1024 MB, Compressed Oops mode: 32-bit
[2022-05-30T12:06:12.744+0530][gc,start     ] GC(0) Pause Young (Concurrent Start) (Metadata GC Threshold)
[2022-05-30T12:06:12.744+0530][gc,task      ] GC(0) Using 4 workers of 4 for evacuation
[2022-05-30T12:06:12.772+0530][gc,mmu       ] GC(0) MMU target violated: 21.0ms (20.0ms/21.0ms)
[2022-05-30T12:06:12.772+0530][gc,phases    ] GC(0)   Pre Evacuate Collection Set: 0.1ms
[2022-05-30T12:06:12.773+0530][gc,phases    ] GC(0)   Evacuate Collection Set: 25.6ms
[2022-05-30T12:06:12.773+0530][gc,phases    ] GC(0)   Post Evacuate Collection Set: 1.4ms
[2022-05-30T12:06:12.773+0530][gc,phases    ] GC(0)   Other: 1.7ms
[2022-05-30T12:06:12.773+0530][gc,heap      ] GC(0) Eden regions: 44->0(44)
[2022-05-30T12:06:12.773+0530][gc,heap      ] GC(0) Survivor regions: 0->7(7)
[2022-05-30T12:06:12.773+0530][gc,heap      ] GC(0) Old regions: 0->0
[2022-05-30T12:06:12.773+0530][gc,heap      ] GC(0) Humongous regions: 0->0
[2022-05-30T12:06:12.773+0530][gc,metaspace ] GC(0) Metaspace: 20850K->20850K(1069056K)
[2022-05-30T12:06:12.773+0530][gc           ] GC(0) Pause Young (Concurrent Start) (Metadata GC Threshold) 43M->6M(1024M) 29.197ms
[2022-05-30T12:06:12.773+0530][gc,cpu       ] GC(0) User=0.04s Sys=0.01s Real=0.03s
[2022-05-30T12:06:12.773+0530][gc           ] GC(1) Concurrent Cycle
[2022-05-30T12:06:12.773+0530][gc,marking   ] GC(1) Concurrent Clear Claimed Marks
[2022-05-30T12:06:12.773+0530][gc,marking   ] GC(1) Concurrent Clear Claimed Marks 0.073ms
[2022-05-30T12:06:12.773+0530][gc,marking   ] GC(1) Concurrent Scan Root Regions
[2022-05-30T12:06:12.780+0530][gc,marking   ] GC(1) Concurrent Scan Root Regions 7.043ms
[2022-05-30T12:06:12.780+0530][gc,marking   ] GC(1) Concurrent Mark (6.993s)
[2022-05-30T12:06:12.781+0530][gc,marking   ] GC(1) Concurrent Mark From Roots
[2022-05-30T12:06:12.781+0530][gc,task      ] GC(1) Using 1 workers of 1 for marking
[2022-05-30T12:06:12.782+0530][gc,marking   ] GC(1) Concurrent Mark From Roots 1.511ms
[2022-05-30T12:06:12.782+0530][gc,marking   ] GC(1) Concurrent Preclean
[2022-05-30T12:06:12.782+0530][gc,marking   ] GC(1) Concurrent Preclean 0.176ms
[2022-05-30T12:06:12.783+0530][gc,marking   ] GC(1) Concurrent Mark (6.993s, 6.995s) 2.105ms
[2022-05-30T12:06:12.785+0530][gc,start     ] GC(1) Pause Remark
[2022-05-30T12:06:12.794+0530][gc,stringtable] GC(1) Cleaned string and symbol table, strings: 7283 processed, 0 removed, symbols: 64116 processed, 31 removed
[2022-05-30T12:06:12.794+0530][gc            ] GC(1) Pause Remark 7M->7M(1024M) 8.872ms
[2022-05-30T12:06:12.794+0530][gc,cpu        ] GC(1) User=0.02s Sys=0.00s Real=0.01s
[2022-05-30T12:06:12.794+0530][gc,marking    ] GC(1) Concurrent Rebuild Remembered Sets
[2022-05-30T12:06:12.795+0530][gc,marking    ] GC(1) Concurrent Rebuild Remembered Sets 0.489ms
[2022-05-30T12:06:12.796+0530][gc,start      ] GC(1) Pause Cleanup
[2022-05-30T12:06:12.797+0530][gc            ] GC(1) Pause Cleanup 7M->7M(1024M) 0.629ms
[2022-05-30T12:06:12.797+0530][gc,cpu        ] GC(1) User=0.00s Sys=0.00s Real=0.00s
[2022-05-30T12:06:12.797+0530][gc,marking    ] GC(1) Concurrent Cleanup for Next Mark
[2022-05-30T12:06:12.818+0530][gc,marking    ] GC(1) Concurrent Cleanup for Next Mark 21.025ms
[2022-05-30T12:06:12.818+0530][gc            ] GC(1) Concurrent Cycle 45.286ms
[2022-05-30T12:06:16.478+0530][gc,start      ] GC(2) Pause Young (Normal) (G1 Evacuation Pause)
[2022-05-30T12:06:16.478+0530][gc,task       ] GC(2) Using 4 workers of 4 for evacuation
[2022-05-30T12:06:16.540+0530][gc,mmu        ] GC(2) MMU target violated: 21.0ms (20.0ms/21.0ms)
[2022-05-30T12:06:16.540+0530][gc,phases     ] GC(2)   Pre Evacuate Collection Set: 0.1ms
[2022-05-30T12:06:16.540+0530][gc,phases     ] GC(2)   Evacuate Collection Set: 57.3ms
[2022-05-30T12:06:16.540+0530][gc,phases     ] GC(2)   Post Evacuate Collection Set: 3.8ms
[2022-05-30T12:06:16.540+0530][gc,phases     ] GC(2)   Other: 0.8ms
[2022-05-30T12:06:16.540+0530][gc,heap       ] GC(2) Eden regions: 44->0(49)
[2022-05-30T12:06:16.540+0530][gc,heap       ] GC(2) Survivor regions: 7->2(7)
[2022-05-30T12:06:16.540+0530][gc,heap       ] GC(2) Old regions: 0->7
[2022-05-30T12:06:16.540+0530][gc,heap       ] GC(2) Humongous regions: 0->0
[2022-05-30T12:06:16.540+0530][gc,metaspace  ] GC(2) Metaspace: 30586K->30586K(1077248K)
[2022-05-30T12:06:16.540+0530][gc            ] GC(2) Pause Young (Normal) (G1 Evacuation Pause) 50M->8M(1024M) 62.285ms
[2022-05-30T12:06:16.541+0530][gc,cpu        ] GC(2) User=0.09s Sys=0.02s Real=0.06s
[2022-05-30T12:06:19.653+0530][gc,start      ] GC(3) Pause Young (Concurrent Start) (Metadata GC Threshold)
[2022-05-30T12:06:19.654+0530][gc,task       ] GC(3) Using 4 workers of 4 for evacuation
[2022-05-30T12:06:19.667+0530][gc,phases     ] GC(3)   Pre Evacuate Collection Set: 0.3ms
[2022-05-30T12:06:19.667+0530][gc,phases     ] GC(3)   Evacuate Collection Set: 11.3ms
[2022-05-30T12:06:19.667+0530][gc,phases     ] GC(3)   Post Evacuate Collection Set: 1.1ms
[2022-05-30T12:06:19.667+0530][gc,phases     ] GC(3)   Other: 1.0ms
[2022-05-30T12:06:19.667+0530][gc,heap       ] GC(3) Eden regions: 26->0(48)
[2022-05-30T12:06:19.667+0530][gc,heap       ] GC(3) Survivor regions: 2->3(7)
[2022-05-30T12:06:19.667+0530][gc,heap       ] GC(3) Old regions: 7->7
[2022-05-30T12:06:19.667+0530][gc,heap       ] GC(3) Humongous regions: 129->129
[2022-05-30T12:06:19.667+0530][gc,metaspace  ] GC(3) Metaspace: 34875K->34875K(1081344K)
[2022-05-30T12:06:19.667+0530][gc            ] GC(3) Pause Young (Concurrent Start) (Metadata GC Threshold) 163M->138M(1024M) 14.031ms
[2022-05-30T12:06:19.668+0530][gc,cpu        ] GC(3) User=0.03s Sys=0.00s Real=0.01s
[2022-05-30T12:06:19.668+0530][gc            ] GC(4) Concurrent Cycle
[2022-05-30T12:06:19.668+0530][gc,marking    ] GC(4) Concurrent Clear Claimed Marks
[2022-05-30T12:06:19.668+0530][gc,marking    ] GC(4) Concurrent Clear Claimed Marks 0.201ms
[2022-05-30T12:06:19.668+0530][gc,marking    ] GC(4) Concurrent Scan Root Regions
[2022-05-30T12:06:19.674+0530][gc,marking    ] GC(4) Concurrent Scan Root Regions 5.734ms
[2022-05-30T12:06:19.674+0530][gc,marking    ] GC(4) Concurrent Mark (13.887s)
[2022-05-30T12:06:19.674+0530][gc,marking    ] GC(4) Concurrent Mark From Roots
[2022-05-30T12:06:19.674+0530][gc,task       ] GC(4) Using 1 workers of 1 for marking
[2022-05-30T12:06:19.692+0530][gc,marking    ] GC(4) Concurrent Mark From Roots 18.072ms
[2022-05-30T12:06:19.692+0530][gc,marking    ] GC(4) Concurrent Preclean
[2022-05-30T12:06:19.693+0530][gc,marking    ] GC(4) Concurrent Preclean 0.241ms
[2022-05-30T12:06:19.693+0530][gc,marking    ] GC(4) Concurrent Mark (13.887s, 13.906s) 18.657ms
[2022-05-30T12:06:19.693+0530][gc,start      ] GC(4) Pause Remark
[2022-05-30T12:06:19.704+0530][gc,stringtable] GC(4) Cleaned string and symbol table, strings: 10833 processed, 9 removed, symbols: 95887 processed, 23 removed
[2022-05-30T12:06:19.704+0530][gc            ] GC(4) Pause Remark 140M->140M(1024M) 11.217ms
[2022-05-30T12:06:19.704+0530][gc,cpu        ] GC(4) User=0.03s Sys=0.01s Real=0.01s
[2022-05-30T12:06:19.705+0530][gc,marking    ] GC(4) Concurrent Rebuild Remembered Sets
[2022-05-30T12:06:19.716+0530][gc,marking    ] GC(4) Concurrent Rebuild Remembered Sets 11.713ms
[2022-05-30T12:06:19.717+0530][gc,start      ] GC(4) Pause Cleanup
[2022-05-30T12:06:19.718+0530][gc            ] GC(4) Pause Cleanup 140M->140M(1024M) 0.703ms
[2022-05-30T12:06:19.718+0530][gc,cpu        ] GC(4) User=0.01s Sys=0.00s Real=0.00s
[2022-05-30T12:06:19.718+0530][gc,marking    ] GC(4) Concurrent Cleanup for Next Mark
[2022-05-30T12:06:19.752+0530][gc,marking    ] GC(4) Concurrent Cleanup for Next Mark 34.002ms
[2022-05-30T12:06:19.752+0530][gc            ] GC(4) Concurrent Cycle 84.615ms
[2022-05-30T12:06:22.666+0530][gc,start      ] GC(5) Pause Young (Normal) (G1 Evacuation Pause)
[2022-05-30T12:06:22.667+0530][gc,task       ] GC(5) Using 4 workers of 4 for evacuation
[2022-05-30T12:06:22.697+0530][gc,mmu        ] GC(5) MMU target violated: 21.0ms (20.0ms/21.0ms)
[2022-05-30T12:06:22.698+0530][gc,phases     ] GC(5)   Pre Evacuate Collection Set: 0.1ms
[2022-05-30T12:06:22.698+0530][gc,phases     ] GC(5)   Evacuate Collection Set: 29.0ms
[2022-05-30T12:06:22.698+0530][gc,phases     ] GC(5)   Post Evacuate Collection Set: 1.3ms
[2022-05-30T12:06:22.698+0530][gc,phases     ] GC(5)   Other: 0.7ms
[2022-05-30T12:06:22.698+0530][gc,heap       ] GC(5) Eden regions: 48->0(44)
[2022-05-30T12:06:22.698+0530][gc,heap       ] GC(5) Survivor regions: 3->7(7)
[2022-05-30T12:06:22.698+0530][gc,heap       ] GC(5) Old regions: 7->7
[2022-05-30T12:06:22.698+0530][gc,heap       ] GC(5) Humongous regions: 129->129
[2022-05-30T12:06:22.698+0530][gc,metaspace  ] GC(5) Metaspace: 43530K->43530K(1089536K)
[2022-05-30T12:06:22.698+0530][gc            ] GC(5) Pause Young (Normal) (G1 Evacuation Pause) 186M->142M(1024M) 31.480ms
[2022-05-30T12:06:22.698+0530][gc,cpu        ] GC(5) User=0.05s Sys=0.01s Real=0.03s
[2022-05-30T12:11:38.050+0530][gc,start      ] GC(6) Pause Young (Normal) (G1 Evacuation Pause)
[2022-05-30T12:11:38.071+0530][gc,task       ] GC(6) Using 4 workers of 4 for evacuation
[2022-05-30T12:11:38.161+0530][gc,mmu        ] GC(6) MMU target violated: 21.0ms (20.0ms/21.0ms)
[2022-05-30T12:11:38.161+0530][gc,phases     ] GC(6)   Pre Evacuate Collection Set: 14.4ms
[2022-05-30T12:11:38.162+0530][gc,phases     ] GC(6)   Evacuate Collection Set: 71.6ms
[2022-05-30T12:11:38.162+0530][gc,phases     ] GC(6)   Post Evacuate Collection Set: 3.1ms
[2022-05-30T12:11:38.162+0530][gc,phases     ] GC(6)   Other: 23.3ms
[2022-05-30T12:11:38.162+0530][gc,heap       ] GC(6) Eden regions: 44->0(48)
[2022-05-30T12:11:38.162+0530][gc,heap       ] GC(6) Survivor regions: 7->3(7)
[2022-05-30T12:11:38.162+0530][gc,heap       ] GC(6) Old regions: 7->14
[2022-05-30T12:11:38.162+0530][gc,heap       ] GC(6) Humongous regions: 135->129
[2022-05-30T12:11:38.162+0530][gc,metaspace  ] GC(6) Metaspace: 49969K->49969K(1093632K)
[2022-05-30T12:11:38.162+0530][gc            ] GC(6) Pause Young (Normal) (G1 Evacuation Pause) 192M->144M(1024M) 112.239ms
[2022-05-30T12:11:38.162+0530][gc,cpu        ] GC(6) User=0.08s Sys=0.06s Real=0.12s
[2022-05-30T12:24:54.639+0530][gc,start      ] GC(7) Pause Young (Normal) (G1 Evacuation Pause)
[2022-05-30T12:24:56.963+0530][gc,task       ] GC(7) Using 4 workers of 4 for evacuation
[2022-05-30T12:25:05.817+0530][gc,mmu        ] GC(7) MMU target violated: 21.0ms (20.0ms/21.0ms)
[2022-05-30T12:25:05.817+0530][gc,phases     ] GC(7)   Pre Evacuate Collection Set: 48.2ms
[2022-05-30T12:25:05.818+0530][gc,phases     ] GC(7)   Evacuate Collection Set: 8582.0ms
[2022-05-30T12:25:05.818+0530][gc,phases     ] GC(7)   Post Evacuate Collection Set: 189.2ms
[2022-05-30T12:25:05.818+0530][gc,phases     ] GC(7)   Other: 2424.5ms
[2022-05-30T12:25:05.818+0530][gc,heap       ] GC(7) Eden regions: 48->0(46)
[2022-05-30T12:25:05.818+0530][gc,heap       ] GC(7) Survivor regions: 3->5(7)
[2022-05-30T12:25:05.818+0530][gc,heap       ] GC(7) Old regions: 14->14
[2022-05-30T12:25:05.819+0530][gc,heap       ] GC(7) Humongous regions: 129->129
[2022-05-30T12:25:05.819+0530][gc,metaspace  ] GC(7) Metaspace: 52053K->52053K(1095680K)
[2022-05-30T12:25:05.884+0530][gc            ] GC(7) Pause Young (Normal) (G1 Evacuation Pause) 192M->146M(1024M) 11244.192ms
[2022-05-30T12:25:05.884+0530][gc,cpu        ] GC(7) User=3.62s Sys=0.24s Real=11.25s
[2022-05-30T12:38:27.954+0530][gc,start      ] GC(8) Pause Young (Normal) (G1 Evacuation Pause)
[2022-05-30T12:38:27.989+0530][gc,task       ] GC(8) Using 4 workers of 4 for evacuation
[2022-05-30T12:38:28.097+0530][gc,mmu        ] GC(8) MMU target violated: 21.0ms (20.0ms/21.0ms)
[2022-05-30T12:38:28.097+0530][gc,phases     ] GC(8)   Pre Evacuate Collection Set: 0.3ms
[2022-05-30T12:38:28.097+0530][gc,phases     ] GC(8)   Evacuate Collection Set: 105.0ms
[2022-05-30T12:38:28.097+0530][gc,phases     ] GC(8)   Post Evacuate Collection Set: 1.8ms
[2022-05-30T12:38:28.097+0530][gc,phases     ] GC(8)   Other: 36.1ms
[2022-05-30T12:38:28.097+0530][gc,heap       ] GC(8) Eden regions: 46->0(47)
[2022-05-30T12:38:28.097+0530][gc,heap       ] GC(8) Survivor regions: 5->4(7)
[2022-05-30T12:38:28.097+0530][gc,heap       ] GC(8) Old regions: 14->15
[2022-05-30T12:38:28.097+0530][gc,heap       ] GC(8) Humongous regions: 129->129
[2022-05-30T12:38:28.097+0530][gc,metaspace  ] GC(8) Metaspace: 52459K->52459K(1097728K)
[2022-05-30T12:38:28.097+0530][gc            ] GC(8) Pause Young (Normal) (G1 Evacuation Pause) 192M->147M(1024M) 143.447ms
[2022-05-30T12:38:28.097+0530][gc,cpu        ] GC(8) User=0.12s Sys=0.05s Real=0.14s
[2022-05-30T12:53:55.034+0530][gc,start      ] GC(9) Pause Young (Normal) (G1 Evacuation Pause)
[2022-05-30T12:53:55.074+0530][gc,task       ] GC(9) Using 4 workers of 4 for evacuation
[2022-05-30T12:53:55.943+0530][gc,mmu        ] GC(9) MMU target violated: 21.0ms (20.0ms/21.0ms)
[2022-05-30T12:53:55.943+0530][gc,phases     ] GC(9)   Pre Evacuate Collection Set: 103.1ms
[2022-05-30T12:53:55.943+0530][gc,phases     ] GC(9)   Evacuate Collection Set: 711.4ms
[2022-05-30T12:53:55.943+0530][gc,phases     ] GC(9)   Post Evacuate Collection Set: 12.5ms
[2022-05-30T12:53:55.943+0530][gc,phases     ] GC(9)   Other: 114.3ms
[2022-05-30T12:53:55.943+0530][gc,heap       ] GC(9) Eden regions: 47->0(47)
[2022-05-30T12:53:55.943+0530][gc,heap       ] GC(9) Survivor regions: 4->4(7)
[2022-05-30T12:53:55.943+0530][gc,heap       ] GC(9) Old regions: 15->15
[2022-05-30T12:53:55.943+0530][gc,heap       ] GC(9) Humongous regions: 129->129
[2022-05-30T12:53:55.943+0530][gc,metaspace  ] GC(9) Metaspace: 52532K->52532K(1097728K)
[2022-05-30T12:53:55.944+0530][gc            ] GC(9) Pause Young (Normal) (G1 Evacuation Pause) 194M->147M(1024M) 909.534ms
[2022-05-30T12:53:55.944+0530][gc,cpu        ] GC(9) User=0.13s Sys=0.14s Real=0.91s
[2022-05-30T13:08:15.603+0530][gc,start      ] GC(10) Pause Young (Normal) (G1 Evacuation Pause)
[2022-05-30T13:08:15.637+0530][gc,task       ] GC(10) Using 4 workers of 4 for evacuation
[2022-05-30T13:08:16.376+0530][gc,mmu        ] GC(10) MMU target violated: 21.0ms (20.0ms/21.0ms)
[2022-05-30T13:08:16.376+0530][gc,phases     ] GC(10)   Pre Evacuate Collection Set: 23.9ms
[2022-05-30T13:08:16.376+0530][gc,phases     ] GC(10)   Evacuate Collection Set: 712.1ms
[2022-05-30T13:08:16.376+0530][gc,phases     ] GC(10)   Post Evacuate Collection Set: 2.3ms
[2022-05-30T13:08:16.376+0530][gc,phases     ] GC(10)   Other: 34.8ms
[2022-05-30T13:08:16.376+0530][gc,heap       ] GC(10) Eden regions: 47->0(48)
[2022-05-30T13:08:16.376+0530][gc,heap       ] GC(10) Survivor regions: 4->3(7)
[2022-05-30T13:08:16.376+0530][gc,heap       ] GC(10) Old regions: 15->15
[2022-05-30T13:08:16.376+0530][gc,heap       ] GC(10) Humongous regions: 129->129
[2022-05-30T13:08:16.376+0530][gc,metaspace  ] GC(10) Metaspace: 52670K->52670K(1097728K)
[2022-05-30T13:08:16.420+0530][gc            ] GC(10) Pause Young (Normal) (G1 Evacuation Pause) 194M->146M(1024M) 773.388ms
[2022-05-30T13:08:16.421+0530][gc,cpu        ] GC(10) User=0.16s Sys=0.04s Real=0.81s
[2022-05-30T13:24:20.790+0530][gc,start      ] GC(11) Pause Young (Normal) (G1 Evacuation Pause)
[2022-05-30T13:24:20.850+0530][gc,task       ] GC(11) Using 4 workers of 4 for evacuation
[2022-05-30T13:24:20.885+0530][gc,mmu        ] GC(11) MMU target violated: 21.0ms (20.0ms/21.0ms)
[2022-05-30T13:24:20.885+0530][gc,phases     ] GC(11)   Pre Evacuate Collection Set: 0.2ms
[2022-05-30T13:24:20.885+0530][gc,phases     ] GC(11)   Evacuate Collection Set: 32.4ms
[2022-05-30T13:24:20.885+0530][gc,phases     ] GC(11)   Post Evacuate Collection Set: 2.3ms
[2022-05-30T13:24:20.885+0530][gc,phases     ] GC(11)   Other: 60.4ms
[2022-05-30T13:24:20.885+0530][gc,heap       ] GC(11) Eden regions: 48->0(48)
[2022-05-30T13:24:20.885+0530][gc,heap       ] GC(11) Survivor regions: 3->3(7)
[2022-05-30T13:24:20.885+0530][gc,heap       ] GC(11) Old regions: 15->15
[2022-05-30T13:24:20.885+0530][gc,heap       ] GC(11) Humongous regions: 129->129
[2022-05-30T13:24:20.885+0530][gc,metaspace  ] GC(11) Metaspace: 52702K->52702K(1097728K)
[2022-05-30T13:24:20.886+0530][gc            ] GC(11) Pause Young (Normal) (G1 Evacuation Pause) 194M->146M(1024M) 95.496ms
[2022-05-30T13:24:20.886+0530][gc,cpu        ] GC(11) User=0.09s Sys=0.00s Real=0.10s
[2022-05-30T13:40:17.614+0530][gc,start      ] GC(12) Pause Young (Normal) (G1 Evacuation Pause)
[2022-05-30T13:40:17.634+0530][gc,task       ] GC(12) Using 4 workers of 4 for evacuation
[2022-05-30T13:40:17.769+0530][gc,mmu        ] GC(12) MMU target violated: 21.0ms (20.0ms/21.0ms)
[2022-05-30T13:40:17.769+0530][gc,phases     ] GC(12)   Pre Evacuate Collection Set: 0.2ms
[2022-05-30T13:40:17.769+0530][gc,phases     ] GC(12)   Evacuate Collection Set: 131.6ms
[2022-05-30T13:40:17.770+0530][gc,phases     ] GC(12)   Post Evacuate Collection Set: 2.2ms
[2022-05-30T13:40:17.770+0530][gc,phases     ] GC(12)   Other: 21.6ms
[2022-05-30T13:40:17.770+0530][gc,heap       ] GC(12) Eden regions: 48->0(48)
[2022-05-30T13:40:17.770+0530][gc,heap       ] GC(12) Survivor regions: 3->3(7)
[2022-05-30T13:40:17.770+0530][gc,heap       ] GC(12) Old regions: 15->15
[2022-05-30T13:40:17.770+0530][gc,heap       ] GC(12) Humongous regions: 129->129
[2022-05-30T13:40:17.770+0530][gc,metaspace  ] GC(12) Metaspace: 52705K->52705K(1097728K)
[2022-05-30T13:40:17.770+0530][gc            ] GC(12) Pause Young (Normal) (G1 Evacuation Pause) 194M->146M(1024M) 156.701ms
[2022-05-30T13:40:17.771+0530][gc,cpu        ] GC(12) User=0.03s Sys=0.01s Real=0.15s
[2022-05-30T13:56:17.350+0530][gc,start      ] GC(13) Pause Young (Normal) (G1 Evacuation Pause)
[2022-05-30T13:56:17.468+0530][gc,task       ] GC(13) Using 4 workers of 4 for evacuation
[2022-05-30T13:56:17.633+0530][gc,mmu        ] GC(13) MMU target violated: 21.0ms (20.0ms/21.0ms)
[2022-05-30T13:56:17.653+0530][gc,phases     ] GC(13)   Pre Evacuate Collection Set: 3.3ms
[2022-05-30T13:56:17.653+0530][gc,phases     ] GC(13)   Evacuate Collection Set: 104.5ms
[2022-05-30T13:56:17.653+0530][gc,phases     ] GC(13)   Post Evacuate Collection Set: 55.9ms
[2022-05-30T13:56:17.653+0530][gc,phases     ] GC(13)   Other: 119.2ms
[2022-05-30T13:56:17.657+0530][gc,heap       ] GC(13) Eden regions: 48->0(48)
[2022-05-30T13:56:17.658+0530][gc,heap       ] GC(13) Survivor regions: 3->3(7)
[2022-05-30T13:56:17.658+0530][gc,heap       ] GC(13) Old regions: 15->15
[2022-05-30T13:56:17.658+0530][gc,heap       ] GC(13) Humongous regions: 129->129
[2022-05-30T13:56:17.658+0530][gc,metaspace  ] GC(13) Metaspace: 52721K->52721K(1097728K)
[2022-05-30T13:56:17.669+0530][gc            ] GC(13) Pause Young (Normal) (G1 Evacuation Pause) 194M->146M(1024M) 307.783ms
[2022-05-30T13:56:17.669+0530][gc,cpu        ] GC(13) User=0.11s Sys=0.05s Real=0.32s
[2022-05-30T14:11:22.350+0530][gc,start      ] GC(14) Pause Young (Normal) (G1 Evacuation Pause)
[2022-05-30T14:11:22.377+0530][gc,task       ] GC(14) Using 4 workers of 4 for evacuation
[2022-05-30T14:11:22.564+0530][gc,mmu        ] GC(14) MMU target violated: 21.0ms (20.0ms/21.0ms)
[2022-05-30T14:11:22.564+0530][gc,phases     ] GC(14)   Pre Evacuate Collection Set: 0.5ms
[2022-05-30T14:11:22.564+0530][gc,phases     ] GC(14)   Evacuate Collection Set: 184.1ms
[2022-05-30T14:11:22.564+0530][gc,phases     ] GC(14)   Post Evacuate Collection Set: 1.8ms
[2022-05-30T14:11:22.564+0530][gc,phases     ] GC(14)   Other: 27.8ms
[2022-05-30T14:11:22.564+0530][gc,heap       ] GC(14) Eden regions: 48->0(47)
[2022-05-30T14:11:22.564+0530][gc,heap       ] GC(14) Survivor regions: 3->4(7)
[2022-05-30T14:11:22.565+0530][gc,heap       ] GC(14) Old regions: 15->15
[2022-05-30T14:11:22.565+0530][gc,heap       ] GC(14) Humongous regions: 129->129
[2022-05-30T14:11:22.565+0530][gc,metaspace  ] GC(14) Metaspace: 52731K->52731K(1097728K)
[2022-05-30T14:11:22.565+0530][gc            ] GC(14) Pause Young (Normal) (G1 Evacuation Pause) 194M->147M(1024M) 214.546ms
[2022-05-30T14:11:22.565+0530][gc,cpu        ] GC(14) User=0.12s Sys=0.01s Real=0.22s
[2022-05-30T14:27:02.350+0530][gc,start      ] GC(15) Pause Young (Normal) (G1 Evacuation Pause)
[2022-05-30T14:27:02.398+0530][gc,task       ] GC(15) Using 4 workers of 4 for evacuation
[2022-05-30T14:27:02.435+0530][gc,mmu        ] GC(15) MMU target violated: 21.0ms (20.0ms/21.0ms)
[2022-05-30T14:27:02.435+0530][gc,phases     ] GC(15)   Pre Evacuate Collection Set: 0.3ms
[2022-05-30T14:27:02.435+0530][gc,phases     ] GC(15)   Evacuate Collection Set: 30.5ms
[2022-05-30T14:27:02.435+0530][gc,phases     ] GC(15)   Post Evacuate Collection Set: 5.2ms
[2022-05-30T14:27:02.435+0530][gc,phases     ] GC(15)   Other: 49.1ms
[2022-05-30T14:27:02.435+0530][gc,heap       ] GC(15) Eden regions: 47->0(47)
[2022-05-30T14:27:02.435+0530][gc,heap       ] GC(15) Survivor regions: 4->4(7)
[2022-05-30T14:27:02.435+0530][gc,heap       ] GC(15) Old regions: 15->16
[2022-05-30T14:27:02.435+0530][gc,heap       ] GC(15) Humongous regions: 129->129
[2022-05-30T14:27:02.435+0530][gc,metaspace  ] GC(15) Metaspace: 52756K->52756K(1097728K)
[2022-05-30T14:27:02.436+0530][gc            ] GC(15) Pause Young (Normal) (G1 Evacuation Pause) 194M->147M(1024M) 85.457ms
[2022-05-30T14:27:02.436+0530][gc,cpu        ] GC(15) User=0.09s Sys=0.00s Real=0.09s
[2022-05-30T14:42:47.943+0530][gc,start      ] GC(16) Pause Young (Normal) (G1 Evacuation Pause)
[2022-05-30T14:42:47.972+0530][gc,task       ] GC(16) Using 4 workers of 4 for evacuation
[2022-05-30T14:42:48.032+0530][gc,mmu        ] GC(16) MMU target violated: 21.0ms (20.0ms/21.0ms)
[2022-05-30T14:42:48.032+0530][gc,phases     ] GC(16)   Pre Evacuate Collection Set: 0.1ms
[2022-05-30T14:42:48.032+0530][gc,phases     ] GC(16)   Evacuate Collection Set: 49.6ms
[2022-05-30T14:42:48.032+0530][gc,phases     ] GC(16)   Post Evacuate Collection Set: 9.7ms
[2022-05-30T14:42:48.032+0530][gc,phases     ] GC(16)   Other: 29.1ms
[2022-05-30T14:42:48.032+0530][gc,heap       ] GC(16) Eden regions: 47->0(48)
[2022-05-30T14:42:48.032+0530][gc,heap       ] GC(16) Survivor regions: 4->3(7)
[2022-05-30T14:42:48.032+0530][gc,heap       ] GC(16) Old regions: 16->16
[2022-05-30T14:42:48.032+0530][gc,heap       ] GC(16) Humongous regions: 129->129
[2022-05-30T14:42:48.032+0530][gc,metaspace  ] GC(16) Metaspace: 52774K->52774K(1097728K)
[2022-05-30T14:42:48.032+0530][gc            ] GC(16) Pause Young (Normal) (G1 Evacuation Pause) 194M->147M(1024M) 88.908ms
[2022-05-30T14:42:48.032+0530][gc,cpu        ] GC(16) User=0.06s Sys=0.00s Real=0.09s
[2022-05-30T14:58:50.161+0530][gc,start      ] GC(17) Pause Young (Normal) (G1 Evacuation Pause)
[2022-05-30T14:58:50.195+0530][gc,task       ] GC(17) Using 4 workers of 4 for evacuation
[2022-05-30T14:58:50.618+0530][gc,mmu        ] GC(17) MMU target violated: 21.0ms (20.0ms/21.0ms)
[2022-05-30T14:58:50.618+0530][gc,phases     ] GC(17)   Pre Evacuate Collection Set: 0.6ms
[2022-05-30T14:58:50.618+0530][gc,phases     ] GC(17)   Evacuate Collection Set: 331.6ms
[2022-05-30T14:58:50.618+0530][gc,phases     ] GC(17)   Post Evacuate Collection Set: 89.1ms
[2022-05-30T14:58:50.619+0530][gc,phases     ] GC(17)   Other: 64.7ms
[2022-05-30T14:58:50.619+0530][gc,heap       ] GC(17) Eden regions: 48->0(47)
[2022-05-30T14:58:50.619+0530][gc,heap       ] GC(17) Survivor regions: 3->4(7)
[2022-05-30T14:58:50.619+0530][gc,heap       ] GC(17) Old regions: 16->16
[2022-05-30T14:58:50.619+0530][gc,heap       ] GC(17) Humongous regions: 129->129
[2022-05-30T14:58:50.619+0530][gc,metaspace  ] GC(17) Metaspace: 52777K->52777K(1097728K)
[2022-05-30T14:58:50.699+0530][gc            ] GC(17) Pause Young (Normal) (G1 Evacuation Pause) 195M->147M(1024M) 506.584ms
[2022-05-30T14:58:50.700+0530][gc,cpu        ] GC(17) User=0.09s Sys=0.01s Real=0.54s
[2022-05-30T15:13:37.034+0530][gc,start      ] GC(18) Pause Young (Normal) (G1 Evacuation Pause)
[2022-05-30T15:13:37.081+0530][gc,task       ] GC(18) Using 4 workers of 4 for evacuation
[2022-05-30T15:13:37.124+0530][gc,mmu        ] GC(18) MMU target violated: 21.0ms (20.0ms/21.0ms)
[2022-05-30T15:13:37.124+0530][gc,phases     ] GC(18)   Pre Evacuate Collection Set: 0.1ms
[2022-05-30T15:13:37.124+0530][gc,phases     ] GC(18)   Evacuate Collection Set: 41.3ms
[2022-05-30T15:13:37.124+0530][gc,phases     ] GC(18)   Post Evacuate Collection Set: 1.1ms
[2022-05-30T15:13:37.124+0530][gc,phases     ] GC(18)   Other: 47.3ms
[2022-05-30T15:13:37.124+0530][gc,heap       ] GC(18) Eden regions: 47->0(48)
[2022-05-30T15:13:37.124+0530][gc,heap       ] GC(18) Survivor regions: 4->3(7)
[2022-05-30T15:13:37.124+0530][gc,heap       ] GC(18) Old regions: 16->16
[2022-05-30T15:13:37.125+0530][gc,heap       ] GC(18) Humongous regions: 129->129
[2022-05-30T15:13:37.125+0530][gc,metaspace  ] GC(18) Metaspace: 52780K->52780K(1097728K)
[2022-05-30T15:13:37.125+0530][gc            ] GC(18) Pause Young (Normal) (G1 Evacuation Pause) 194M->147M(1024M) 90.184ms
[2022-05-30T15:13:37.125+0530][gc,cpu        ] GC(18) User=0.04s Sys=0.00s Real=0.09s
[2022-05-30T15:29:44.302+0530][gc,start      ] GC(19) Pause Young (Normal) (G1 Evacuation Pause)
[2022-05-30T15:29:44.352+0530][gc,task       ] GC(19) Using 4 workers of 4 for evacuation
[2022-05-30T15:29:44.416+0530][gc,mmu        ] GC(19) MMU target violated: 21.0ms (20.0ms/21.0ms)
[2022-05-30T15:29:44.417+0530][gc,phases     ] GC(19)   Pre Evacuate Collection Set: 0.2ms
[2022-05-30T15:29:44.417+0530][gc,phases     ] GC(19)   Evacuate Collection Set: 59.3ms
[2022-05-30T15:29:44.417+0530][gc,phases     ] GC(19)   Post Evacuate Collection Set: 4.4ms
[2022-05-30T15:29:44.417+0530][gc,phases     ] GC(19)   Other: 51.3ms
[2022-05-30T15:29:44.417+0530][gc,heap       ] GC(19) Eden regions: 48->0(48)
[2022-05-30T15:29:44.417+0530][gc,heap       ] GC(19) Survivor regions: 3->3(7)
[2022-05-30T15:29:44.417+0530][gc,heap       ] GC(19) Old regions: 16->16
[2022-05-30T15:29:44.417+0530][gc,heap       ] GC(19) Humongous regions: 129->129
[2022-05-30T15:29:44.417+0530][gc,metaspace  ] GC(19) Metaspace: 52781K->52781K(1097728K)
[2022-05-30T15:29:44.418+0530][gc            ] GC(19) Pause Young (Normal) (G1 Evacuation Pause) 195M->146M(1024M) 116.114ms
[2022-05-30T15:29:44.418+0530][gc,cpu        ] GC(19) User=0.10s Sys=0.01s Real=0.12s
[2022-05-30T15:45:47.342+0530][gc,start      ] GC(20) Pause Young (Normal) (G1 Evacuation Pause)
[2022-05-30T15:45:47.375+0530][gc,task       ] GC(20) Using 4 workers of 4 for evacuation
[2022-05-30T15:45:47.490+0530][gc,mmu        ] GC(20) MMU target violated: 21.0ms (20.0ms/21.0ms)
[2022-05-30T15:45:47.490+0530][gc,phases     ] GC(20)   Pre Evacuate Collection Set: 0.1ms
[2022-05-30T15:45:47.490+0530][gc,phases     ] GC(20)   Evacuate Collection Set: 108.2ms
[2022-05-30T15:45:47.490+0530][gc,phases     ] GC(20)   Post Evacuate Collection Set: 6.0ms
[2022-05-30T15:45:47.490+0530][gc,phases     ] GC(20)   Other: 33.8ms
[2022-05-30T15:45:47.491+0530][gc,heap       ] GC(20) Eden regions: 48->0(48)
[2022-05-30T15:45:47.491+0530][gc,heap       ] GC(20) Survivor regions: 3->3(7)
[2022-05-30T15:45:47.491+0530][gc,heap       ] GC(20) Old regions: 16->16
[2022-05-30T15:45:47.491+0530][gc,heap       ] GC(20) Humongous regions: 129->129
[2022-05-30T15:45:47.491+0530][gc,metaspace  ] GC(20) Metaspace: 52784K->52784K(1097728K)
[2022-05-30T15:45:47.491+0530][gc            ] GC(20) Pause Young (Normal) (G1 Evacuation Pause) 194M->146M(1024M) 148.583ms
[2022-05-30T15:45:47.491+0530][gc,cpu        ] GC(20) User=0.07s Sys=0.00s Real=0.14s
[2022-05-30T16:01:48.395+0530][gc,start      ] GC(21) Pause Young (Normal) (G1 Evacuation Pause)
[2022-05-30T16:01:48.465+0530][gc,task       ] GC(21) Using 4 workers of 4 for evacuation
[2022-05-30T16:01:48.543+0530][gc,mmu        ] GC(21) MMU target violated: 21.0ms (20.0ms/21.0ms)
[2022-05-30T16:01:48.544+0530][gc,phases     ] GC(21)   Pre Evacuate Collection Set: 0.7ms
[2022-05-30T16:01:48.544+0530][gc,phases     ] GC(21)   Evacuate Collection Set: 75.5ms
[2022-05-30T16:01:48.544+0530][gc,phases     ] GC(21)   Post Evacuate Collection Set: 1.1ms
[2022-05-30T16:01:48.544+0530][gc,phases     ] GC(21)   Other: 71.5ms
[2022-05-30T16:01:48.555+0530][gc,heap       ] GC(21) Eden regions: 48->0(48)
[2022-05-30T16:01:48.555+0530][gc,heap       ] GC(21) Survivor regions: 3->3(7)
[2022-05-30T16:01:48.555+0530][gc,heap       ] GC(21) Old regions: 16->16
[2022-05-30T16:01:48.555+0530][gc,heap       ] GC(21) Humongous regions: 129->129
[2022-05-30T16:01:48.555+0530][gc,metaspace  ] GC(21) Metaspace: 52784K->52784K(1097728K)
[2022-05-30T16:01:48.578+0530][gc            ] GC(21) Pause Young (Normal) (G1 Evacuation Pause) 194M->146M(1024M) 160.554ms
[2022-05-30T16:01:48.578+0530][gc,cpu        ] GC(21) User=0.10s Sys=0.00s Real=0.18s
[2022-05-30T16:16:56.720+0530][gc,start      ] GC(22) Pause Young (Normal) (G1 Evacuation Pause)
[2022-05-30T16:16:56.761+0530][gc,task       ] GC(22) Using 4 workers of 4 for evacuation
[2022-05-30T16:16:57.168+0530][gc,mmu        ] GC(22) MMU target violated: 21.0ms (20.0ms/21.0ms)
[2022-05-30T16:16:57.168+0530][gc,phases     ] GC(22)   Pre Evacuate Collection Set: 0.4ms
[2022-05-30T16:16:57.168+0530][gc,phases     ] GC(22)   Evacuate Collection Set: 404.5ms
[2022-05-30T16:16:57.168+0530][gc,phases     ] GC(22)   Post Evacuate Collection Set: 1.4ms
[2022-05-30T16:16:57.168+0530][gc,phases     ] GC(22)   Other: 41.8ms
[2022-05-30T16:16:57.168+0530][gc,heap       ] GC(22) Eden regions: 48->0(47)
[2022-05-30T16:16:57.168+0530][gc,heap       ] GC(22) Survivor regions: 3->4(7)
[2022-05-30T16:16:57.168+0530][gc,heap       ] GC(22) Old regions: 16->16
[2022-05-30T16:16:57.168+0530][gc,heap       ] GC(22) Humongous regions: 129->129
[2022-05-30T16:16:57.168+0530][gc,metaspace  ] GC(22) Metaspace: 52787K->52787K(1097728K)
[2022-05-30T16:16:57.169+0530][gc            ] GC(22) Pause Young (Normal) (G1 Evacuation Pause) 194M->147M(1024M) 448.507ms
[2022-05-30T16:16:57.169+0530][gc,cpu        ] GC(22) User=0.25s Sys=0.00s Real=0.45s
[2022-05-30T16:32:42.481+0530][gc,start      ] GC(23) Pause Young (Normal) (G1 Evacuation Pause)
[2022-05-30T16:32:42.505+0530][gc,task       ] GC(23) Using 4 workers of 4 for evacuation
[2022-05-30T16:32:42.532+0530][gc,mmu        ] GC(23) MMU target violated: 21.0ms (20.0ms/21.0ms)
[2022-05-30T16:32:42.533+0530][gc,phases     ] GC(23)   Pre Evacuate Collection Set: 0.1ms
[2022-05-30T16:32:42.533+0530][gc,phases     ] GC(23)   Evacuate Collection Set: 26.4ms
[2022-05-30T16:32:42.533+0530][gc,phases     ] GC(23)   Post Evacuate Collection Set: 0.9ms
[2022-05-30T16:32:42.533+0530][gc,phases     ] GC(23)   Other: 24.4ms
[2022-05-30T16:32:42.533+0530][gc,heap       ] GC(23) Eden regions: 47->0(47)
[2022-05-30T16:32:42.533+0530][gc,heap       ] GC(23) Survivor regions: 4->4(7)
[2022-05-30T16:32:42.533+0530][gc,heap       ] GC(23) Old regions: 16->16
[2022-05-30T16:32:42.533+0530][gc,heap       ] GC(23) Humongous regions: 129->129
[2022-05-30T16:32:42.533+0530][gc,metaspace  ] GC(23) Metaspace: 52799K->52799K(1097728K)
[2022-05-30T16:32:42.533+0530][gc            ] GC(23) Pause Young (Normal) (G1 Evacuation Pause) 194M->147M(1024M) 52.123ms
[2022-05-30T16:32:42.533+0530][gc,cpu        ] GC(23) User=0.04s Sys=0.00s Real=0.06s
