[2022-05-30T17:59:19.291+0530][gc,heap] Heap region size: 1M
[2022-05-30T17:59:19.327+0530][gc     ] Using G1
[2022-05-30T17:59:19.327+0530][gc,heap,coops] Heap address: 0x00000000c0000000, size: 1024 MB, Compressed Oops mode: 32-bit
[2022-05-30T17:59:24.185+0530][gc,start     ] GC(0) Pause Young (Concurrent Start) (Metadata GC Threshold)
[2022-05-30T17:59:24.185+0530][gc,task      ] GC(0) Using 4 workers of 4 for evacuation
[2022-05-30T17:59:24.216+0530][gc,mmu       ] GC(0) MMU target violated: 21.0ms (20.0ms/21.0ms)
[2022-05-30T17:59:24.216+0530][gc,phases    ] GC(0)   Pre Evacuate Collection Set: 0.2ms
[2022-05-30T17:59:24.216+0530][gc,phases    ] GC(0)   Evacuate Collection Set: 28.8ms
[2022-05-30T17:59:24.216+0530][gc,phases    ] GC(0)   Post Evacuate Collection Set: 1.3ms
[2022-05-30T17:59:24.216+0530][gc,phases    ] GC(0)   Other: 1.4ms
[2022-05-30T17:59:24.216+0530][gc,heap      ] GC(0) Eden regions: 44->0(44)
[2022-05-30T17:59:24.216+0530][gc,heap      ] GC(0) Survivor regions: 0->7(7)
[2022-05-30T17:59:24.217+0530][gc,heap      ] GC(0) Old regions: 0->0
[2022-05-30T17:59:24.217+0530][gc,heap      ] GC(0) Humongous regions: 0->0
[2022-05-30T17:59:24.217+0530][gc,metaspace ] GC(0) Metaspace: 20832K->20832K(1069056K)
[2022-05-30T17:59:24.217+0530][gc           ] GC(0) Pause Young (Concurrent Start) (Metadata GC Threshold) 43M->6M(1024M) 31.940ms
[2022-05-30T17:59:24.217+0530][gc,cpu       ] GC(0) User=0.03s Sys=0.05s Real=0.03s
[2022-05-30T17:59:24.217+0530][gc           ] GC(1) Concurrent Cycle
[2022-05-30T17:59:24.217+0530][gc,marking   ] GC(1) Concurrent Clear Claimed Marks
[2022-05-30T17:59:24.217+0530][gc,marking   ] GC(1) Concurrent Clear Claimed Marks 0.121ms
[2022-05-30T17:59:24.217+0530][gc,marking   ] GC(1) Concurrent Scan Root Regions
[2022-05-30T17:59:24.224+0530][gc,marking   ] GC(1) Concurrent Scan Root Regions 6.431ms
[2022-05-30T17:59:24.224+0530][gc,marking   ] GC(1) Concurrent Mark (4.942s)
[2022-05-30T17:59:24.224+0530][gc,marking   ] GC(1) Concurrent Mark From Roots
[2022-05-30T17:59:24.224+0530][gc,task      ] GC(1) Using 1 workers of 1 for marking
[2022-05-30T17:59:24.225+0530][gc,marking   ] GC(1) Concurrent Mark From Roots 1.410ms
[2022-05-30T17:59:24.226+0530][gc,marking   ] GC(1) Concurrent Preclean
[2022-05-30T17:59:24.226+0530][gc,marking   ] GC(1) Concurrent Preclean 0.196ms
[2022-05-30T17:59:24.226+0530][gc,marking   ] GC(1) Concurrent Mark (4.942s, 4.944s) 2.038ms
[2022-05-30T17:59:24.226+0530][gc,start     ] GC(1) Pause Remark
[2022-05-30T17:59:24.234+0530][gc,stringtable] GC(1) Cleaned string and symbol table, strings: 7286 processed, 0 removed, symbols: 64040 processed, 31 removed
[2022-05-30T17:59:24.235+0530][gc            ] GC(1) Pause Remark 7M->7M(1024M) 8.574ms
[2022-05-30T17:59:24.235+0530][gc,cpu        ] GC(1) User=0.03s Sys=0.00s Real=0.01s
[2022-05-30T17:59:24.235+0530][gc,marking    ] GC(1) Concurrent Rebuild Remembered Sets
[2022-05-30T17:59:24.235+0530][gc,marking    ] GC(1) Concurrent Rebuild Remembered Sets 0.374ms
[2022-05-30T17:59:24.236+0530][gc,start      ] GC(1) Pause Cleanup
[2022-05-30T17:59:24.236+0530][gc            ] GC(1) Pause Cleanup 7M->7M(1024M) 0.630ms
[2022-05-30T17:59:24.236+0530][gc,cpu        ] GC(1) User=0.00s Sys=0.00s Real=0.00s
[2022-05-30T17:59:24.236+0530][gc,marking    ] GC(1) Concurrent Cleanup for Next Mark
[2022-05-30T17:59:24.255+0530][gc,marking    ] GC(1) Concurrent Cleanup for Next Mark 18.685ms
[2022-05-30T17:59:24.255+0530][gc            ] GC(1) Concurrent Cycle 38.505ms
[2022-05-30T17:59:28.605+0530][gc,start      ] GC(2) Pause Young (Normal) (G1 Evacuation Pause)
[2022-05-30T17:59:28.605+0530][gc,task       ] GC(2) Using 4 workers of 4 for evacuation
[2022-05-30T17:59:28.650+0530][gc,mmu        ] GC(2) MMU target violated: 21.0ms (20.0ms/21.0ms)
[2022-05-30T17:59:28.650+0530][gc,phases     ] GC(2)   Pre Evacuate Collection Set: 0.1ms
[2022-05-30T17:59:28.650+0530][gc,phases     ] GC(2)   Evacuate Collection Set: 41.8ms
[2022-05-30T17:59:28.650+0530][gc,phases     ] GC(2)   Post Evacuate Collection Set: 2.3ms
[2022-05-30T17:59:28.650+0530][gc,phases     ] GC(2)   Other: 0.7ms
[2022-05-30T17:59:28.650+0530][gc,heap       ] GC(2) Eden regions: 44->0(49)
[2022-05-30T17:59:28.650+0530][gc,heap       ] GC(2) Survivor regions: 7->2(7)
[2022-05-30T17:59:28.650+0530][gc,heap       ] GC(2) Old regions: 0->7
[2022-05-30T17:59:28.650+0530][gc,heap       ] GC(2) Humongous regions: 0->0
[2022-05-30T17:59:28.650+0530][gc,metaspace  ] GC(2) Metaspace: 30715K->30715K(1077248K)
[2022-05-30T17:59:28.650+0530][gc            ] GC(2) Pause Young (Normal) (G1 Evacuation Pause) 50M->8M(1024M) 45.233ms
[2022-05-30T17:59:28.650+0530][gc,cpu        ] GC(2) User=0.05s Sys=0.04s Real=0.05s
[2022-05-30T17:59:36.109+0530][gc,start      ] GC(3) Pause Young (Concurrent Start) (Metadata GC Threshold)
[2022-05-30T17:59:36.109+0530][gc,task       ] GC(3) Using 4 workers of 4 for evacuation
[2022-05-30T17:59:36.133+0530][gc,mmu        ] GC(3) MMU target violated: 21.0ms (20.0ms/21.0ms)
[2022-05-30T17:59:36.133+0530][gc,phases     ] GC(3)   Pre Evacuate Collection Set: 0.2ms
[2022-05-30T17:59:36.134+0530][gc,phases     ] GC(3)   Evacuate Collection Set: 22.1ms
[2022-05-30T17:59:36.134+0530][gc,phases     ] GC(3)   Post Evacuate Collection Set: 1.0ms
[2022-05-30T17:59:36.134+0530][gc,phases     ] GC(3)   Other: 1.1ms
[2022-05-30T17:59:36.134+0530][gc,heap       ] GC(3) Eden regions: 28->0(47)
[2022-05-30T17:59:36.134+0530][gc,heap       ] GC(3) Survivor regions: 2->4(7)
[2022-05-30T17:59:36.134+0530][gc,heap       ] GC(3) Old regions: 7->7
[2022-05-30T17:59:36.134+0530][gc,heap       ] GC(3) Humongous regions: 129->129
[2022-05-30T17:59:36.134+0530][gc,metaspace  ] GC(3) Metaspace: 34803K->34803K(1081344K)
[2022-05-30T17:59:36.134+0530][gc            ] GC(3) Pause Young (Concurrent Start) (Metadata GC Threshold) 165M->138M(1024M) 25.120ms
[2022-05-30T17:59:36.134+0530][gc,cpu        ] GC(3) User=0.04s Sys=0.00s Real=0.02s
[2022-05-30T17:59:36.135+0530][gc            ] GC(4) Concurrent Cycle
[2022-05-30T17:59:36.135+0530][gc,marking    ] GC(4) Concurrent Clear Claimed Marks
[2022-05-30T17:59:36.135+0530][gc,marking    ] GC(4) Concurrent Clear Claimed Marks 0.180ms
[2022-05-30T17:59:36.135+0530][gc,marking    ] GC(4) Concurrent Scan Root Regions
[2022-05-30T17:59:36.140+0530][gc,marking    ] GC(4) Concurrent Scan Root Regions 5.025ms
[2022-05-30T17:59:36.140+0530][gc,marking    ] GC(4) Concurrent Mark (16.858s)
[2022-05-30T17:59:36.140+0530][gc,marking    ] GC(4) Concurrent Mark From Roots
[2022-05-30T17:59:36.140+0530][gc,task       ] GC(4) Using 1 workers of 1 for marking
[2022-05-30T17:59:36.159+0530][gc,marking    ] GC(4) Concurrent Mark From Roots 19.033ms
[2022-05-30T17:59:36.159+0530][gc,marking    ] GC(4) Concurrent Preclean
[2022-05-30T17:59:36.159+0530][gc,marking    ] GC(4) Concurrent Preclean 0.205ms
[2022-05-30T17:59:36.159+0530][gc,marking    ] GC(4) Concurrent Mark (16.858s, 16.878s) 19.424ms
[2022-05-30T17:59:36.161+0530][gc,start      ] GC(4) Pause Remark
[2022-05-30T17:59:36.172+0530][gc,stringtable] GC(4) Cleaned string and symbol table, strings: 10720 processed, 8 removed, symbols: 95500 processed, 23 removed
[2022-05-30T17:59:36.173+0530][gc            ] GC(4) Pause Remark 139M->139M(1024M) 11.903ms
[2022-05-30T17:59:36.173+0530][gc,cpu        ] GC(4) User=0.04s Sys=0.00s Real=0.01s
[2022-05-30T17:59:36.173+0530][gc,marking    ] GC(4) Concurrent Rebuild Remembered Sets
[2022-05-30T17:59:36.183+0530][gc,marking    ] GC(4) Concurrent Rebuild Remembered Sets 9.704ms
[2022-05-30T17:59:36.184+0530][gc,start      ] GC(4) Pause Cleanup
[2022-05-30T17:59:36.184+0530][gc            ] GC(4) Pause Cleanup 139M->139M(1024M) 0.680ms
[2022-05-30T17:59:36.184+0530][gc,cpu        ] GC(4) User=0.00s Sys=0.00s Real=0.00s
[2022-05-30T17:59:36.185+0530][gc,marking    ] GC(4) Concurrent Cleanup for Next Mark
[2022-05-30T17:59:36.202+0530][gc,marking    ] GC(4) Concurrent Cleanup for Next Mark 17.170ms
[2022-05-30T17:59:36.202+0530][gc            ] GC(4) Concurrent Cycle 67.306ms
[2022-05-30T17:59:38.588+0530][gc,start      ] GC(5) Pause Young (Normal) (G1 Evacuation Pause)
[2022-05-30T17:59:38.588+0530][gc,task       ] GC(5) Using 4 workers of 4 for evacuation
[2022-05-30T17:59:38.645+0530][gc,mmu        ] GC(5) MMU target violated: 21.0ms (20.0ms/21.0ms)
[2022-05-30T17:59:38.645+0530][gc,phases     ] GC(5)   Pre Evacuate Collection Set: 0.1ms
[2022-05-30T17:59:38.645+0530][gc,phases     ] GC(5)   Evacuate Collection Set: 55.2ms
[2022-05-30T17:59:38.646+0530][gc,phases     ] GC(5)   Post Evacuate Collection Set: 1.3ms
[2022-05-30T17:59:38.646+0530][gc,phases     ] GC(5)   Other: 0.8ms
[2022-05-30T17:59:38.646+0530][gc,heap       ] GC(5) Eden regions: 47->0(44)
[2022-05-30T17:59:38.646+0530][gc,heap       ] GC(5) Survivor regions: 4->7(7)
[2022-05-30T17:59:38.646+0530][gc,heap       ] GC(5) Old regions: 7->7
[2022-05-30T17:59:38.646+0530][gc,heap       ] GC(5) Humongous regions: 129->129
[2022-05-30T17:59:38.646+0530][gc,metaspace  ] GC(5) Metaspace: 42917K->42917K(1087488K)
[2022-05-30T17:59:38.646+0530][gc            ] GC(5) Pause Young (Normal) (G1 Evacuation Pause) 185M->142M(1024M) 57.662ms
[2022-05-30T17:59:38.646+0530][gc,cpu        ] GC(5) User=0.05s Sys=0.01s Real=0.06s
[2022-05-30T18:02:31.626+0530][gc,start      ] GC(6) Pause Young (Normal) (G1 Evacuation Pause)
[2022-05-30T18:02:31.681+0530][gc,task       ] GC(6) Using 4 workers of 4 for evacuation
[2022-05-30T18:02:31.744+0530][gc,mmu        ] GC(6) MMU target violated: 21.0ms (20.0ms/21.0ms)
[2022-05-30T18:02:31.744+0530][gc,phases     ] GC(6)   Pre Evacuate Collection Set: 0.2ms
[2022-05-30T18:02:31.744+0530][gc,phases     ] GC(6)   Evacuate Collection Set: 59.2ms
[2022-05-30T18:02:31.744+0530][gc,phases     ] GC(6)   Post Evacuate Collection Set: 2.5ms
[2022-05-30T18:02:31.745+0530][gc,phases     ] GC(6)   Other: 57.0ms
[2022-05-30T18:02:31.745+0530][gc,heap       ] GC(6) Eden regions: 44->0(48)
[2022-05-30T18:02:31.745+0530][gc,heap       ] GC(6) Survivor regions: 7->3(7)
[2022-05-30T18:02:31.745+0530][gc,heap       ] GC(6) Old regions: 7->13
[2022-05-30T18:02:31.745+0530][gc,heap       ] GC(6) Humongous regions: 159->129
[2022-05-30T18:02:31.745+0530][gc,metaspace  ] GC(6) Metaspace: 50071K->50071K(1095680K)
[2022-05-30T18:02:31.745+0530][gc            ] GC(6) Pause Young (Normal) (G1 Evacuation Pause) 216M->144M(1024M) 119.636ms
[2022-05-30T18:02:31.745+0530][gc,cpu        ] GC(6) User=0.15s Sys=0.02s Real=0.12s
[2022-05-30T18:16:28.125+0530][gc,start      ] GC(7) Pause Young (Normal) (G1 Evacuation Pause)
[2022-05-30T18:16:28.157+0530][gc,task       ] GC(7) Using 4 workers of 4 for evacuation
[2022-05-30T18:16:28.232+0530][gc,mmu        ] GC(7) MMU target violated: 21.0ms (20.0ms/21.0ms)
[2022-05-30T18:16:28.233+0530][gc,phases     ] GC(7)   Pre Evacuate Collection Set: 1.8ms
[2022-05-30T18:16:28.233+0530][gc,phases     ] GC(7)   Evacuate Collection Set: 44.8ms
[2022-05-30T18:16:28.233+0530][gc,phases     ] GC(7)   Post Evacuate Collection Set: 21.0ms
[2022-05-30T18:16:28.233+0530][gc,phases     ] GC(7)   Other: 41.5ms
[2022-05-30T18:16:28.234+0530][gc,heap       ] GC(7) Eden regions: 48->0(46)
[2022-05-30T18:16:28.234+0530][gc,heap       ] GC(7) Survivor regions: 3->5(7)
[2022-05-30T18:16:28.234+0530][gc,heap       ] GC(7) Old regions: 13->13
[2022-05-30T18:16:28.234+0530][gc,heap       ] GC(7) Humongous regions: 129->129
[2022-05-30T18:16:28.234+0530][gc,metaspace  ] GC(7) Metaspace: 51072K->51072K(1095680K)
[2022-05-30T18:16:28.234+0530][gc            ] GC(7) Pause Young (Normal) (G1 Evacuation Pause) 192M->146M(1024M) 109.417ms
[2022-05-30T18:16:28.235+0530][gc,cpu        ] GC(7) User=0.08s Sys=0.05s Real=0.11s
[2022-05-30T18:31:00.276+0530][gc,start      ] GC(8) Pause Young (Normal) (G1 Evacuation Pause)
[2022-05-30T18:31:00.276+0530][gc,task       ] GC(8) Using 4 workers of 4 for evacuation
[2022-05-30T18:31:00.315+0530][gc,mmu        ] GC(8) MMU target violated: 21.0ms (20.0ms/21.0ms)
[2022-05-30T18:31:00.315+0530][gc,phases     ] GC(8)   Pre Evacuate Collection Set: 0.2ms
[2022-05-30T18:31:00.316+0530][gc,phases     ] GC(8)   Evacuate Collection Set: 34.8ms
[2022-05-30T18:31:00.316+0530][gc,phases     ] GC(8)   Post Evacuate Collection Set: 3.3ms
[2022-05-30T18:31:00.316+0530][gc,phases     ] GC(8)   Other: 1.7ms
[2022-05-30T18:31:00.316+0530][gc,heap       ] GC(8) Eden regions: 46->0(48)
[2022-05-30T18:31:00.317+0530][gc,heap       ] GC(8) Survivor regions: 5->3(7)
[2022-05-30T18:31:00.317+0530][gc,heap       ] GC(8) Old regions: 13->15
[2022-05-30T18:31:00.317+0530][gc,heap       ] GC(8) Humongous regions: 129->129
[2022-05-30T18:31:00.317+0530][gc,metaspace  ] GC(8) Metaspace: 51171K->51171K(1095680K)
[2022-05-30T18:31:00.317+0530][gc            ] GC(8) Pause Young (Normal) (G1 Evacuation Pause) 192M->146M(1024M) 41.519ms
[2022-05-30T18:31:00.318+0530][gc,cpu        ] GC(8) User=0.14s Sys=0.00s Real=0.04s
[2022-05-30T18:46:59.472+0530][gc,start      ] GC(9) Pause Young (Normal) (G1 Evacuation Pause)
[2022-05-30T18:46:59.472+0530][gc,task       ] GC(9) Using 4 workers of 4 for evacuation
[2022-05-30T18:46:59.488+0530][gc,phases     ] GC(9)   Pre Evacuate Collection Set: 0.2ms
[2022-05-30T18:46:59.488+0530][gc,phases     ] GC(9)   Evacuate Collection Set: 11.7ms
[2022-05-30T18:46:59.488+0530][gc,phases     ] GC(9)   Post Evacuate Collection Set: 2.9ms
[2022-05-30T18:46:59.488+0530][gc,phases     ] GC(9)   Other: 1.2ms
[2022-05-30T18:46:59.488+0530][gc,heap       ] GC(9) Eden regions: 48->0(48)
[2022-05-30T18:46:59.488+0530][gc,heap       ] GC(9) Survivor regions: 3->3(7)
[2022-05-30T18:46:59.488+0530][gc,heap       ] GC(9) Old regions: 15->15
[2022-05-30T18:46:59.488+0530][gc,heap       ] GC(9) Humongous regions: 129->129
[2022-05-30T18:46:59.488+0530][gc,metaspace  ] GC(9) Metaspace: 51267K->51267K(1095680K)
[2022-05-30T18:46:59.488+0530][gc            ] GC(9) Pause Young (Normal) (G1 Evacuation Pause) 194M->146M(1024M) 16.301ms
[2022-05-30T18:46:59.488+0530][gc,cpu        ] GC(9) User=0.05s Sys=0.00s Real=0.01s
[2022-05-30T19:02:38.051+0530][gc,start      ] GC(10) Pause Young (Normal) (G1 Evacuation Pause)
[2022-05-30T19:02:38.051+0530][gc,task       ] GC(10) Using 4 workers of 4 for evacuation
[2022-05-30T19:02:38.065+0530][gc,phases     ] GC(10)   Pre Evacuate Collection Set: 0.2ms
[2022-05-30T19:02:38.065+0530][gc,phases     ] GC(10)   Evacuate Collection Set: 10.0ms
[2022-05-30T19:02:38.065+0530][gc,phases     ] GC(10)   Post Evacuate Collection Set: 2.4ms
[2022-05-30T19:02:38.065+0530][gc,phases     ] GC(10)   Other: 1.3ms
[2022-05-30T19:02:38.065+0530][gc,heap       ] GC(10) Eden regions: 48->0(47)
[2022-05-30T19:02:38.065+0530][gc,heap       ] GC(10) Survivor regions: 3->4(7)
[2022-05-30T19:02:38.065+0530][gc,heap       ] GC(10) Old regions: 15->15
[2022-05-30T19:02:38.065+0530][gc,heap       ] GC(10) Humongous regions: 129->129
[2022-05-30T19:02:38.065+0530][gc,metaspace  ] GC(10) Metaspace: 51338K->51338K(1095680K)
[2022-05-30T19:02:38.065+0530][gc            ] GC(10) Pause Young (Normal) (G1 Evacuation Pause) 194M->147M(1024M) 14.221ms
[2022-05-30T19:02:38.065+0530][gc,cpu        ] GC(10) User=0.04s Sys=0.00s Real=0.01s
[2022-05-30T19:18:54.919+0530][gc,start      ] GC(11) Pause Young (Normal) (G1 Evacuation Pause)
[2022-05-30T19:18:54.967+0530][gc,task       ] GC(11) Using 4 workers of 4 for evacuation
[2022-05-30T19:18:54.997+0530][gc,mmu        ] GC(11) MMU target violated: 21.0ms (20.0ms/21.0ms)
[2022-05-30T19:18:54.998+0530][gc,phases     ] GC(11)   Pre Evacuate Collection Set: 0.1ms
[2022-05-30T19:18:54.998+0530][gc,phases     ] GC(11)   Evacuate Collection Set: 25.6ms
[2022-05-30T19:18:54.998+0530][gc,phases     ] GC(11)   Post Evacuate Collection Set: 3.2ms
[2022-05-30T19:18:54.998+0530][gc,phases     ] GC(11)   Other: 49.7ms
[2022-05-30T19:18:54.999+0530][gc,heap       ] GC(11) Eden regions: 47->0(47)
[2022-05-30T19:18:54.999+0530][gc,heap       ] GC(11) Survivor regions: 4->4(7)
[2022-05-30T19:18:54.999+0530][gc,heap       ] GC(11) Old regions: 15->15
[2022-05-30T19:18:54.999+0530][gc,heap       ] GC(11) Humongous regions: 129->129
[2022-05-30T19:18:54.999+0530][gc,metaspace  ] GC(11) Metaspace: 51368K->51368K(1095680K)
[2022-05-30T19:18:54.999+0530][gc            ] GC(11) Pause Young (Normal) (G1 Evacuation Pause) 194M->147M(1024M) 80.311ms
[2022-05-30T19:18:55.000+0530][gc,cpu        ] GC(11) User=0.10s Sys=0.00s Real=0.08s
[2022-05-30T19:35:08.051+0530][gc,start      ] GC(12) Pause Young (Normal) (G1 Evacuation Pause)
[2022-05-30T19:35:08.076+0530][gc,task       ] GC(12) Using 4 workers of 4 for evacuation
[2022-05-30T19:35:08.105+0530][gc,mmu        ] GC(12) MMU target violated: 21.0ms (20.0ms/21.0ms)
[2022-05-30T19:35:08.106+0530][gc,phases     ] GC(12)   Pre Evacuate Collection Set: 0.1ms
[2022-05-30T19:35:08.106+0530][gc,phases     ] GC(12)   Evacuate Collection Set: 24.8ms
[2022-05-30T19:35:08.106+0530][gc,phases     ] GC(12)   Post Evacuate Collection Set: 3.3ms
[2022-05-30T19:35:08.106+0530][gc,phases     ] GC(12)   Other: 26.3ms
[2022-05-30T19:35:08.107+0530][gc,heap       ] GC(12) Eden regions: 47->0(48)
[2022-05-30T19:35:08.107+0530][gc,heap       ] GC(12) Survivor regions: 4->3(7)
[2022-05-30T19:35:08.107+0530][gc,heap       ] GC(12) Old regions: 15->15
[2022-05-30T19:35:08.107+0530][gc,heap       ] GC(12) Humongous regions: 129->129
[2022-05-30T19:35:08.107+0530][gc,metaspace  ] GC(12) Metaspace: 51375K->51375K(1095680K)
[2022-05-30T19:35:08.107+0530][gc            ] GC(12) Pause Young (Normal) (G1 Evacuation Pause) 194M->147M(1024M) 56.090ms
[2022-05-30T19:35:08.108+0530][gc,cpu        ] GC(12) User=0.10s Sys=0.00s Real=0.05s
[2022-05-30T19:51:45.048+0530][gc,start      ] GC(13) Pause Young (Normal) (G1 Evacuation Pause)
[2022-05-30T19:51:45.078+0530][gc,task       ] GC(13) Using 4 workers of 4 for evacuation
[2022-05-30T19:51:45.092+0530][gc,phases     ] GC(13)   Pre Evacuate Collection Set: 0.2ms
[2022-05-30T19:51:45.092+0530][gc,phases     ] GC(13)   Evacuate Collection Set: 10.1ms
[2022-05-30T19:51:45.092+0530][gc,phases     ] GC(13)   Post Evacuate Collection Set: 2.3ms
[2022-05-30T19:51:45.093+0530][gc,phases     ] GC(13)   Other: 31.7ms
[2022-05-30T19:51:45.093+0530][gc,heap       ] GC(13) Eden regions: 48->0(48)
[2022-05-30T19:51:45.093+0530][gc,heap       ] GC(13) Survivor regions: 3->3(7)
[2022-05-30T19:51:45.093+0530][gc,heap       ] GC(13) Old regions: 15->15
[2022-05-30T19:51:45.094+0530][gc,heap       ] GC(13) Humongous regions: 129->129
[2022-05-30T19:51:45.094+0530][gc,metaspace  ] GC(13) Metaspace: 51391K->51391K(1095680K)
[2022-05-30T19:51:45.094+0530][gc            ] GC(13) Pause Young (Normal) (G1 Evacuation Pause) 195M->146M(1024M) 46.583ms
[2022-05-30T19:51:45.094+0530][gc,cpu        ] GC(13) User=0.04s Sys=0.00s Real=0.05s
[2022-05-30T20:07:24.272+0530][gc,start      ] GC(14) Pause Young (Normal) (G1 Evacuation Pause)
[2022-05-30T20:07:24.298+0530][gc,task       ] GC(14) Using 4 workers of 4 for evacuation
[2022-05-30T20:07:24.307+0530][gc,phases     ] GC(14)   Pre Evacuate Collection Set: 0.1ms
[2022-05-30T20:07:24.307+0530][gc,phases     ] GC(14)   Evacuate Collection Set: 6.7ms
[2022-05-30T20:07:24.308+0530][gc,phases     ] GC(14)   Post Evacuate Collection Set: 1.6ms
[2022-05-30T20:07:24.308+0530][gc,phases     ] GC(14)   Other: 26.8ms
[2022-05-30T20:07:24.308+0530][gc,heap       ] GC(14) Eden regions: 48->0(48)
[2022-05-30T20:07:24.308+0530][gc,heap       ] GC(14) Survivor regions: 3->3(7)
[2022-05-30T20:07:24.308+0530][gc,heap       ] GC(14) Old regions: 15->15
[2022-05-30T20:07:24.308+0530][gc,heap       ] GC(14) Humongous regions: 129->129
[2022-05-30T20:07:24.308+0530][gc,metaspace  ] GC(14) Metaspace: 51423K->51423K(1095680K)
[2022-05-30T20:07:24.308+0530][gc            ] GC(14) Pause Young (Normal) (G1 Evacuation Pause) 194M->146M(1024M) 35.591ms
[2022-05-30T20:07:24.308+0530][gc,cpu        ] GC(14) User=0.02s Sys=0.00s Real=0.03s
[2022-05-30T20:24:07.010+0530][gc,start      ] GC(15) Pause Young (Normal) (G1 Evacuation Pause)
[2022-05-30T20:24:07.056+0530][gc,task       ] GC(15) Using 4 workers of 4 for evacuation
[2022-05-30T20:24:07.071+0530][gc,phases     ] GC(15)   Pre Evacuate Collection Set: 0.2ms
[2022-05-30T20:24:07.071+0530][gc,phases     ] GC(15)   Evacuate Collection Set: 10.4ms
[2022-05-30T20:24:07.071+0530][gc,phases     ] GC(15)   Post Evacuate Collection Set: 3.3ms
[2022-05-30T20:24:07.071+0530][gc,phases     ] GC(15)   Other: 46.8ms
[2022-05-30T20:24:07.072+0530][gc,heap       ] GC(15) Eden regions: 48->0(48)
[2022-05-30T20:24:07.072+0530][gc,heap       ] GC(15) Survivor regions: 3->3(7)
[2022-05-30T20:24:07.072+0530][gc,heap       ] GC(15) Old regions: 15->15
[2022-05-30T20:24:07.072+0530][gc,heap       ] GC(15) Humongous regions: 129->129
[2022-05-30T20:24:07.073+0530][gc,metaspace  ] GC(15) Metaspace: 51426K->51426K(1095680K)
[2022-05-30T20:24:07.073+0530][gc            ] GC(15) Pause Young (Normal) (G1 Evacuation Pause) 194M->146M(1024M) 62.752ms
[2022-05-30T20:24:07.073+0530][gc,cpu        ] GC(15) User=0.04s Sys=0.00s Real=0.06s
[2022-05-30T20:40:47.341+0530][gc,start      ] GC(16) Pause Young (Normal) (G1 Evacuation Pause)
[2022-05-30T20:40:47.360+0530][gc,task       ] GC(16) Using 4 workers of 4 for evacuation
[2022-05-30T20:40:47.396+0530][gc,mmu        ] GC(16) MMU target violated: 21.0ms (20.0ms/21.0ms)
[2022-05-30T20:40:47.396+0530][gc,phases     ] GC(16)   Pre Evacuate Collection Set: 0.1ms
[2022-05-30T20:40:47.396+0530][gc,phases     ] GC(16)   Evacuate Collection Set: 30.1ms
[2022-05-30T20:40:47.396+0530][gc,phases     ] GC(16)   Post Evacuate Collection Set: 4.6ms
[2022-05-30T20:40:47.397+0530][gc,phases     ] GC(16)   Other: 20.2ms
[2022-05-30T20:40:47.397+0530][gc,heap       ] GC(16) Eden regions: 48->0(48)
[2022-05-30T20:40:47.397+0530][gc,heap       ] GC(16) Survivor regions: 3->3(7)
[2022-05-30T20:40:47.397+0530][gc,heap       ] GC(16) Old regions: 15->15
[2022-05-30T20:40:47.397+0530][gc,heap       ] GC(16) Humongous regions: 129->129
[2022-05-30T20:40:47.397+0530][gc,metaspace  ] GC(16) Metaspace: 51431K->51431K(1095680K)
[2022-05-30T20:40:47.397+0530][gc            ] GC(16) Pause Young (Normal) (G1 Evacuation Pause) 194M->146M(1024M) 56.275ms
[2022-05-30T20:40:47.398+0530][gc,cpu        ] GC(16) User=0.04s Sys=0.02s Real=0.05s
[2022-05-30T20:57:28.432+0530][gc,start      ] GC(17) Pause Young (Normal) (G1 Evacuation Pause)
[2022-05-30T20:57:28.496+0530][gc,task       ] GC(17) Using 4 workers of 4 for evacuation
[2022-05-30T20:57:28.509+0530][gc,phases     ] GC(17)   Pre Evacuate Collection Set: 0.1ms
[2022-05-30T20:57:28.509+0530][gc,phases     ] GC(17)   Evacuate Collection Set: 8.9ms
[2022-05-30T20:57:28.510+0530][gc,phases     ] GC(17)   Post Evacuate Collection Set: 3.1ms
[2022-05-30T20:57:28.510+0530][gc,phases     ] GC(17)   Other: 64.9ms
[2022-05-30T20:57:28.510+0530][gc,heap       ] GC(17) Eden regions: 48->0(48)
[2022-05-30T20:57:28.510+0530][gc,heap       ] GC(17) Survivor regions: 3->3(7)
[2022-05-30T20:57:28.510+0530][gc,heap       ] GC(17) Old regions: 15->15
[2022-05-30T20:57:28.511+0530][gc,heap       ] GC(17) Humongous regions: 129->129
[2022-05-30T20:57:28.511+0530][gc,metaspace  ] GC(17) Metaspace: 51432K->51432K(1095680K)
[2022-05-30T20:57:28.511+0530][gc            ] GC(17) Pause Young (Normal) (G1 Evacuation Pause) 194M->146M(1024M) 78.706ms
[2022-05-30T20:57:28.511+0530][gc,cpu        ] GC(17) User=0.04s Sys=0.01s Real=0.08s
[2022-05-30T21:13:16.460+0530][gc,start      ] GC(18) Pause Young (Normal) (G1 Evacuation Pause)
[2022-05-30T21:13:16.484+0530][gc,task       ] GC(18) Using 4 workers of 4 for evacuation
[2022-05-30T21:13:16.523+0530][gc,mmu        ] GC(18) MMU target violated: 21.0ms (20.0ms/21.0ms)
[2022-05-30T21:13:16.523+0530][gc,phases     ] GC(18)   Pre Evacuate Collection Set: 0.1ms
[2022-05-30T21:13:16.523+0530][gc,phases     ] GC(18)   Evacuate Collection Set: 35.4ms
[2022-05-30T21:13:16.523+0530][gc,phases     ] GC(18)   Post Evacuate Collection Set: 2.4ms
[2022-05-30T21:13:16.524+0530][gc,phases     ] GC(18)   Other: 25.7ms
[2022-05-30T21:13:16.524+0530][gc,heap       ] GC(18) Eden regions: 48->0(47)
[2022-05-30T21:13:16.524+0530][gc,heap       ] GC(18) Survivor regions: 3->4(7)
[2022-05-30T21:13:16.524+0530][gc,heap       ] GC(18) Old regions: 15->15
[2022-05-30T21:13:16.524+0530][gc,heap       ] GC(18) Humongous regions: 129->129
[2022-05-30T21:13:16.524+0530][gc,metaspace  ] GC(18) Metaspace: 51436K->51436K(1095680K)
[2022-05-30T21:13:16.525+0530][gc            ] GC(18) Pause Young (Normal) (G1 Evacuation Pause) 194M->148M(1024M) 65.063ms
[2022-05-30T21:13:16.525+0530][gc,cpu        ] GC(18) User=0.12s Sys=0.02s Real=0.06s
[2022-05-30T21:28:59.445+0530][gc,start      ] GC(19) Pause Young (Normal) (G1 Evacuation Pause)
[2022-05-30T21:28:59.474+0530][gc,task       ] GC(19) Using 4 workers of 4 for evacuation
[2022-05-30T21:28:59.514+0530][gc,mmu        ] GC(19) MMU target violated: 21.0ms (20.0ms/21.0ms)
[2022-05-30T21:28:59.514+0530][gc,phases     ] GC(19)   Pre Evacuate Collection Set: 0.2ms
[2022-05-30T21:28:59.515+0530][gc,phases     ] GC(19)   Evacuate Collection Set: 36.5ms
[2022-05-30T21:28:59.515+0530][gc,phases     ] GC(19)   Post Evacuate Collection Set: 2.8ms
[2022-05-30T21:28:59.515+0530][gc,phases     ] GC(19)   Other: 29.8ms
[2022-05-30T21:28:59.515+0530][gc,heap       ] GC(19) Eden regions: 47->0(47)
[2022-05-30T21:28:59.515+0530][gc,heap       ] GC(19) Survivor regions: 4->4(7)
[2022-05-30T21:28:59.516+0530][gc,heap       ] GC(19) Old regions: 15->16
[2022-05-30T21:28:59.516+0530][gc,heap       ] GC(19) Humongous regions: 129->129
[2022-05-30T21:28:59.516+0530][gc,metaspace  ] GC(19) Metaspace: 51538K->51538K(1095680K)
[2022-05-30T21:28:59.516+0530][gc            ] GC(19) Pause Young (Normal) (G1 Evacuation Pause) 195M->147M(1024M) 71.095ms
[2022-05-30T21:28:59.516+0530][gc,cpu        ] GC(19) User=0.13s Sys=0.02s Real=0.07s
[2022-05-30T21:44:45.496+0530][gc,start      ] GC(20) Pause Young (Normal) (G1 Evacuation Pause)
[2022-05-30T21:44:45.528+0530][gc,task       ] GC(20) Using 4 workers of 4 for evacuation
[2022-05-30T21:44:45.577+0530][gc,mmu        ] GC(20) MMU target violated: 21.0ms (20.0ms/21.0ms)
[2022-05-30T21:44:45.577+0530][gc,phases     ] GC(20)   Pre Evacuate Collection Set: 0.1ms
[2022-05-30T21:44:45.577+0530][gc,phases     ] GC(20)   Evacuate Collection Set: 26.8ms
[2022-05-30T21:44:45.577+0530][gc,phases     ] GC(20)   Post Evacuate Collection Set: 21.0ms
[2022-05-30T21:44:45.578+0530][gc,phases     ] GC(20)   Other: 32.9ms
[2022-05-30T21:44:45.578+0530][gc,heap       ] GC(20) Eden regions: 47->0(47)
[2022-05-30T21:44:45.578+0530][gc,heap       ] GC(20) Survivor regions: 4->4(7)
[2022-05-30T21:44:45.578+0530][gc,heap       ] GC(20) Old regions: 16->16
[2022-05-30T21:44:45.578+0530][gc,heap       ] GC(20) Humongous regions: 129->129
[2022-05-30T21:44:45.578+0530][gc,metaspace  ] GC(20) Metaspace: 51540K->51540K(1095680K)
[2022-05-30T21:44:45.579+0530][gc            ] GC(20) Pause Young (Normal) (G1 Evacuation Pause) 194M->147M(1024M) 82.274ms
[2022-05-30T21:44:45.579+0530][gc,cpu        ] GC(20) User=0.11s Sys=0.00s Real=0.09s
[2022-05-30T21:59:42.527+0530][gc,start      ] GC(21) Pause Young (Normal) (G1 Evacuation Pause)
[2022-05-30T21:59:42.557+0530][gc,task       ] GC(21) Using 4 workers of 4 for evacuation
[2022-05-30T21:59:42.570+0530][gc,phases     ] GC(21)   Pre Evacuate Collection Set: 0.1ms
[2022-05-30T21:59:42.570+0530][gc,phases     ] GC(21)   Evacuate Collection Set: 10.6ms
[2022-05-30T21:59:42.571+0530][gc,phases     ] GC(21)   Post Evacuate Collection Set: 1.3ms
[2022-05-30T21:59:42.571+0530][gc,phases     ] GC(21)   Other: 31.5ms
[2022-05-30T21:59:42.571+0530][gc,heap       ] GC(21) Eden regions: 47->0(47)
[2022-05-30T21:59:42.571+0530][gc,heap       ] GC(21) Survivor regions: 4->4(7)
[2022-05-30T21:59:42.571+0530][gc,heap       ] GC(21) Old regions: 16->16
[2022-05-30T21:59:42.571+0530][gc,heap       ] GC(21) Humongous regions: 129->129
[2022-05-30T21:59:42.571+0530][gc,metaspace  ] GC(21) Metaspace: 51542K->51542K(1095680K)
[2022-05-30T21:59:42.572+0530][gc            ] GC(21) Pause Young (Normal) (G1 Evacuation Pause) 194M->147M(1024M) 44.968ms
[2022-05-30T21:59:42.572+0530][gc,cpu        ] GC(21) User=0.04s Sys=0.00s Real=0.05s
[2022-05-30T22:15:34.740+0530][gc,start      ] GC(22) Pause Young (Normal) (G1 Evacuation Pause)
[2022-05-30T22:15:34.767+0530][gc,task       ] GC(22) Using 4 workers of 4 for evacuation
[2022-05-30T22:15:34.781+0530][gc,phases     ] GC(22)   Pre Evacuate Collection Set: 0.2ms
[2022-05-30T22:15:34.781+0530][gc,phases     ] GC(22)   Evacuate Collection Set: 10.1ms
[2022-05-30T22:15:34.782+0530][gc,phases     ] GC(22)   Post Evacuate Collection Set: 2.3ms
[2022-05-30T22:15:34.782+0530][gc,phases     ] GC(22)   Other: 28.9ms
[2022-05-30T22:15:34.782+0530][gc,heap       ] GC(22) Eden regions: 47->0(48)
[2022-05-30T22:15:34.782+0530][gc,heap       ] GC(22) Survivor regions: 4->3(7)
[2022-05-30T22:15:34.782+0530][gc,heap       ] GC(22) Old regions: 16->16
[2022-05-30T22:15:34.782+0530][gc,heap       ] GC(22) Humongous regions: 129->129
[2022-05-30T22:15:34.783+0530][gc,metaspace  ] GC(22) Metaspace: 51554K->51554K(1095680K)
[2022-05-30T22:15:34.783+0530][gc            ] GC(22) Pause Young (Normal) (G1 Evacuation Pause) 194M->147M(1024M) 43.110ms
[2022-05-30T22:15:34.783+0530][gc,cpu        ] GC(22) User=0.05s Sys=0.00s Real=0.04s
[2022-05-30T22:31:58.111+0530][gc,start      ] GC(23) Pause Young (Normal) (G1 Evacuation Pause)
[2022-05-30T22:31:58.130+0530][gc,task       ] GC(23) Using 4 workers of 4 for evacuation
[2022-05-30T22:31:58.140+0530][gc,phases     ] GC(23)   Pre Evacuate Collection Set: 0.1ms
[2022-05-30T22:31:58.140+0530][gc,phases     ] GC(23)   Evacuate Collection Set: 8.5ms
[2022-05-30T22:31:58.140+0530][gc,phases     ] GC(23)   Post Evacuate Collection Set: 0.9ms
[2022-05-30T22:31:58.140+0530][gc,phases     ] GC(23)   Other: 19.0ms
[2022-05-30T22:31:58.140+0530][gc,heap       ] GC(23) Eden regions: 48->0(48)
[2022-05-30T22:31:58.140+0530][gc,heap       ] GC(23) Survivor regions: 3->3(7)
[2022-05-30T22:31:58.140+0530][gc,heap       ] GC(23) Old regions: 16->16
[2022-05-30T22:31:58.140+0530][gc,heap       ] GC(23) Humongous regions: 129->129
[2022-05-30T22:31:58.140+0530][gc,metaspace  ] GC(23) Metaspace: 51556K->51556K(1095680K)
[2022-05-30T22:31:58.140+0530][gc            ] GC(23) Pause Young (Normal) (G1 Evacuation Pause) 195M->147M(1024M) 28.820ms
[2022-05-30T22:31:58.140+0530][gc,cpu        ] GC(23) User=0.03s Sys=0.00s Real=0.03s
[2022-05-30T22:48:19.550+0530][gc,start      ] GC(24) Pause Young (Normal) (G1 Evacuation Pause)
[2022-05-30T22:48:19.576+0530][gc,task       ] GC(24) Using 4 workers of 4 for evacuation
[2022-05-30T22:48:19.594+0530][gc,phases     ] GC(24)   Pre Evacuate Collection Set: 0.1ms
[2022-05-30T22:48:19.594+0530][gc,phases     ] GC(24)   Evacuate Collection Set: 14.9ms
[2022-05-30T22:48:19.594+0530][gc,phases     ] GC(24)   Post Evacuate Collection Set: 2.2ms
[2022-05-30T22:48:19.595+0530][gc,phases     ] GC(24)   Other: 27.1ms
[2022-05-30T22:48:19.595+0530][gc,heap       ] GC(24) Eden regions: 48->0(48)
[2022-05-30T22:48:19.595+0530][gc,heap       ] GC(24) Survivor regions: 3->3(7)
[2022-05-30T22:48:19.595+0530][gc,heap       ] GC(24) Old regions: 16->16
[2022-05-30T22:48:19.595+0530][gc,heap       ] GC(24) Humongous regions: 129->129
[2022-05-30T22:48:19.595+0530][gc,metaspace  ] GC(24) Metaspace: 51562K->51562K(1095680K)
[2022-05-30T22:48:19.596+0530][gc            ] GC(24) Pause Young (Normal) (G1 Evacuation Pause) 195M->147M(1024M) 45.798ms
[2022-05-30T22:48:19.596+0530][gc,cpu        ] GC(24) User=0.05s Sys=0.01s Real=0.04s
[2022-05-30T23:03:41.487+0530][gc,start      ] GC(25) Pause Young (Normal) (G1 Evacuation Pause)
[2022-05-30T23:03:41.517+0530][gc,task       ] GC(25) Using 4 workers of 4 for evacuation
[2022-05-30T23:03:41.543+0530][gc,mmu        ] GC(25) MMU target violated: 21.0ms (20.0ms/21.0ms)
[2022-05-30T23:03:41.543+0530][gc,phases     ] GC(25)   Pre Evacuate Collection Set: 0.2ms
[2022-05-30T23:03:41.543+0530][gc,phases     ] GC(25)   Evacuate Collection Set: 21.5ms
[2022-05-30T23:03:41.544+0530][gc,phases     ] GC(25)   Post Evacuate Collection Set: 2.5ms
[2022-05-30T23:03:41.544+0530][gc,phases     ] GC(25)   Other: 32.5ms
[2022-05-30T23:03:41.544+0530][gc,heap       ] GC(25) Eden regions: 48->0(48)
[2022-05-30T23:03:41.544+0530][gc,heap       ] GC(25) Survivor regions: 3->3(7)
[2022-05-30T23:03:41.544+0530][gc,heap       ] GC(25) Old regions: 16->16
[2022-05-30T23:03:41.545+0530][gc,heap       ] GC(25) Humongous regions: 129->129
[2022-05-30T23:03:41.545+0530][gc,metaspace  ] GC(25) Metaspace: 51563K->51563K(1095680K)
[2022-05-30T23:03:41.545+0530][gc            ] GC(25) Pause Young (Normal) (G1 Evacuation Pause) 195M->147M(1024M) 58.410ms
[2022-05-30T23:03:41.545+0530][gc,cpu        ] GC(25) User=0.09s Sys=0.00s Real=0.06s
[2022-05-30T23:19:51.802+0530][gc,start      ] GC(26) Pause Young (Normal) (G1 Evacuation Pause)
[2022-05-30T23:19:51.853+0530][gc,task       ] GC(26) Using 4 workers of 4 for evacuation
[2022-05-30T23:19:51.869+0530][gc,phases     ] GC(26)   Pre Evacuate Collection Set: 0.1ms
[2022-05-30T23:19:51.869+0530][gc,phases     ] GC(26)   Evacuate Collection Set: 11.5ms
[2022-05-30T23:19:51.870+0530][gc,phases     ] GC(26)   Post Evacuate Collection Set: 3.4ms
[2022-05-30T23:19:51.870+0530][gc,phases     ] GC(26)   Other: 51.6ms
[2022-05-30T23:19:51.870+0530][gc,heap       ] GC(26) Eden regions: 48->0(48)
[2022-05-30T23:19:51.870+0530][gc,heap       ] GC(26) Survivor regions: 3->3(7)
[2022-05-30T23:19:51.870+0530][gc,heap       ] GC(26) Old regions: 16->16
[2022-05-30T23:19:51.870+0530][gc,heap       ] GC(26) Humongous regions: 129->129
[2022-05-30T23:19:51.870+0530][gc,metaspace  ] GC(26) Metaspace: 51624K->51624K(1095680K)
[2022-05-30T23:19:51.871+0530][gc            ] GC(26) Pause Young (Normal) (G1 Evacuation Pause) 195M->147M(1024M) 68.232ms
[2022-05-30T23:19:51.871+0530][gc,cpu        ] GC(26) User=0.04s Sys=0.00s Real=0.07s
[2022-05-30T23:36:51.711+0530][gc,start      ] GC(27) Pause Young (Normal) (G1 Evacuation Pause)
[2022-05-30T23:36:51.745+0530][gc,task       ] GC(27) Using 4 workers of 4 for evacuation
[2022-05-30T23:36:51.788+0530][gc,mmu        ] GC(27) MMU target violated: 21.0ms (20.0ms/21.0ms)
[2022-05-30T23:36:51.789+0530][gc,phases     ] GC(27)   Pre Evacuate Collection Set: 0.1ms
[2022-05-30T23:36:51.789+0530][gc,phases     ] GC(27)   Evacuate Collection Set: 40.2ms
[2022-05-30T23:36:51.789+0530][gc,phases     ] GC(27)   Post Evacuate Collection Set: 2.2ms
[2022-05-30T23:36:51.789+0530][gc,phases     ] GC(27)   Other: 34.6ms
[2022-05-30T23:36:51.789+0530][gc,heap       ] GC(27) Eden regions: 48->0(48)
[2022-05-30T23:36:51.789+0530][gc,heap       ] GC(27) Survivor regions: 3->3(7)
[2022-05-30T23:36:51.789+0530][gc,heap       ] GC(27) Old regions: 16->16
[2022-05-30T23:36:51.789+0530][gc,heap       ] GC(27) Humongous regions: 129->129
[2022-05-30T23:36:51.789+0530][gc,metaspace  ] GC(27) Metaspace: 51638K->51638K(1095680K)
[2022-05-30T23:36:51.789+0530][gc            ] GC(27) Pause Young (Normal) (G1 Evacuation Pause) 195M->147M(1024M) 77.613ms
[2022-05-30T23:36:51.789+0530][gc,cpu        ] GC(27) User=0.10s Sys=0.00s Real=0.08s
[2022-05-30T23:47:37.935+0530][gc,start      ] GC(28) Pause Young (Normal) (G1 Evacuation Pause)
[2022-05-30T23:47:37.982+0530][gc,task       ] GC(28) Using 4 workers of 4 for evacuation
[2022-05-30T23:47:37.992+0530][gc,phases     ] GC(28)   Pre Evacuate Collection Set: 0.1ms
[2022-05-30T23:47:37.992+0530][gc,phases     ] GC(28)   Evacuate Collection Set: 7.1ms
[2022-05-30T23:47:37.992+0530][gc,phases     ] GC(28)   Post Evacuate Collection Set: 1.4ms
[2022-05-30T23:47:37.992+0530][gc,phases     ] GC(28)   Other: 47.9ms
[2022-05-30T23:47:37.992+0530][gc,heap       ] GC(28) Eden regions: 48->0(48)
[2022-05-30T23:47:37.992+0530][gc,heap       ] GC(28) Survivor regions: 3->3(7)
[2022-05-30T23:47:37.992+0530][gc,heap       ] GC(28) Old regions: 16->16
[2022-05-30T23:47:37.992+0530][gc,heap       ] GC(28) Humongous regions: 129->129
[2022-05-30T23:47:37.992+0530][gc,metaspace  ] GC(28) Metaspace: 51746K->51746K(1095680K)
[2022-05-30T23:47:37.992+0530][gc            ] GC(28) Pause Young (Normal) (G1 Evacuation Pause) 195M->147M(1024M) 56.905ms
[2022-05-30T23:47:37.992+0530][gc,cpu        ] GC(28) User=0.03s Sys=0.00s Real=0.06s
[2022-05-30T23:58:13.978+0530][gc,start      ] GC(29) Pause Young (Normal) (G1 Evacuation Pause)
[2022-05-30T23:58:14.019+0530][gc,task       ] GC(29) Using 4 workers of 4 for evacuation
[2022-05-30T23:58:14.046+0530][gc,mmu        ] GC(29) MMU target violated: 21.0ms (20.0ms/21.0ms)
[2022-05-30T23:58:14.046+0530][gc,phases     ] GC(29)   Pre Evacuate Collection Set: 0.2ms
[2022-05-30T23:58:14.047+0530][gc,phases     ] GC(29)   Evacuate Collection Set: 24.1ms
[2022-05-30T23:58:14.047+0530][gc,phases     ] GC(29)   Post Evacuate Collection Set: 1.8ms
[2022-05-30T23:58:14.047+0530][gc,phases     ] GC(29)   Other: 42.6ms
[2022-05-30T23:58:14.047+0530][gc,heap       ] GC(29) Eden regions: 48->0(48)
[2022-05-30T23:58:14.047+0530][gc,heap       ] GC(29) Survivor regions: 3->3(7)
[2022-05-30T23:58:14.047+0530][gc,heap       ] GC(29) Old regions: 16->16
[2022-05-30T23:58:14.048+0530][gc,heap       ] GC(29) Humongous regions: 129->129
[2022-05-30T23:58:14.048+0530][gc,metaspace  ] GC(29) Metaspace: 51756K->51756K(1095680K)
[2022-05-30T23:58:14.048+0530][gc            ] GC(29) Pause Young (Normal) (G1 Evacuation Pause) 195M->147M(1024M) 70.017ms
[2022-05-30T23:58:14.048+0530][gc,cpu        ] GC(29) User=0.09s Sys=0.00s Real=0.07s
[2022-05-31T00:13:08.050+0530][gc,start      ] GC(30) Pause Young (Normal) (G1 Evacuation Pause)
[2022-05-31T00:13:08.069+0530][gc,task       ] GC(30) Using 4 workers of 4 for evacuation
[2022-05-31T00:13:08.091+0530][gc,mmu        ] GC(30) MMU target violated: 21.0ms (20.0ms/21.0ms)
[2022-05-31T00:13:08.092+0530][gc,phases     ] GC(30)   Pre Evacuate Collection Set: 0.1ms
[2022-05-31T00:13:08.092+0530][gc,phases     ] GC(30)   Evacuate Collection Set: 18.5ms
[2022-05-31T00:13:08.092+0530][gc,phases     ] GC(30)   Post Evacuate Collection Set: 3.0ms
[2022-05-31T00:13:08.092+0530][gc,phases     ] GC(30)   Other: 19.9ms
[2022-05-31T00:13:08.092+0530][gc,heap       ] GC(30) Eden regions: 48->0(48)
[2022-05-31T00:13:08.092+0530][gc,heap       ] GC(30) Survivor regions: 3->3(7)
[2022-05-31T00:13:08.092+0530][gc,heap       ] GC(30) Old regions: 16->16
[2022-05-31T00:13:08.092+0530][gc,heap       ] GC(30) Humongous regions: 129->129
[2022-05-31T00:13:08.092+0530][gc,metaspace  ] GC(30) Metaspace: 51756K->51756K(1095680K)
[2022-05-31T00:13:08.092+0530][gc            ] GC(30) Pause Young (Normal) (G1 Evacuation Pause) 195M->147M(1024M) 41.674ms
[2022-05-31T00:13:08.092+0530][gc,cpu        ] GC(30) User=0.07s Sys=0.00s Real=0.04s
[2022-05-31T00:28:57.645+0530][gc,start      ] GC(31) Pause Young (Normal) (G1 Evacuation Pause)
[2022-05-31T00:28:57.679+0530][gc,task       ] GC(31) Using 4 workers of 4 for evacuation
[2022-05-31T00:28:57.688+0530][gc,phases     ] GC(31)   Pre Evacuate Collection Set: 0.1ms
[2022-05-31T00:28:57.688+0530][gc,phases     ] GC(31)   Evacuate Collection Set: 8.0ms
[2022-05-31T00:28:57.688+0530][gc,phases     ] GC(31)   Post Evacuate Collection Set: 0.8ms
[2022-05-31T00:28:57.689+0530][gc,phases     ] GC(31)   Other: 34.6ms
[2022-05-31T00:28:57.689+0530][gc,heap       ] GC(31) Eden regions: 48->0(49)
[2022-05-31T00:28:57.689+0530][gc,heap       ] GC(31) Survivor regions: 3->3(7)
[2022-05-31T00:28:57.689+0530][gc,heap       ] GC(31) Old regions: 16->16
[2022-05-31T00:28:57.689+0530][gc,heap       ] GC(31) Humongous regions: 129->129
[2022-05-31T00:28:57.689+0530][gc,metaspace  ] GC(31) Metaspace: 51758K->51758K(1095680K)
[2022-05-31T00:28:57.689+0530][gc            ] GC(31) Pause Young (Normal) (G1 Evacuation Pause) 195M->147M(1024M) 43.771ms
[2022-05-31T00:28:57.689+0530][gc,cpu        ] GC(31) User=0.03s Sys=0.00s Real=0.05s
[2022-05-31T00:45:05.698+0530][gc,start      ] GC(32) Pause Young (Normal) (G1 Evacuation Pause)
[2022-05-31T00:45:05.723+0530][gc,task       ] GC(32) Using 4 workers of 4 for evacuation
[2022-05-31T00:45:05.738+0530][gc,phases     ] GC(32)   Pre Evacuate Collection Set: 0.2ms
[2022-05-31T00:45:05.739+0530][gc,phases     ] GC(32)   Evacuate Collection Set: 12.9ms
[2022-05-31T00:45:05.739+0530][gc,phases     ] GC(32)   Post Evacuate Collection Set: 1.3ms
[2022-05-31T00:45:05.739+0530][gc,phases     ] GC(32)   Other: 26.2ms
[2022-05-31T00:45:05.739+0530][gc,heap       ] GC(32) Eden regions: 49->0(58)
[2022-05-31T00:45:05.739+0530][gc,heap       ] GC(32) Survivor regions: 3->3(7)
[2022-05-31T00:45:05.739+0530][gc,heap       ] GC(32) Old regions: 16->16
[2022-05-31T00:45:05.740+0530][gc,heap       ] GC(32) Humongous regions: 129->129
[2022-05-31T00:45:05.740+0530][gc,metaspace  ] GC(32) Metaspace: 51766K->51766K(1095680K)
[2022-05-31T00:45:05.740+0530][gc            ] GC(32) Pause Young (Normal) (G1 Evacuation Pause) 196M->147M(1024M) 41.811ms
[2022-05-31T00:45:05.740+0530][gc,cpu        ] GC(32) User=0.05s Sys=0.00s Real=0.05s
[2022-05-31T01:03:27.792+0530][gc,start      ] GC(33) Pause Young (Normal) (G1 Evacuation Pause)
[2022-05-31T01:03:27.838+0530][gc,task       ] GC(33) Using 4 workers of 4 for evacuation
[2022-05-31T01:03:27.848+0530][gc,phases     ] GC(33)   Pre Evacuate Collection Set: 0.1ms
[2022-05-31T01:03:27.848+0530][gc,phases     ] GC(33)   Evacuate Collection Set: 8.3ms
[2022-05-31T01:03:27.848+0530][gc,phases     ] GC(33)   Post Evacuate Collection Set: 0.8ms
[2022-05-31T01:03:27.848+0530][gc,phases     ] GC(33)   Other: 47.2ms
[2022-05-31T01:03:27.848+0530][gc,heap       ] GC(33) Eden regions: 58->0(117)
[2022-05-31T01:03:27.848+0530][gc,heap       ] GC(33) Survivor regions: 3->3(8)
[2022-05-31T01:03:27.848+0530][gc,heap       ] GC(33) Old regions: 16->16
[2022-05-31T01:03:27.848+0530][gc,heap       ] GC(33) Humongous regions: 129->129
[2022-05-31T01:03:27.848+0530][gc,metaspace  ] GC(33) Metaspace: 51776K->51776K(1095680K)
[2022-05-31T01:03:27.848+0530][gc            ] GC(33) Pause Young (Normal) (G1 Evacuation Pause) 205M->147M(1024M) 56.721ms
[2022-05-31T01:03:27.848+0530][gc,cpu        ] GC(33) User=0.02s Sys=0.00s Real=0.05s
