[2022-06-03T19:55:03.016+0530][gc,heap] Heap region size: 1M
[2022-06-03T19:55:03.024+0530][gc     ] Using G1
[2022-06-03T19:55:03.024+0530][gc,heap,coops] Heap address: 0x00000000c0000000, size: 1024 MB, Compressed Oops mode: 32-bit
[2022-06-03T19:55:03.024+0530][gc,cds       ] Mark closed archive regions in map: [0x00000000fff00000, 0x00000000fff6aff8]
[2022-06-03T19:55:03.024+0530][gc,cds       ] Mark open archive regions in map: [0x00000000ffe00000, 0x00000000ffe46ff8]
[2022-06-03T19:55:04.273+0530][gc,start     ] GC(0) Pause Young (Normal) (G1 Evacuation Pause)
[2022-06-03T19:55:04.275+0530][gc,task      ] GC(0) Using 8 workers of 8 for evacuation
[2022-06-03T19:55:04.287+0530][gc,phases    ] GC(0)   Pre Evacuate Collection Set: 0.1ms
[2022-06-03T19:55:04.287+0530][gc,phases    ] GC(0)   Evacuate Collection Set: 10.8ms
[2022-06-03T19:55:04.287+0530][gc,phases    ] GC(0)   Post Evacuate Collection Set: 0.8ms
[2022-06-03T19:55:04.287+0530][gc,phases    ] GC(0)   Other: 2.1ms
[2022-06-03T19:55:04.287+0530][gc,heap      ] GC(0) Eden regions: 51->0(44)
[2022-06-03T19:55:04.287+0530][gc,heap      ] GC(0) Survivor regions: 0->7(7)
[2022-06-03T19:55:04.287+0530][gc,heap      ] GC(0) Old regions: 2->2
[2022-06-03T19:55:04.287+0530][gc,heap      ] GC(0) Humongous regions: 0->0
[2022-06-03T19:55:04.287+0530][gc,metaspace ] GC(0) Metaspace: 14882K->14882K(1062912K)
[2022-06-03T19:55:04.287+0530][gc           ] GC(0) Pause Young (Normal) (G1 Evacuation Pause) 51M->7M(1024M) 13.772ms
[2022-06-03T19:55:04.287+0530][gc,cpu       ] GC(0) User=0.06s Sys=0.00s Real=0.01s
[2022-06-03T19:55:05.830+0530][gc,start     ] GC(1) Pause Young (Concurrent Start) (Metadata GC Threshold)
[2022-06-03T19:55:05.830+0530][gc,task      ] GC(1) Using 8 workers of 8 for evacuation
[2022-06-03T19:55:05.841+0530][gc,phases    ] GC(1)   Pre Evacuate Collection Set: 0.1ms
[2022-06-03T19:55:05.841+0530][gc,phases    ] GC(1)   Evacuate Collection Set: 9.8ms
[2022-06-03T19:55:05.841+0530][gc,phases    ] GC(1)   Post Evacuate Collection Set: 0.6ms
[2022-06-03T19:55:05.841+0530][gc,phases    ] GC(1)   Other: 0.3ms
[2022-06-03T19:55:05.841+0530][gc,heap      ] GC(1) Eden regions: 24->0(49)
[2022-06-03T19:55:05.841+0530][gc,heap      ] GC(1) Survivor regions: 7->2(7)
[2022-06-03T19:55:05.841+0530][gc,heap      ] GC(1) Old regions: 2->9
[2022-06-03T19:55:05.841+0530][gc,heap      ] GC(1) Humongous regions: 0->0
[2022-06-03T19:55:05.841+0530][gc,metaspace ] GC(1) Metaspace: 20566K->20566K(1067008K)
[2022-06-03T19:55:05.841+0530][gc           ] GC(1) Pause Young (Concurrent Start) (Metadata GC Threshold) 31M->8M(1024M) 10.846ms
[2022-06-03T19:55:05.841+0530][gc,cpu       ] GC(1) User=0.04s Sys=0.01s Real=0.01s
[2022-06-03T19:55:05.841+0530][gc           ] GC(2) Concurrent Cycle
[2022-06-03T19:55:05.841+0530][gc,marking   ] GC(2) Concurrent Clear Claimed Marks
[2022-06-03T19:55:05.841+0530][gc,marking   ] GC(2) Concurrent Clear Claimed Marks 0.090ms
[2022-06-03T19:55:05.841+0530][gc,marking   ] GC(2) Concurrent Scan Root Regions
[2022-06-03T19:55:05.844+0530][gc,marking   ] GC(2) Concurrent Scan Root Regions 2.803ms
[2022-06-03T19:55:05.844+0530][gc,marking   ] GC(2) Concurrent Mark (2.831s)
[2022-06-03T19:55:05.844+0530][gc,marking   ] GC(2) Concurrent Mark From Roots
[2022-06-03T19:55:05.844+0530][gc,task      ] GC(2) Using 2 workers of 2 for marking
[2022-06-03T19:55:05.853+0530][gc,marking   ] GC(2) Concurrent Mark From Roots 9.208ms
[2022-06-03T19:55:05.853+0530][gc,marking   ] GC(2) Concurrent Preclean
[2022-06-03T19:55:05.854+0530][gc,marking   ] GC(2) Concurrent Preclean 0.404ms
[2022-06-03T19:55:05.854+0530][gc,marking   ] GC(2) Concurrent Mark (2.831s, 2.841s) 9.796ms
[2022-06-03T19:55:05.854+0530][gc,start     ] GC(2) Pause Remark
[2022-06-03T19:55:05.859+0530][gc,stringtable] GC(2) Cleaned string and symbol table, strings: 5215 processed, 0 removed, symbols: 51134 processed, 45 removed
[2022-06-03T19:55:05.859+0530][gc            ] GC(2) Pause Remark 9M->9M(1024M) 5.226ms
[2022-06-03T19:55:05.859+0530][gc,cpu        ] GC(2) User=0.02s Sys=0.00s Real=0.00s
[2022-06-03T19:55:05.859+0530][gc,marking    ] GC(2) Concurrent Rebuild Remembered Sets
[2022-06-03T19:55:05.866+0530][gc,marking    ] GC(2) Concurrent Rebuild Remembered Sets 7.296ms
[2022-06-03T19:55:05.867+0530][gc,start      ] GC(2) Pause Cleanup
[2022-06-03T19:55:05.867+0530][gc            ] GC(2) Pause Cleanup 10M->10M(1024M) 0.337ms
[2022-06-03T19:55:05.867+0530][gc,cpu        ] GC(2) User=0.00s Sys=0.00s Real=0.00s
[2022-06-03T19:55:05.867+0530][gc,marking    ] GC(2) Concurrent Cleanup for Next Mark
[2022-06-03T19:55:05.873+0530][gc,marking    ] GC(2) Concurrent Cleanup for Next Mark 6.169ms
[2022-06-03T19:55:05.873+0530][gc            ] GC(2) Concurrent Cycle 32.500ms
[2022-06-03T19:55:06.681+0530][gc,start      ] GC(3) Pause Young (Normal) (G1 Evacuation Pause)
[2022-06-03T19:55:06.681+0530][gc,task       ] GC(3) Using 8 workers of 8 for evacuation
[2022-06-03T19:55:06.693+0530][gc,phases     ] GC(3)   Pre Evacuate Collection Set: 0.0ms
[2022-06-03T19:55:06.693+0530][gc,phases     ] GC(3)   Evacuate Collection Set: 10.6ms
[2022-06-03T19:55:06.693+0530][gc,phases     ] GC(3)   Post Evacuate Collection Set: 0.7ms
[2022-06-03T19:55:06.693+0530][gc,phases     ] GC(3)   Other: 0.2ms
[2022-06-03T19:55:06.693+0530][gc,heap       ] GC(3) Eden regions: 49->0(46)
[2022-06-03T19:55:06.693+0530][gc,heap       ] GC(3) Survivor regions: 2->5(7)
[2022-06-03T19:55:06.693+0530][gc,heap       ] GC(3) Old regions: 9->9
[2022-06-03T19:55:06.693+0530][gc,heap       ] GC(3) Humongous regions: 129->129
[2022-06-03T19:55:06.693+0530][gc,metaspace  ] GC(3) Metaspace: 28988K->28988K(1075200K)
[2022-06-03T19:55:06.693+0530][gc            ] GC(3) Pause Young (Normal) (G1 Evacuation Pause) 186M->140M(1024M) 11.865ms
[2022-06-03T19:55:06.693+0530][gc,cpu        ] GC(3) User=0.08s Sys=0.00s Real=0.02s
[2022-06-03T19:55:07.547+0530][gc,start      ] GC(4) Pause Young (Concurrent Start) (Metadata GC Threshold)
[2022-06-03T19:55:07.547+0530][gc,task       ] GC(4) Using 8 workers of 8 for evacuation
[2022-06-03T19:55:07.561+0530][gc,phases     ] GC(4)   Pre Evacuate Collection Set: 0.1ms
[2022-06-03T19:55:07.561+0530][gc,phases     ] GC(4)   Evacuate Collection Set: 12.8ms
[2022-06-03T19:55:07.561+0530][gc,phases     ] GC(4)   Post Evacuate Collection Set: 0.8ms
[2022-06-03T19:55:07.561+0530][gc,phases     ] GC(4)   Other: 0.3ms
[2022-06-03T19:55:07.561+0530][gc,heap       ] GC(4) Eden regions: 27->0(45)
[2022-06-03T19:55:07.561+0530][gc,heap       ] GC(4) Survivor regions: 5->6(7)
[2022-06-03T19:55:07.561+0530][gc,heap       ] GC(4) Old regions: 9->10
[2022-06-03T19:55:07.561+0530][gc,heap       ] GC(4) Humongous regions: 129->129
[2022-06-03T19:55:07.561+0530][gc,metaspace  ] GC(4) Metaspace: 34413K->34413K(1081344K)
[2022-06-03T19:55:07.561+0530][gc            ] GC(4) Pause Young (Concurrent Start) (Metadata GC Threshold) 167M->142M(1024M) 14.294ms
[2022-06-03T19:55:07.561+0530][gc,cpu        ] GC(4) User=0.05s Sys=0.00s Real=0.01s
[2022-06-03T19:55:07.562+0530][gc            ] GC(5) Concurrent Cycle
[2022-06-03T19:55:07.562+0530][gc,marking    ] GC(5) Concurrent Clear Claimed Marks
[2022-06-03T19:55:07.562+0530][gc,marking    ] GC(5) Concurrent Clear Claimed Marks 0.608ms
[2022-06-03T19:55:07.562+0530][gc,marking    ] GC(5) Concurrent Scan Root Regions
[2022-06-03T19:55:07.569+0530][gc,marking    ] GC(5) Concurrent Scan Root Regions 6.181ms
[2022-06-03T19:55:07.569+0530][gc,marking    ] GC(5) Concurrent Mark (4.556s)
[2022-06-03T19:55:07.569+0530][gc,marking    ] GC(5) Concurrent Mark From Roots
[2022-06-03T19:55:07.569+0530][gc,task       ] GC(5) Using 2 workers of 2 for marking
[2022-06-03T19:55:07.584+0530][gc,marking    ] GC(5) Concurrent Mark From Roots 15.123ms
[2022-06-03T19:55:07.584+0530][gc,marking    ] GC(5) Concurrent Preclean
[2022-06-03T19:55:07.584+0530][gc,marking    ] GC(5) Concurrent Preclean 0.218ms
[2022-06-03T19:55:07.584+0530][gc,marking    ] GC(5) Concurrent Mark (4.556s, 4.571s) 15.435ms
[2022-06-03T19:55:07.584+0530][gc,start      ] GC(5) Pause Remark
[2022-06-03T19:55:07.591+0530][gc,stringtable] GC(5) Cleaned string and symbol table, strings: 10796 processed, 10 removed, symbols: 83535 processed, 15 removed
[2022-06-03T19:55:07.592+0530][gc            ] GC(5) Pause Remark 143M->143M(1024M) 7.738ms
[2022-06-03T19:55:07.592+0530][gc,cpu        ] GC(5) User=0.04s Sys=0.00s Real=0.01s
[2022-06-03T19:55:07.592+0530][gc,marking    ] GC(5) Concurrent Rebuild Remembered Sets
[2022-06-03T19:55:07.601+0530][gc,marking    ] GC(5) Concurrent Rebuild Remembered Sets 8.743ms
[2022-06-03T19:55:07.602+0530][gc,start      ] GC(5) Pause Cleanup
[2022-06-03T19:55:07.602+0530][gc            ] GC(5) Pause Cleanup 143M->143M(1024M) 0.516ms
[2022-06-03T19:55:07.602+0530][gc,cpu        ] GC(5) User=0.00s Sys=0.00s Real=0.00s
[2022-06-03T19:55:07.602+0530][gc,marking    ] GC(5) Concurrent Cleanup for Next Mark
[2022-06-03T19:55:07.612+0530][gc,marking    ] GC(5) Concurrent Cleanup for Next Mark 10.096ms
[2022-06-03T19:55:07.612+0530][gc            ] GC(5) Concurrent Cycle 50.891ms
[2022-06-03T20:06:24.069+0530][gc,start      ] GC(6) Pause Young (Normal) (G1 Evacuation Pause)
[2022-06-03T20:06:24.069+0530][gc,task       ] GC(6) Using 8 workers of 8 for evacuation
[2022-06-03T20:06:24.081+0530][gc,phases     ] GC(6)   Pre Evacuate Collection Set: 0.1ms
[2022-06-03T20:06:24.081+0530][gc,phases     ] GC(6)   Evacuate Collection Set: 11.0ms
[2022-06-03T20:06:24.081+0530][gc,phases     ] GC(6)   Post Evacuate Collection Set: 0.8ms
[2022-06-03T20:06:24.081+0530][gc,phases     ] GC(6)   Other: 0.5ms
[2022-06-03T20:06:24.081+0530][gc,heap       ] GC(6) Eden regions: 45->0(45)
[2022-06-03T20:06:24.081+0530][gc,heap       ] GC(6) Survivor regions: 6->6(7)
[2022-06-03T20:06:24.081+0530][gc,heap       ] GC(6) Old regions: 10->13
[2022-06-03T20:06:24.081+0530][gc,heap       ] GC(6) Humongous regions: 129->129
[2022-06-03T20:06:24.081+0530][gc,metaspace  ] GC(6) Metaspace: 40830K->40830K(1085440K)
[2022-06-03T20:06:24.081+0530][gc            ] GC(6) Pause Young (Normal) (G1 Evacuation Pause) 187M->145M(1024M) 12.443ms
[2022-06-03T20:06:24.081+0530][gc,cpu        ] GC(6) User=0.06s Sys=0.02s Real=0.01s
