[2022-05-30T11:59:14.322+0530][gc,heap] Heap region size: 1M
[2022-05-30T11:59:14.355+0530][gc     ] Using G1
[2022-05-30T11:59:14.355+0530][gc,heap,coops] Heap address: 0x00000000e0000000, size: 512 MB, Compressed Oops mode: 32-bit
[2022-05-30T11:59:21.578+0530][gc,start     ] GC(0) Pause Young (Normal) (G1 Evacuation Pause)
[2022-05-30T11:59:21.579+0530][gc,task      ] GC(0) Using 4 workers of 4 for evacuation
[2022-05-30T11:59:21.604+0530][gc,mmu       ] GC(0) MMU target violated: 21.0ms (20.0ms/21.0ms)
[2022-05-30T11:59:21.604+0530][gc,phases    ] GC(0)   Pre Evacuate Collection Set: 0.1ms
[2022-05-30T11:59:21.604+0530][gc,phases    ] GC(0)   Evacuate Collection Set: 22.8ms
[2022-05-30T11:59:21.605+0530][gc,phases    ] GC(0)   Post Evacuate Collection Set: 1.3ms
[2022-05-30T11:59:21.605+0530][gc,phases    ] GC(0)   Other: 1.8ms
[2022-05-30T11:59:21.605+0530][gc,heap      ] GC(0) Eden regions: 25->0(21)
[2022-05-30T11:59:21.605+0530][gc,heap      ] GC(0) Survivor regions: 0->4(4)
[2022-05-30T11:59:21.605+0530][gc,heap      ] GC(0) Old regions: 0->4
[2022-05-30T11:59:21.605+0530][gc,heap      ] GC(0) Humongous regions: 0->0
[2022-05-30T11:59:21.605+0530][gc,metaspace ] GC(0) Metaspace: 15360K->15360K(1062912K)
[2022-05-30T11:59:21.605+0530][gc           ] GC(0) Pause Young (Normal) (G1 Evacuation Pause) 25M->7M(512M) 26.890ms
[2022-05-30T11:59:21.605+0530][gc,cpu       ] GC(0) User=0.04s Sys=0.02s Real=0.03s
[2022-05-30T15:12:57.484+0530][gc,start     ] GC(1) Pause Young (Normal) (G1 Evacuation Pause)
[2022-05-30T15:12:57.485+0530][gc,task      ] GC(1) Using 4 workers of 4 for evacuation
[2022-05-30T15:13:00.659+0530][gc,mmu       ] GC(1) MMU target violated: 21.0ms (20.0ms/21.0ms)
[2022-05-30T15:13:00.659+0530][gc,phases    ] GC(1)   Pre Evacuate Collection Set: 8.0ms
[2022-05-30T15:13:00.659+0530][gc,phases    ] GC(1)   Evacuate Collection Set: 3102.3ms
[2022-05-30T15:13:00.659+0530][gc,phases    ] GC(1)   Post Evacuate Collection Set: 31.9ms
[2022-05-30T15:13:00.659+0530][gc,phases    ] GC(1)   Other: 32.8ms
[2022-05-30T15:13:00.659+0530][gc,heap      ] GC(1) Eden regions: 21->0(24)
[2022-05-30T15:13:00.659+0530][gc,heap      ] GC(1) Survivor regions: 4->1(4)
[2022-05-30T15:13:00.659+0530][gc,heap      ] GC(1) Old regions: 4->8
[2022-05-30T15:13:00.659+0530][gc,heap      ] GC(1) Humongous regions: 0->0
[2022-05-30T15:13:00.659+0530][gc,metaspace ] GC(1) Metaspace: 17166K->17166K(1064960K)
[2022-05-30T15:13:00.659+0530][gc           ] GC(1) Pause Young (Normal) (G1 Evacuation Pause) 28M->8M(512M) 3175.275ms
[2022-05-30T15:13:00.659+0530][gc,cpu       ] GC(1) User=1.00s Sys=0.23s Real=3.17s
