[2022-05-30T17:57:50.636+0530][gc,heap] Heap region size: 1M
[2022-05-30T17:57:50.673+0530][gc     ] Using G1
[2022-05-30T17:57:50.673+0530][gc,heap,coops] Heap address: 0x00000000e0000000, size: 512 MB, Compressed Oops mode: 32-bit
[2022-05-30T17:58:01.987+0530][gc,start     ] GC(0) Pause Young (Normal) (G1 Evacuation Pause)
[2022-05-30T17:58:01.988+0530][gc,task      ] GC(0) Using 4 workers of 4 for evacuation
[2022-05-30T17:58:02.016+0530][gc,mmu       ] GC(0) MMU target violated: 21.0ms (20.0ms/21.0ms)
[2022-05-30T17:58:02.017+0530][gc,phases    ] GC(0)   Pre Evacuate Collection Set: 0.0ms
[2022-05-30T17:58:02.017+0530][gc,phases    ] GC(0)   Evacuate Collection Set: 26.9ms
[2022-05-30T17:58:02.017+0530][gc,phases    ] GC(0)   Post Evacuate Collection Set: 1.0ms
[2022-05-30T17:58:02.017+0530][gc,phases    ] GC(0)   Other: 1.6ms
[2022-05-30T17:58:02.017+0530][gc,heap      ] GC(0) Eden regions: 25->0(21)
[2022-05-30T17:58:02.017+0530][gc,heap      ] GC(0) Survivor regions: 0->4(4)
[2022-05-30T17:58:02.017+0530][gc,heap      ] GC(0) Old regions: 0->4
[2022-05-30T17:58:02.017+0530][gc,heap      ] GC(0) Humongous regions: 0->0
[2022-05-30T17:58:02.017+0530][gc,metaspace ] GC(0) Metaspace: 15383K->15383K(1062912K)
[2022-05-30T17:58:02.017+0530][gc           ] GC(0) Pause Young (Normal) (G1 Evacuation Pause) 25M->7M(512M) 29.951ms
[2022-05-30T17:58:02.017+0530][gc,cpu       ] GC(0) User=0.04s Sys=0.04s Real=0.03s
[2022-05-30T22:06:47.297+0530][gc,start     ] GC(1) Pause Young (Normal) (G1 Evacuation Pause)
[2022-05-30T22:06:47.332+0530][gc,task      ] GC(1) Using 4 workers of 4 for evacuation
[2022-05-30T22:06:47.382+0530][gc,mmu       ] GC(1) MMU target violated: 21.0ms (20.0ms/21.0ms)
[2022-05-30T22:06:47.382+0530][gc,phases    ] GC(1)   Pre Evacuate Collection Set: 6.5ms
[2022-05-30T22:06:47.382+0530][gc,phases    ] GC(1)   Evacuate Collection Set: 40.2ms
[2022-05-30T22:06:47.382+0530][gc,phases    ] GC(1)   Post Evacuate Collection Set: 2.2ms
[2022-05-30T22:06:47.382+0530][gc,phases    ] GC(1)   Other: 36.4ms
[2022-05-30T22:06:47.382+0530][gc,heap      ] GC(1) Eden regions: 21->0(24)
[2022-05-30T22:06:47.382+0530][gc,heap      ] GC(1) Survivor regions: 4->1(4)
[2022-05-30T22:06:47.383+0530][gc,heap      ] GC(1) Old regions: 4->8
[2022-05-30T22:06:47.383+0530][gc,heap      ] GC(1) Humongous regions: 0->0
[2022-05-30T22:06:47.383+0530][gc,metaspace ] GC(1) Metaspace: 17037K->17037K(1064960K)
[2022-05-30T22:06:47.383+0530][gc           ] GC(1) Pause Young (Normal) (G1 Evacuation Pause) 28M->7M(512M) 85.328ms
[2022-05-30T22:06:47.383+0530][gc,cpu       ] GC(1) User=0.05s Sys=0.08s Real=0.09s
