[2022-05-31T11:02:40.966+0530][gc,heap] Heap region size: 1M
[2022-05-31T11:02:40.981+0530][gc     ] Using G1
[2022-05-31T11:02:40.981+0530][gc,heap,coops] Heap address: 0x00000000e0000000, size: 512 MB, Compressed Oops mode: 32-bit
[2022-05-31T11:02:47.340+0530][gc,start     ] GC(0) Pause Young (Normal) (G1 Evacuation Pause)
[2022-05-31T11:02:47.341+0530][gc,task      ] GC(0) Using 4 workers of 4 for evacuation
[2022-05-31T11:02:47.396+0530][gc,mmu       ] GC(0) MMU target violated: 21.0ms (20.0ms/21.0ms)
[2022-05-31T11:02:47.396+0530][gc,phases    ] GC(0)   Pre Evacuate Collection Set: 0.1ms
[2022-05-31T11:02:47.396+0530][gc,phases    ] GC(0)   Evacuate Collection Set: 52.0ms
[2022-05-31T11:02:47.396+0530][gc,phases    ] GC(0)   Post Evacuate Collection Set: 2.3ms
[2022-05-31T11:02:47.396+0530][gc,phases    ] GC(0)   Other: 1.8ms
[2022-05-31T11:02:47.396+0530][gc,heap      ] GC(0) Eden regions: 25->0(21)
[2022-05-31T11:02:47.397+0530][gc,heap      ] GC(0) Survivor regions: 0->4(4)
[2022-05-31T11:02:47.397+0530][gc,heap      ] GC(0) Old regions: 0->4
[2022-05-31T11:02:47.397+0530][gc,heap      ] GC(0) Humongous regions: 0->0
[2022-05-31T11:02:47.397+0530][gc,metaspace ] GC(0) Metaspace: 15371K->15371K(1062912K)
[2022-05-31T11:02:47.397+0530][gc           ] GC(0) Pause Young (Normal) (G1 Evacuation Pause) 25M->7M(512M) 56.773ms
[2022-05-31T11:02:47.397+0530][gc,cpu       ] GC(0) User=0.04s Sys=0.04s Real=0.05s
[2022-05-31T12:21:01.026+0530][gc,heap,exit ] Heap
[2022-05-31T12:21:01.064+0530][gc,heap,exit ]  garbage-first heap   total 524288K, used 19734K [0x00000000e0000000, 0x0000000100000000)
[2022-05-31T12:21:01.064+0530][gc,heap,exit ]   region size 1024K, 17 young (17408K), 4 survivors (4096K)
[2022-05-31T12:21:01.064+0530][gc,heap,exit ]  Metaspace       used 17046K, capacity 17426K, committed 17792K, reserved 1064960K
[2022-05-31T12:21:01.064+0530][gc,heap,exit ]   class space    used 1654K, capacity 1795K, committed 1920K, reserved 1048576K
