[2022-05-30T17:10:25.283+0530][gc,heap] Heap region size: 1M
[2022-05-30T17:10:25.300+0530][gc     ] Using G1
[2022-05-30T17:10:25.300+0530][gc,heap,coops] Heap address: 0x00000000e0000000, size: 512 MB, Compressed Oops mode: 32-bit
[2022-05-30T17:10:31.700+0530][gc,start     ] GC(0) Pause Young (Normal) (G1 Evacuation Pause)
[2022-05-30T17:10:31.701+0530][gc,task      ] GC(0) Using 4 workers of 4 for evacuation
[2022-05-30T17:10:31.742+0530][gc,mmu       ] GC(0) MMU target violated: 21.0ms (20.0ms/21.0ms)
[2022-05-30T17:10:31.742+0530][gc,phases    ] GC(0)   Pre Evacuate Collection Set: 0.1ms
[2022-05-30T17:10:31.742+0530][gc,phases    ] GC(0)   Evacuate Collection Set: 38.0ms
[2022-05-30T17:10:31.742+0530][gc,phases    ] GC(0)   Post Evacuate Collection Set: 1.6ms
[2022-05-30T17:10:31.742+0530][gc,phases    ] GC(0)   Other: 2.4ms
[2022-05-30T17:10:31.742+0530][gc,heap      ] GC(0) Eden regions: 25->0(21)
[2022-05-30T17:10:31.742+0530][gc,heap      ] GC(0) Survivor regions: 0->4(4)
[2022-05-30T17:10:31.742+0530][gc,heap      ] GC(0) Old regions: 0->4
[2022-05-30T17:10:31.742+0530][gc,heap      ] GC(0) Humongous regions: 0->0
[2022-05-30T17:10:31.742+0530][gc,metaspace ] GC(0) Metaspace: 15326K->15326K(1062912K)
[2022-05-30T17:10:31.742+0530][gc           ] GC(0) Pause Young (Normal) (G1 Evacuation Pause) 25M->7M(512M) 42.464ms
[2022-05-30T17:10:31.742+0530][gc,cpu       ] GC(0) User=0.04s Sys=0.03s Real=0.04s
