[2022-06-02T11:21:57.192+0530][gc,heap] Heap region size: 1M
[2022-06-02T11:21:57.197+0530][gc     ] Using G1
[2022-06-02T11:21:57.197+0530][gc,heap,coops] Heap address: 0x00000000e0000000, size: 512 MB, Compressed Oops mode: 32-bit
[2022-06-02T11:21:57.197+0530][gc,cds       ] Mark closed archive regions in map: [0x00000000fff00000, 0x00000000fff6aff8]
[2022-06-02T11:21:57.197+0530][gc,cds       ] Mark open archive regions in map: [0x00000000ffe00000, 0x00000000ffe46ff8]
[2022-06-02T11:21:59.154+0530][gc,start     ] GC(0) Pause Young (Normal) (G1 Evacuation Pause)
[2022-06-02T11:21:59.155+0530][gc,task      ] GC(0) Using 8 workers of 8 for evacuation
[2022-06-02T11:21:59.170+0530][gc,phases    ] GC(0)   Pre Evacuate Collection Set: 0.0ms
[2022-06-02T11:21:59.170+0530][gc,phases    ] GC(0)   Evacuate Collection Set: 14.3ms
[2022-06-02T11:21:59.170+0530][gc,phases    ] GC(0)   Post Evacuate Collection Set: 0.4ms
[2022-06-02T11:21:59.170+0530][gc,phases    ] GC(0)   Other: 1.0ms
[2022-06-02T11:21:59.170+0530][gc,heap      ] GC(0) Eden regions: 25->0(21)
[2022-06-02T11:21:59.170+0530][gc,heap      ] GC(0) Survivor regions: 0->4(4)
[2022-06-02T11:21:59.170+0530][gc,heap      ] GC(0) Old regions: 2->5
[2022-06-02T11:21:59.170+0530][gc,heap      ] GC(0) Humongous regions: 0->0
[2022-06-02T11:21:59.170+0530][gc,metaspace ] GC(0) Metaspace: 7614K->7614K(1056768K)
[2022-06-02T11:21:59.170+0530][gc           ] GC(0) Pause Young (Normal) (G1 Evacuation Pause) 25M->7M(512M) 15.889ms
[2022-06-02T11:21:59.170+0530][gc,cpu       ] GC(0) User=0.09s Sys=0.01s Real=0.02s
[2022-06-02T14:09:37.967+0530][gc,start     ] GC(1) Pause Young (Normal) (G1 Evacuation Pause)
[2022-06-02T14:09:38.042+0530][gc,task      ] GC(1) Using 8 workers of 8 for evacuation
[2022-06-02T14:09:38.053+0530][gc,phases    ] GC(1)   Pre Evacuate Collection Set: 0.0ms
[2022-06-02T14:09:38.053+0530][gc,phases    ] GC(1)   Evacuate Collection Set: 10.1ms
[2022-06-02T14:09:38.053+0530][gc,phases    ] GC(1)   Post Evacuate Collection Set: 0.4ms
[2022-06-02T14:09:38.053+0530][gc,phases    ] GC(1)   Other: 75.1ms
[2022-06-02T14:09:38.053+0530][gc,heap      ] GC(1) Eden regions: 21->0(24)
[2022-06-02T14:09:38.053+0530][gc,heap      ] GC(1) Survivor regions: 4->1(4)
[2022-06-02T14:09:38.053+0530][gc,heap      ] GC(1) Old regions: 5->9
[2022-06-02T14:09:38.053+0530][gc,heap      ] GC(1) Humongous regions: 0->0
[2022-06-02T14:09:38.053+0530][gc,metaspace ] GC(1) Metaspace: 9324K->9324K(1058816K)
[2022-06-02T14:09:38.053+0530][gc           ] GC(1) Pause Young (Normal) (G1 Evacuation Pause) 28M->8M(512M) 85.624ms
[2022-06-02T14:09:38.053+0530][gc,cpu       ] GC(1) User=0.08s Sys=0.00s Real=0.08s
[2022-06-02T19:51:50.404+0530][gc,heap,exit ] Heap
[2022-06-02T19:51:50.500+0530][gc,heap,exit ]  garbage-first heap   total 524288K, used 24855K [0x00000000e0000000, 0x0000000100000000)
[2022-06-02T19:51:50.500+0530][gc,heap,exit ]   region size 1024K, 18 young (18432K), 1 survivors (1024K)
[2022-06-02T19:51:50.500+0530][gc,heap,exit ]  Metaspace       used 9338K, capacity 9692K, committed 9984K, reserved 1058816K
[2022-06-02T19:51:50.500+0530][gc,heap,exit ]   class space    used 986K, capacity 1157K, committed 1280K, reserved 1048576K
