[2022-06-06T11:03:33.771+0530][gc,heap] Heap region size: 1M
[2022-06-06T11:03:33.778+0530][gc     ] Using G1
[2022-06-06T11:03:33.778+0530][gc,heap,coops] Heap address: 0x00000000e0000000, size: 512 MB, Compressed Oops mode: 32-bit
[2022-06-06T11:03:33.778+0530][gc,cds       ] Mark closed archive regions in map: [0x00000000fff00000, 0x00000000fff6aff8]
[2022-06-06T11:03:33.778+0530][gc,cds       ] Mark open archive regions in map: [0x00000000ffe00000, 0x00000000ffe46ff8]
[2022-06-06T11:03:43.146+0530][gc,start     ] GC(0) Pause Young (Normal) (G1 Evacuation Pause)
[2022-06-06T11:03:43.147+0530][gc,task      ] GC(0) Using 8 workers of 8 for evacuation
[2022-06-06T11:03:43.161+0530][gc,phases    ] GC(0)   Pre Evacuate Collection Set: 0.0ms
[2022-06-06T11:03:43.161+0530][gc,phases    ] GC(0)   Evacuate Collection Set: 13.5ms
[2022-06-06T11:03:43.161+0530][gc,phases    ] GC(0)   Post Evacuate Collection Set: 0.4ms
[2022-06-06T11:03:43.161+0530][gc,phases    ] GC(0)   Other: 1.1ms
[2022-06-06T11:03:43.161+0530][gc,heap      ] GC(0) Eden regions: 25->0(21)
[2022-06-06T11:03:43.161+0530][gc,heap      ] GC(0) Survivor regions: 0->4(4)
[2022-06-06T11:03:43.161+0530][gc,heap      ] GC(0) Old regions: 2->6
[2022-06-06T11:03:43.161+0530][gc,heap      ] GC(0) Humongous regions: 0->0
[2022-06-06T11:03:43.161+0530][gc,metaspace ] GC(0) Metaspace: 7704K->7704K(1056768K)
[2022-06-06T11:03:43.161+0530][gc           ] GC(0) Pause Young (Normal) (G1 Evacuation Pause) 25M->7M(512M) 15.177ms
[2022-06-06T11:03:43.161+0530][gc,cpu       ] GC(0) User=0.07s Sys=0.01s Real=0.01s
[2022-06-06T14:55:52.457+0530][gc,heap,exit ] Heap
[2022-06-06T14:55:52.553+0530][gc,heap,exit ]  garbage-first heap   total 524288K, used 26343K [0x00000000e0000000, 0x0000000100000000)
[2022-06-06T14:55:52.553+0530][gc,heap,exit ]   region size 1024K, 23 young (23552K), 4 survivors (4096K)
[2022-06-06T14:55:52.553+0530][gc,heap,exit ]  Metaspace       used 9295K, capacity 9704K, committed 9984K, reserved 1058816K
[2022-06-06T14:55:52.553+0530][gc,heap,exit ]   class space    used 987K, capacity 1157K, committed 1280K, reserved 1048576K
