[2022-05-06T19:51:39.314+0530][gc,heap] Heap region size: 1M
[2022-05-06T19:51:39.336+0530][gc     ] Using G1
[2022-05-06T19:51:39.336+0530][gc,heap,coops] Heap address: 0x00000000e0000000, size: 512 MB, Compressed Oops mode: 32-bit
[2022-05-06T19:51:48.332+0530][gc,start     ] GC(0) Pause Young (Normal) (G1 Evacuation Pause)
[2022-05-06T19:51:48.333+0530][gc,task      ] GC(0) Using 4 workers of 4 for evacuation
[2022-05-06T19:51:48.390+0530][gc,mmu       ] GC(0) MMU target violated: 21.0ms (20.0ms/21.0ms)
[2022-05-06T19:51:48.390+0530][gc,phases    ] GC(0)   Pre Evacuate Collection Set: 0.1ms
[2022-05-06T19:51:48.390+0530][gc,phases    ] GC(0)   Evacuate Collection Set: 55.8ms
[2022-05-06T19:51:48.390+0530][gc,phases    ] GC(0)   Post Evacuate Collection Set: 1.1ms
[2022-05-06T19:51:48.390+0530][gc,phases    ] GC(0)   Other: 1.7ms
[2022-05-06T19:51:48.390+0530][gc,heap      ] GC(0) Eden regions: 25->0(21)
[2022-05-06T19:51:48.391+0530][gc,heap      ] GC(0) Survivor regions: 0->4(4)
[2022-05-06T19:51:48.391+0530][gc,heap      ] GC(0) Old regions: 0->4
[2022-05-06T19:51:48.391+0530][gc,heap      ] GC(0) Humongous regions: 0->0
[2022-05-06T19:51:48.391+0530][gc,metaspace ] GC(0) Metaspace: 15338K->15338K(1062912K)
[2022-05-06T19:51:48.391+0530][gc           ] GC(0) Pause Young (Normal) (G1 Evacuation Pause) 25M->7M(512M) 58.951ms
[2022-05-06T19:51:48.391+0530][gc,cpu       ] GC(0) User=0.07s Sys=0.05s Real=0.06s
[2022-05-06T22:37:49.190+0530][gc,start     ] GC(1) Pause Young (Normal) (G1 Evacuation Pause)
[2022-05-06T22:37:49.228+0530][gc,task      ] GC(1) Using 4 workers of 4 for evacuation
[2022-05-06T22:38:03.139+0530][gc,mmu       ] GC(1) MMU target violated: 21.0ms (20.0ms/21.0ms)
[2022-05-06T22:38:03.139+0530][gc,phases    ] GC(1)   Pre Evacuate Collection Set: 76.9ms
[2022-05-06T22:38:03.139+0530][gc,phases    ] GC(1)   Evacuate Collection Set: 13614.7ms
[2022-05-06T22:38:03.139+0530][gc,phases    ] GC(1)   Post Evacuate Collection Set: 205.2ms
[2022-05-06T22:38:03.140+0530][gc,phases    ] GC(1)   Other: 53.1ms
[2022-05-06T22:38:03.140+0530][gc,heap      ] GC(1) Eden regions: 21->0(24)
[2022-05-06T22:38:03.140+0530][gc,heap      ] GC(1) Survivor regions: 4->1(4)
[2022-05-06T22:38:03.140+0530][gc,heap      ] GC(1) Old regions: 4->8
[2022-05-06T22:38:03.140+0530][gc,heap      ] GC(1) Humongous regions: 0->0
[2022-05-06T22:38:03.140+0530][gc,metaspace ] GC(1) Metaspace: 17114K->17114K(1064960K)
[2022-05-06T22:38:03.140+0530][gc           ] GC(1) Pause Young (Normal) (G1 Evacuation Pause) 28M->8M(512M) 13949.766ms
[2022-05-06T22:38:03.140+0530][gc,cpu       ] GC(1) User=7.85s Sys=0.25s Real=13.95s
[2022-05-07T00:21:39.674+0530][gc,heap,exit ] Heap
[2022-05-07T00:21:39.723+0530][gc,heap,exit ]  garbage-first heap   total 524288K, used 16470K [0x00000000e0000000, 0x0000000100000000)
[2022-05-07T00:21:39.723+0530][gc,heap,exit ]   region size 1024K, 10 young (10240K), 1 survivors (1024K)
[2022-05-07T00:21:39.723+0530][gc,heap,exit ]  Metaspace       used 17216K, capacity 17607K, committed 17792K, reserved 1064960K
[2022-05-07T00:21:39.723+0530][gc,heap,exit ]   class space    used 1662K, capacity 1827K, committed 1920K, reserved 1048576K
