[2022-05-31T17:33:17.292+0530][gc,heap] Heap region size: 1M
[2022-05-31T17:33:17.297+0530][gc     ] Using G1
[2022-05-31T17:33:17.297+0530][gc,heap,coops] Heap address: 0x00000000e0000000, size: 512 MB, Compressed Oops mode: 32-bit
[2022-05-31T17:33:17.297+0530][gc,cds       ] Mark closed archive regions in map: [0x00000000fff00000, 0x00000000fff6aff8]
[2022-05-31T17:33:17.297+0530][gc,cds       ] Mark open archive regions in map: [0x00000000ffe00000, 0x00000000ffe46ff8]
[2022-05-31T17:33:20.720+0530][gc,start     ] GC(0) Pause Young (Normal) (G1 Evacuation Pause)
[2022-05-31T17:33:20.721+0530][gc,task      ] GC(0) Using 8 workers of 8 for evacuation
[2022-05-31T17:33:20.746+0530][gc,mmu       ] GC(0) MMU target violated: 21.0ms (20.0ms/21.0ms)
[2022-05-31T17:33:20.746+0530][gc,phases    ] GC(0)   Pre Evacuate Collection Set: 0.1ms
[2022-05-31T17:33:20.746+0530][gc,phases    ] GC(0)   Evacuate Collection Set: 11.6ms
[2022-05-31T17:33:20.746+0530][gc,phases    ] GC(0)   Post Evacuate Collection Set: 12.5ms
[2022-05-31T17:33:20.746+0530][gc,phases    ] GC(0)   Other: 18.1ms
[2022-05-31T17:33:20.746+0530][gc,heap      ] GC(0) Eden regions: 25->0(21)
[2022-05-31T17:33:20.746+0530][gc,heap      ] GC(0) Survivor regions: 0->4(4)
[2022-05-31T17:33:20.746+0530][gc,heap      ] GC(0) Old regions: 2->5
[2022-05-31T17:33:20.746+0530][gc,heap      ] GC(0) Humongous regions: 0->0
[2022-05-31T17:33:20.746+0530][gc,metaspace ] GC(0) Metaspace: 7691K->7691K(1056768K)
[2022-05-31T17:33:20.746+0530][gc           ] GC(0) Pause Young (Normal) (G1 Evacuation Pause) 25M->7M(512M) 26.422ms
[2022-05-31T17:33:20.746+0530][gc,cpu       ] GC(0) User=0.07s Sys=0.01s Real=0.03s
[2022-06-01T00:30:26.869+0530][gc,start     ] GC(1) Pause Young (Normal) (G1 Evacuation Pause)
[2022-06-01T00:30:26.879+0530][gc,task      ] GC(1) Using 8 workers of 8 for evacuation
[2022-06-01T00:30:26.890+0530][gc,phases    ] GC(1)   Pre Evacuate Collection Set: 0.0ms
[2022-06-01T00:30:26.890+0530][gc,phases    ] GC(1)   Evacuate Collection Set: 9.7ms
[2022-06-01T00:30:26.890+0530][gc,phases    ] GC(1)   Post Evacuate Collection Set: 0.3ms
[2022-06-01T00:30:26.890+0530][gc,phases    ] GC(1)   Other: 11.0ms
[2022-06-01T00:30:26.890+0530][gc,heap      ] GC(1) Eden regions: 21->0(24)
[2022-06-01T00:30:26.890+0530][gc,heap      ] GC(1) Survivor regions: 4->1(4)
[2022-06-01T00:30:26.890+0530][gc,heap      ] GC(1) Old regions: 5->10
[2022-06-01T00:30:26.890+0530][gc,heap      ] GC(1) Humongous regions: 0->0
[2022-06-01T00:30:26.890+0530][gc,metaspace ] GC(1) Metaspace: 9357K->9357K(1058816K)
[2022-06-01T00:30:26.890+0530][gc           ] GC(1) Pause Young (Normal) (G1 Evacuation Pause) 28M->8M(512M) 21.121ms
[2022-06-01T00:30:26.890+0530][gc,cpu       ] GC(1) User=0.08s Sys=0.00s Real=0.02s
[2022-06-01T01:29:06.815+0530][gc,heap,exit ] Heap
[2022-06-01T01:29:06.815+0530][gc,heap,exit ]  garbage-first heap   total 524288K, used 12686K [0x00000000e0000000, 0x0000000100000000)
[2022-06-01T01:29:06.815+0530][gc,heap,exit ]   region size 1024K, 6 young (6144K), 1 survivors (1024K)
[2022-06-01T01:29:06.815+0530][gc,heap,exit ]  Metaspace       used 9361K, capacity 9772K, committed 9984K, reserved 1058816K
[2022-06-01T01:29:06.815+0530][gc,heap,exit ]   class space    used 987K, capacity 1157K, committed 1280K, reserved 1048576K
